EESchema Schematic File Version 4
EELAYER 30 0
EELAYER END
$Descr A4 11693 8268
encoding utf-8
Sheet 2 8
Title ""
Date ""
Rev ""
Comp ""
Comment1 ""
Comment2 ""
Comment3 ""
Comment4 ""
$EndDescr
$Comp
L 000_symbol:MicroController_ATMEGA4809-MUR U201
U 1 1 63697511
P 9000 2050
F 0 "U201" H 8950 2050 50  0000 L CNN
F 1 "MicroController_ATMEGA4809-MUR" H 8300 1200 50  0000 L CNN
F 2 "Package_DFN_QFN:UQFN-48-1EP_6x6mm_P0.4mm_EP4.45x4.45mm_ThermalVias" H 9000 2100 50  0001 C CNN
F 3 "" H 9000 2050 50  0001 C CNN
F 4 "Microchip Technology" H 9000 2050 50  0001 C CNN "Manufacturer"
F 5 "ATMEGA4809-MUR" H 9000 2050 50  0001 C CNN "Part Number"
	1    9000 2050
	1    0    0    -1  
$EndComp
$Comp
L Device:R R?
U 1 1 636C1217
P 6550 4150
AR Path="/636C1217" Ref="R?"  Part="1" 
AR Path="/610CCB80/636C1217" Ref="R?"  Part="1" 
AR Path="/614407CE/636C1217" Ref="R?"  Part="1" 
AR Path="/61465E4A/636C1217" Ref="R?"  Part="1" 
AR Path="/61481D40/636C1217" Ref="R?"  Part="1" 
AR Path="/63686327/636C1217" Ref="R215"  Part="1" 
F 0 "R215" H 6400 4200 50  0000 L CNN
F 1 "330" H 6350 4100 50  0000 L CNN
F 2 "Resistor_SMD:R_0402_1005Metric" V 6480 4150 50  0001 C CNN
F 3 "" H 6550 4150 50  0001 C CNN
F 4 "Yageo" H 6550 4150 50  0001 C CNN "Manufacturer"
F 5 "RC0402FR-07330RL" H 6550 4150 50  0001 C CNN "Part Number"
	1    6550 4150
	-1   0    0    1   
$EndComp
$Comp
L Device:C C?
U 1 1 636C121F
P 6300 4200
AR Path="/636C121F" Ref="C?"  Part="1" 
AR Path="/610CCB80/636C121F" Ref="C?"  Part="1" 
AR Path="/614407CE/636C121F" Ref="C?"  Part="1" 
AR Path="/61465E4A/636C121F" Ref="C?"  Part="1" 
AR Path="/61481D40/636C121F" Ref="C?"  Part="1" 
AR Path="/63686327/636C121F" Ref="C210"  Part="1" 
F 0 "C210" H 6250 4100 50  0000 C CNN
F 1 "1u" H 6250 4300 50  0000 C CNN
F 2 "Capacitor_SMD:C_0603_1608Metric" H 6338 4050 50  0001 C CNN
F 3 "" H 6300 4200 50  0001 C CNN
F 4 "Samsung Electro-Mechanics" V 6300 4200 50  0001 C CNN "Manufacturer"
F 5 "CL10B105KA8NNNC" V 6300 4200 50  0001 C CNN "Part Number"
	1    6300 4200
	-1   0    0    1   
$EndComp
$Comp
L power:GND #PWR?
U 1 1 636C1225
P 5250 4200
AR Path="/636C1225" Ref="#PWR?"  Part="1" 
AR Path="/610CCB80/636C1225" Ref="#PWR?"  Part="1" 
AR Path="/614407CE/636C1225" Ref="#PWR?"  Part="1" 
AR Path="/61465E4A/636C1225" Ref="#PWR?"  Part="1" 
AR Path="/61481D40/636C1225" Ref="#PWR?"  Part="1" 
AR Path="/63686327/636C1225" Ref="#PWR0212"  Part="1" 
F 0 "#PWR0212" H 5250 3950 50  0001 C CNN
F 1 "GND" H 5350 4100 50  0000 C CNN
F 2 "" H 5250 4200 50  0001 C CNN
F 3 "" H 5250 4200 50  0001 C CNN
	1    5250 4200
	1    0    0    -1  
$EndComp
Wire Wire Line
	5350 4000 5250 4000
Wire Wire Line
	5250 4000 5250 4200
Wire Wire Line
	5350 4100 5300 4100
Wire Wire Line
	5300 4100 5300 3900
Wire Wire Line
	5300 3900 5350 3900
$Comp
L power:GND #PWR?
U 1 1 636C5B3C
P 6300 4400
AR Path="/636C5B3C" Ref="#PWR?"  Part="1" 
AR Path="/610CCB80/636C5B3C" Ref="#PWR?"  Part="1" 
AR Path="/614407CE/636C5B3C" Ref="#PWR?"  Part="1" 
AR Path="/61465E4A/636C5B3C" Ref="#PWR?"  Part="1" 
AR Path="/61481D40/636C5B3C" Ref="#PWR?"  Part="1" 
AR Path="/63686327/636C5B3C" Ref="#PWR0217"  Part="1" 
F 0 "#PWR0217" H 6300 4150 50  0001 C CNN
F 1 "GND" H 6400 4300 50  0000 C CNN
F 2 "" H 6300 4400 50  0001 C CNN
F 3 "" H 6300 4400 50  0001 C CNN
	1    6300 4400
	1    0    0    -1  
$EndComp
Wire Wire Line
	6300 4350 6300 4400
Wire Wire Line
	6300 4050 6300 3950
Wire Wire Line
	6300 3950 6150 3950
$Comp
L Device:C C?
U 1 1 636C747C
P 5050 4150
AR Path="/636C747C" Ref="C?"  Part="1" 
AR Path="/610CCB80/636C747C" Ref="C?"  Part="1" 
AR Path="/614407CE/636C747C" Ref="C?"  Part="1" 
AR Path="/61465E4A/636C747C" Ref="C?"  Part="1" 
AR Path="/61481D40/636C747C" Ref="C?"  Part="1" 
AR Path="/63686327/636C747C" Ref="C209"  Part="1" 
F 0 "C209" H 5000 4050 50  0000 C CNN
F 1 "22u" H 5000 4250 50  0000 C CNN
F 2 "Capacitor_SMD:C_0805_2012Metric" H 5088 4000 50  0001 C CNN
F 3 "" H 5050 4150 50  0001 C CNN
F 4 "Samsung Electro-Mechanics" V 5050 4150 50  0001 C CNN "Manufacturer"
F 5 "CL21A226MPCLRNC" V 5050 4150 50  0001 C CNN "Part Number"
	1    5050 4150
	-1   0    0    1   
$EndComp
$Comp
L power:GND #PWR?
U 1 1 636C74EC
P 5050 4350
AR Path="/636C74EC" Ref="#PWR?"  Part="1" 
AR Path="/610CCB80/636C74EC" Ref="#PWR?"  Part="1" 
AR Path="/614407CE/636C74EC" Ref="#PWR?"  Part="1" 
AR Path="/61465E4A/636C74EC" Ref="#PWR?"  Part="1" 
AR Path="/61481D40/636C74EC" Ref="#PWR?"  Part="1" 
AR Path="/63686327/636C74EC" Ref="#PWR0216"  Part="1" 
F 0 "#PWR0216" H 5050 4100 50  0001 C CNN
F 1 "GND" H 5150 4250 50  0000 C CNN
F 2 "" H 5050 4350 50  0001 C CNN
F 3 "" H 5050 4350 50  0001 C CNN
	1    5050 4350
	1    0    0    -1  
$EndComp
Wire Wire Line
	5050 4300 5050 4350
Wire Wire Line
	5050 4000 5050 3900
Wire Wire Line
	5050 3900 5300 3900
Connection ~ 5300 3900
$Comp
L Device:LED D207
U 1 1 636CB64D
P 6550 4500
F 0 "D207" V 6589 4382 50  0000 R CNN
F 1 "LED Green" V 6498 4382 50  0000 R CNN
F 2 "LED_SMD:LED_0603_1608Metric" H 6550 4500 50  0001 C CNN
F 3 "" H 6550 4500 50  0001 C CNN
F 4 "Broadcom Limited" V 6550 4500 50  0001 C CNN "Manufacturer"
F 5 "HSMG-C190" V 6550 4500 50  0001 C CNN "Part Number"
	1    6550 4500
	0    -1   -1   0   
$EndComp
$Comp
L power:GND #PWR?
U 1 1 636CC9ED
P 6550 4700
AR Path="/636CC9ED" Ref="#PWR?"  Part="1" 
AR Path="/610CCB80/636CC9ED" Ref="#PWR?"  Part="1" 
AR Path="/614407CE/636CC9ED" Ref="#PWR?"  Part="1" 
AR Path="/61465E4A/636CC9ED" Ref="#PWR?"  Part="1" 
AR Path="/61481D40/636CC9ED" Ref="#PWR?"  Part="1" 
AR Path="/63686327/636CC9ED" Ref="#PWR0218"  Part="1" 
F 0 "#PWR0218" H 6550 4450 50  0001 C CNN
F 1 "GND" H 6650 4600 50  0000 C CNN
F 2 "" H 6550 4700 50  0001 C CNN
F 3 "" H 6550 4700 50  0001 C CNN
	1    6550 4700
	1    0    0    -1  
$EndComp
Wire Wire Line
	6550 4300 6550 4350
Wire Wire Line
	6550 4650 6550 4700
Wire Wire Line
	6300 3950 6550 3950
Wire Wire Line
	6550 3950 6550 4000
Connection ~ 6300 3950
Text Label 6300 3950 0    50   ~ 0
+3.3V
$Comp
L dk_TVS-Diodes:PRTR5V0U2X_215 D205
U 1 1 636E3B08
P 1900 3100
F 0 "D205" V 2250 3200 60  0000 R CNN
F 1 "PRTR5V0U2X_215" V 1750 3950 60  0000 R CNN
F 2 "digikey-footprints:TO-253-4" H 2100 3300 60  0001 L CNN
F 3 "https://assets.nexperia.com/documents/data-sheet/PRTR5V0U2X.pdf" H 2100 3400 60  0001 L CNN
F 4 "Nexperia" H 2100 4200 60  0001 L CNN "Manufacturer"
F 5 "PRTR5V0U2X,215" H 2100 3600 60  0001 L CNN "Part Number"
	1    1900 3100
	0    -1   -1   0   
$EndComp
$Comp
L Connector_Generic:Conn_02x03_Odd_Even J201
U 1 1 636F37A6
P 2150 950
F 0 "J201" H 2200 1267 50  0000 C CNN
F 1 "Conn_02x03_Odd_Even" H 2200 1176 50  0000 C CNN
F 2 "Connector_PinHeader_2.54mm:PinHeader_2x03_P2.54mm_Vertical" H 2150 950 50  0001 C CNN
F 3 "" H 2150 950 50  0001 C CNN
F 4 "Sullins Connector Solutions" H 2150 950 50  0001 C CNN "Manufacturer"
F 5 "PEC03DAAN" H 2150 950 50  0001 C CNN "Part Number"
	1    2150 950 
	1    0    0    -1  
$EndComp
$Comp
L Device:C C?
U 1 1 636F69AB
P 800 3900
AR Path="/636F69AB" Ref="C?"  Part="1" 
AR Path="/610CCB80/636F69AB" Ref="C?"  Part="1" 
AR Path="/614407CE/636F69AB" Ref="C?"  Part="1" 
AR Path="/61465E4A/636F69AB" Ref="C?"  Part="1" 
AR Path="/61481D40/636F69AB" Ref="C?"  Part="1" 
AR Path="/63686327/636F69AB" Ref="C207"  Part="1" 
F 0 "C207" H 750 3800 50  0000 C CNN
F 1 "4.7n" H 750 4000 50  0000 C CNN
F 2 "Capacitor_SMD:C_0805_2012Metric" H 838 3750 50  0001 C CNN
F 3 "" H 800 3900 50  0001 C CNN
F 4 "KEMET" V 800 3900 50  0001 C CNN "Manufacturer"
F 5 "C0805C472KDRACTU" V 800 3900 50  0001 C CNN "Part Number"
	1    800  3900
	-1   0    0    1   
$EndComp
$Comp
L Device:R R?
U 1 1 636FAFDC
P 1150 3900
AR Path="/636FAFDC" Ref="R?"  Part="1" 
AR Path="/610CCB80/636FAFDC" Ref="R?"  Part="1" 
AR Path="/614407CE/636FAFDC" Ref="R?"  Part="1" 
AR Path="/61465E4A/636FAFDC" Ref="R?"  Part="1" 
AR Path="/61481D40/636FAFDC" Ref="R?"  Part="1" 
AR Path="/63686327/636FAFDC" Ref="R214"  Part="1" 
F 0 "R214" H 1000 3950 50  0000 L CNN
F 1 "1M" H 1000 3850 50  0000 L CNN
F 2 "Resistor_SMD:R_0603_1608Metric" V 1080 3900 50  0001 C CNN
F 3 "" H 1150 3900 50  0001 C CNN
F 4 "Yageo" H 1150 3900 50  0001 C CNN "Manufacturer"
F 5 "RC0603FR-071ML" H 1150 3900 50  0001 C CNN "Part Number"
	1    1150 3900
	-1   0    0    1   
$EndComp
$Comp
L Device:R R?
U 1 1 636FFB58
P 3050 1050
AR Path="/636FFB58" Ref="R?"  Part="1" 
AR Path="/610CCB80/636FFB58" Ref="R?"  Part="1" 
AR Path="/614407CE/636FFB58" Ref="R?"  Part="1" 
AR Path="/61465E4A/636FFB58" Ref="R?"  Part="1" 
AR Path="/61481D40/636FFB58" Ref="R?"  Part="1" 
AR Path="/63686327/636FFB58" Ref="R204"  Part="1" 
F 0 "R204" V 2950 1100 50  0000 L CNN
F 1 "4.7k" V 2950 900 50  0000 L CNN
F 2 "Resistor_SMD:R_0402_1005Metric" V 2980 1050 50  0001 C CNN
F 3 "" H 3050 1050 50  0001 C CNN
F 4 "Yageo" H 3050 1050 50  0001 C CNN "Manufacturer"
F 5 "AC0402FR-074K7L" H 3050 1050 50  0001 C CNN "Part Number"
	1    3050 1050
	0    -1   -1   0   
$EndComp
$Comp
L Device:C C?
U 1 1 6370728A
P 2600 2650
AR Path="/6370728A" Ref="C?"  Part="1" 
AR Path="/610CCB80/6370728A" Ref="C?"  Part="1" 
AR Path="/614407CE/6370728A" Ref="C?"  Part="1" 
AR Path="/61465E4A/6370728A" Ref="C?"  Part="1" 
AR Path="/61481D40/6370728A" Ref="C?"  Part="1" 
AR Path="/63686327/6370728A" Ref="C205"  Part="1" 
F 0 "C205" H 2550 2550 50  0000 C CNN
F 1 "100n" H 2550 2750 50  0000 C CNN
F 2 "Capacitor_SMD:C_0402_1005Metric" H 2638 2500 50  0001 C CNN
F 3 "" H 2600 2650 50  0001 C CNN
F 4 "TDK" V 2600 2650 50  0001 C CNN "Manufacturer"
F 5 "C1005X5R1H104K050BB" V 2600 2650 50  0001 C CNN "Part Number"
	1    2600 2650
	-1   0    0    1   
$EndComp
$Comp
L Device:R R?
U 1 1 6371928E
P 5050 2050
AR Path="/6371928E" Ref="R?"  Part="1" 
AR Path="/610CCB80/6371928E" Ref="R?"  Part="1" 
AR Path="/614407CE/6371928E" Ref="R?"  Part="1" 
AR Path="/61465E4A/6371928E" Ref="R?"  Part="1" 
AR Path="/61481D40/6371928E" Ref="R?"  Part="1" 
AR Path="/63686327/6371928E" Ref="R207"  Part="1" 
F 0 "R207" V 4950 2050 50  0000 L CNN
F 1 "0" V 4950 1950 50  0000 L CNN
F 2 "Resistor_SMD:R_0402_1005Metric" V 4980 2050 50  0001 C CNN
F 3 "" H 5050 2050 50  0001 C CNN
F 4 "Yageo" H 5050 2050 50  0001 C CNN "Manufacturer"
F 5 "RC0402FR-070RL" H 5050 2050 50  0001 C CNN "Part Number"
	1    5050 2050
	0    -1   -1   0   
$EndComp
$Comp
L Device:LED D202
U 1 1 63721302
P 5600 2050
F 0 "D202" V 5547 2130 50  0000 L CNN
F 1 "LED Yellow" V 5700 1900 50  0000 L CNN
F 2 "LED_SMD:LED_0603_1608Metric" H 5600 2050 50  0001 C CNN
F 3 "" H 5600 2050 50  0001 C CNN
F 4 "Broadcom Limited" V 5600 2050 50  0001 C CNN "Manufacturer"
F 5 "HSMY-C190" V 5600 2050 50  0001 C CNN "Part Number"
	1    5600 2050
	0    1    1    0   
$EndComp
$Comp
L Device:R R?
U 1 1 63723A23
P 5600 2450
AR Path="/63723A23" Ref="R?"  Part="1" 
AR Path="/610CCB80/63723A23" Ref="R?"  Part="1" 
AR Path="/614407CE/63723A23" Ref="R?"  Part="1" 
AR Path="/61465E4A/63723A23" Ref="R?"  Part="1" 
AR Path="/61481D40/63723A23" Ref="R?"  Part="1" 
AR Path="/63686327/63723A23" Ref="R211"  Part="1" 
F 0 "R211" H 5450 2500 50  0000 L CNN
F 1 "330" H 5450 2400 50  0000 L CNN
F 2 "Resistor_SMD:R_0402_1005Metric" V 5530 2450 50  0001 C CNN
F 3 "" H 5600 2450 50  0001 C CNN
F 4 "Yageo" H 5600 2450 50  0001 C CNN "Manufacturer"
F 5 "RC0402FR-07330RL" H 5600 2450 50  0001 C CNN "Part Number"
	1    5600 2450
	-1   0    0    1   
$EndComp
$Comp
L Device:LED D203
U 1 1 63726C5A
P 6050 2050
F 0 "D203" V 5997 2130 50  0000 L CNN
F 1 "LED Yellow" V 6150 1900 50  0000 L CNN
F 2 "LED_SMD:LED_0603_1608Metric" H 6050 2050 50  0001 C CNN
F 3 "" H 6050 2050 50  0001 C CNN
F 4 "Broadcom Limited" V 6050 2050 50  0001 C CNN "Manufacturer"
F 5 "HSMY-C190" V 6050 2050 50  0001 C CNN "Part Number"
	1    6050 2050
	0    1    1    0   
$EndComp
$Comp
L Device:R R?
U 1 1 6372A74B
P 6050 2450
AR Path="/6372A74B" Ref="R?"  Part="1" 
AR Path="/610CCB80/6372A74B" Ref="R?"  Part="1" 
AR Path="/614407CE/6372A74B" Ref="R?"  Part="1" 
AR Path="/61465E4A/6372A74B" Ref="R?"  Part="1" 
AR Path="/61481D40/6372A74B" Ref="R?"  Part="1" 
AR Path="/63686327/6372A74B" Ref="R212"  Part="1" 
F 0 "R212" H 5900 2500 50  0000 L CNN
F 1 "330" H 5900 2400 50  0000 L CNN
F 2 "Resistor_SMD:R_0402_1005Metric" V 5980 2450 50  0001 C CNN
F 3 "" H 6050 2450 50  0001 C CNN
F 4 "Yageo" H 6050 2450 50  0001 C CNN "Manufacturer"
F 5 "RC0402FR-07330RL" H 6050 2450 50  0001 C CNN "Part Number"
	1    6050 2450
	-1   0    0    1   
$EndComp
$Comp
L Device:R R?
U 1 1 6372BC1C
P 5050 800
AR Path="/6372BC1C" Ref="R?"  Part="1" 
AR Path="/610CCB80/6372BC1C" Ref="R?"  Part="1" 
AR Path="/614407CE/6372BC1C" Ref="R?"  Part="1" 
AR Path="/61465E4A/6372BC1C" Ref="R?"  Part="1" 
AR Path="/61481D40/6372BC1C" Ref="R?"  Part="1" 
AR Path="/63686327/6372BC1C" Ref="R201"  Part="1" 
F 0 "R201" H 5100 700 50  0000 L CNN
F 1 "4.7k" H 5100 850 50  0000 L CNN
F 2 "Resistor_SMD:R_0402_1005Metric" V 4980 800 50  0001 C CNN
F 3 "" H 5050 800 50  0001 C CNN
F 4 "Yageo" H 5050 800 50  0001 C CNN "Manufacturer"
F 5 "AC0402FR-074K7L" H 5050 800 50  0001 C CNN "Part Number"
	1    5050 800 
	1    0    0    -1  
$EndComp
$Comp
L Device:R R?
U 1 1 6372E226
P 5750 800
AR Path="/6372E226" Ref="R?"  Part="1" 
AR Path="/610CCB80/6372E226" Ref="R?"  Part="1" 
AR Path="/614407CE/6372E226" Ref="R?"  Part="1" 
AR Path="/61465E4A/6372E226" Ref="R?"  Part="1" 
AR Path="/61481D40/6372E226" Ref="R?"  Part="1" 
AR Path="/63686327/6372E226" Ref="R202"  Part="1" 
F 0 "R202" H 5800 700 50  0000 L CNN
F 1 "4.7k" H 5800 850 50  0000 L CNN
F 2 "Resistor_SMD:R_0402_1005Metric" V 5680 800 50  0001 C CNN
F 3 "" H 5750 800 50  0001 C CNN
F 4 "Yageo" H 5750 800 50  0001 C CNN "Manufacturer"
F 5 "AC0402FR-074K7L" H 5750 800 50  0001 C CNN "Part Number"
	1    5750 800 
	1    0    0    -1  
$EndComp
$Comp
L Device:R R?
U 1 1 637410D5
P 10600 3550
AR Path="/637410D5" Ref="R?"  Part="1" 
AR Path="/610CCB80/637410D5" Ref="R?"  Part="1" 
AR Path="/614407CE/637410D5" Ref="R?"  Part="1" 
AR Path="/61465E4A/637410D5" Ref="R?"  Part="1" 
AR Path="/61481D40/637410D5" Ref="R?"  Part="1" 
AR Path="/63686327/637410D5" Ref="R213"  Part="1" 
F 0 "R213" H 10650 3600 50  0000 L CNN
F 1 "100k" H 10650 3450 50  0000 L CNN
F 2 "Resistor_SMD:R_0402_1005Metric" V 10530 3550 50  0001 C CNN
F 3 "" H 10600 3550 50  0001 C CNN
F 4 "Yageo" H 10600 3550 50  0001 C CNN "Manufacturer"
F 5 "RC0402FR-07100KL" H 10600 3550 50  0001 C CNN "Part Number"
	1    10600 3550
	1    0    0    -1  
$EndComp
$Comp
L Device:C C?
U 1 1 6374252D
P 10600 4050
AR Path="/6374252D" Ref="C?"  Part="1" 
AR Path="/610CCB80/6374252D" Ref="C?"  Part="1" 
AR Path="/614407CE/6374252D" Ref="C?"  Part="1" 
AR Path="/61465E4A/6374252D" Ref="C?"  Part="1" 
AR Path="/61481D40/6374252D" Ref="C?"  Part="1" 
AR Path="/63686327/6374252D" Ref="C208"  Part="1" 
F 0 "C208" H 10550 3950 50  0000 C CNN
F 1 "100n" H 10500 4150 50  0000 C CNN
F 2 "Capacitor_SMD:C_0402_1005Metric" H 10638 3900 50  0001 C CNN
F 3 "" H 10600 4050 50  0001 C CNN
F 4 "TDK" V 10600 4050 50  0001 C CNN "Manufacturer"
F 5 "C1005X5R1H104K050BB" V 10600 4050 50  0001 C CNN "Part Number"
	1    10600 4050
	-1   0    0    1   
$EndComp
$Comp
L 000_symbol:Switch_PTS820-J15M-SMTR-LFS SW201
U 1 1 637489E7
P 10150 3800
F 0 "SW201" H 10150 4050 50  0000 C CNN
F 1 "Switch_PTS820-J20M-SMTR-LFS" H 9900 3950 50  0000 C CNN
F 2 "000_footprint:SW_SPST_PTS820" H 10150 3800 50  0001 C CNN
F 3 "" H 10150 3800 50  0001 C CNN
F 4 "C&K" H 10150 3800 50  0001 C CNN "Manufacturer"
F 5 "PTS820 J20M SMTR LFS" H 10150 3800 50  0001 C CNN "Part Number"
	1    10150 3800
	1    0    0    -1  
$EndComp
$Comp
L Device:C C?
U 1 1 6375DB5D
P 10000 750
AR Path="/6375DB5D" Ref="C?"  Part="1" 
AR Path="/610CCB80/6375DB5D" Ref="C?"  Part="1" 
AR Path="/614407CE/6375DB5D" Ref="C?"  Part="1" 
AR Path="/61465E4A/6375DB5D" Ref="C?"  Part="1" 
AR Path="/61481D40/6375DB5D" Ref="C?"  Part="1" 
AR Path="/63686327/6375DB5D" Ref="C202"  Part="1" 
F 0 "C202" H 9950 650 50  0000 C CNN
F 1 "100n" H 9900 850 50  0000 C CNN
F 2 "Capacitor_SMD:C_0402_1005Metric" H 10038 600 50  0001 C CNN
F 3 "" H 10000 750 50  0001 C CNN
F 4 "TDK" V 10000 750 50  0001 C CNN "Manufacturer"
F 5 "C1005X5R1H104K050BB" V 10000 750 50  0001 C CNN "Part Number"
	1    10000 750 
	-1   0    0    1   
$EndComp
$Comp
L Device:C C?
U 1 1 6376D467
P 9800 750
AR Path="/6376D467" Ref="C?"  Part="1" 
AR Path="/610CCB80/6376D467" Ref="C?"  Part="1" 
AR Path="/614407CE/6376D467" Ref="C?"  Part="1" 
AR Path="/61465E4A/6376D467" Ref="C?"  Part="1" 
AR Path="/61481D40/6376D467" Ref="C?"  Part="1" 
AR Path="/63686327/6376D467" Ref="C201"  Part="1" 
F 0 "C201" H 9850 650 50  0000 C CNN
F 1 "4.7u" H 9900 850 50  0000 C CNN
F 2 "Capacitor_SMD:C_0402_1005Metric" H 9838 600 50  0001 C CNN
F 3 "" H 9800 750 50  0001 C CNN
F 4 "TDK" V 9800 750 50  0001 C CNN "Manufacturer"
F 5 "C1005X5R0J475M050BC" V 9800 750 50  0001 C CNN "Part Number"
	1    9800 750 
	-1   0    0    1   
$EndComp
$Comp
L Device:C C?
U 1 1 6376E4F2
P 10300 2600
AR Path="/6376E4F2" Ref="C?"  Part="1" 
AR Path="/610CCB80/6376E4F2" Ref="C?"  Part="1" 
AR Path="/614407CE/6376E4F2" Ref="C?"  Part="1" 
AR Path="/61465E4A/6376E4F2" Ref="C?"  Part="1" 
AR Path="/61481D40/6376E4F2" Ref="C?"  Part="1" 
AR Path="/63686327/6376E4F2" Ref="C203"  Part="1" 
F 0 "C203" H 10350 2500 50  0000 C CNN
F 1 "4.7u" H 10400 2700 50  0000 C CNN
F 2 "Capacitor_SMD:C_0402_1005Metric" H 10338 2450 50  0001 C CNN
F 3 "" H 10300 2600 50  0001 C CNN
F 4 "TDK" V 10300 2600 50  0001 C CNN "Manufacturer"
F 5 "C1005X5R0J475M050BC" V 10300 2600 50  0001 C CNN "Part Number"
	1    10300 2600
	-1   0    0    1   
$EndComp
$Comp
L Device:C C?
U 1 1 63770420
P 10500 2600
AR Path="/63770420" Ref="C?"  Part="1" 
AR Path="/610CCB80/63770420" Ref="C?"  Part="1" 
AR Path="/614407CE/63770420" Ref="C?"  Part="1" 
AR Path="/61465E4A/63770420" Ref="C?"  Part="1" 
AR Path="/61481D40/63770420" Ref="C?"  Part="1" 
AR Path="/63686327/63770420" Ref="C204"  Part="1" 
F 0 "C204" H 10450 2500 50  0000 C CNN
F 1 "100n" H 10400 2700 50  0000 C CNN
F 2 "Capacitor_SMD:C_0402_1005Metric" H 10538 2450 50  0001 C CNN
F 3 "" H 10500 2600 50  0001 C CNN
F 4 "TDK" V 10500 2600 50  0001 C CNN "Manufacturer"
F 5 "C1005X5R1H104K050BB" V 10500 2600 50  0001 C CNN "Part Number"
	1    10500 2600
	-1   0    0    1   
$EndComp
$Comp
L Device:C C?
U 1 1 63770A9D
P 8500 3600
AR Path="/63770A9D" Ref="C?"  Part="1" 
AR Path="/610CCB80/63770A9D" Ref="C?"  Part="1" 
AR Path="/614407CE/63770A9D" Ref="C?"  Part="1" 
AR Path="/61465E4A/63770A9D" Ref="C?"  Part="1" 
AR Path="/61481D40/63770A9D" Ref="C?"  Part="1" 
AR Path="/63686327/63770A9D" Ref="C206"  Part="1" 
F 0 "C206" H 8600 3500 50  0000 C CNN
F 1 "100n" H 8600 3700 50  0000 C CNN
F 2 "Capacitor_SMD:C_0402_1005Metric" H 8538 3450 50  0001 C CNN
F 3 "" H 8500 3600 50  0001 C CNN
F 4 "TDK" V 8500 3600 50  0001 C CNN "Manufacturer"
F 5 "C1005X5R1H104K050BB" V 8500 3600 50  0001 C CNN "Part Number"
	1    8500 3600
	-1   0    0    1   
$EndComp
$Comp
L dk_Transistors-FETs-MOSFETs-Single:BSS138 Q201
U 1 1 6377B5B6
P 5400 1150
F 0 "Q201" V 5150 1250 60  0000 C CNN
F 1 "BSS138PW,115" V 5550 1150 60  0000 C CNN
F 2 "digikey-footprints:SOT-323" H 5600 1350 60  0001 L CNN
F 3 "" H 5600 1450 60  0001 L CNN
F 4 "Nexperia USA Inc." H 5600 2250 60  0001 L CNN "Manufacturer"
F 5 "BSS138PW,115" H 5600 1550 60  0001 L CNN "Part Number"
	1    5400 1150
	0    1    1    0   
$EndComp
$Comp
L Device:D_Schottky D206
U 1 1 63798088
P 3550 4100
F 0 "D206" H 3550 3883 50  0000 C CNN
F 1 "D_Schottky" H 3550 3974 50  0000 C CNN
F 2 "Diode_SMD:D_SOD-123F" H 3550 4100 50  0001 C CNN
F 3 "" H 3550 4100 50  0001 C CNN
F 4 "Nexperia USA Inc." H 3550 4100 50  0001 C CNN "Manufacturer"
F 5 "PMEG6020ELRX" H 3550 4100 50  0001 C CNN "Part Number"
	1    3550 4100
	-1   0    0    1   
$EndComp
$Comp
L Device:D_Schottky D201
U 1 1 6379ED03
P 4800 800
F 0 "D201" V 4750 600 50  0000 L CNN
F 1 "D_Schottky_DNI" V 4900 400 50  0000 L CNN
F 2 "Diode_SMD:D_SOD-123F" H 4800 800 50  0001 C CNN
F 3 "" H 4800 800 50  0001 C CNN
F 4 "Nexperia USA Inc." H 4800 800 50  0001 C CNN "Manufacturer"
F 5 "PMEG6020ELRX_DNI" H 4800 800 50  0001 C CNN "Part Number"
	1    4800 800 
	0    1    1    0   
$EndComp
Text HLabel 1150 5650 0    50   Input ~ 0
Vin5V0N
Text Label 5050 3900 2    50   ~ 0
+5.0V
Text Label 3850 4100 0    50   ~ 0
+5.0V
Text Label 3250 4100 2    50   ~ 0
VUSB
Wire Wire Line
	3700 4100 3850 4100
Wire Wire Line
	3250 4100 3400 4100
Wire Wire Line
	800  3650 1150 3650
Wire Wire Line
	1150 3650 1150 3750
Connection ~ 800  3650
Wire Wire Line
	800  3650 800  3750
$Comp
L power:GND #PWR?
U 1 1 637CDF1B
P 800 4250
AR Path="/637CDF1B" Ref="#PWR?"  Part="1" 
AR Path="/610CCB80/637CDF1B" Ref="#PWR?"  Part="1" 
AR Path="/614407CE/637CDF1B" Ref="#PWR?"  Part="1" 
AR Path="/61465E4A/637CDF1B" Ref="#PWR?"  Part="1" 
AR Path="/61481D40/637CDF1B" Ref="#PWR?"  Part="1" 
AR Path="/63686327/637CDF1B" Ref="#PWR0214"  Part="1" 
F 0 "#PWR0214" H 800 4000 50  0001 C CNN
F 1 "GND" H 900 4150 50  0000 C CNN
F 2 "" H 800 4250 50  0001 C CNN
F 3 "" H 800 4250 50  0001 C CNN
	1    800  4250
	1    0    0    -1  
$EndComp
Wire Wire Line
	800  4050 800  4150
Wire Wire Line
	1150 4050 1150 4150
Wire Wire Line
	1150 4150 800  4150
Connection ~ 800  4150
Wire Wire Line
	800  4150 800  4250
Wire Wire Line
	1700 3600 1700 3650
Wire Wire Line
	1700 2600 1700 2050
Wire Wire Line
	1700 2050 1200 2050
$Comp
L power:GND #PWR?
U 1 1 637EF722
P 1300 2550
AR Path="/637EF722" Ref="#PWR?"  Part="1" 
AR Path="/610CCB80/637EF722" Ref="#PWR?"  Part="1" 
AR Path="/614407CE/637EF722" Ref="#PWR?"  Part="1" 
AR Path="/61465E4A/637EF722" Ref="#PWR?"  Part="1" 
AR Path="/61481D40/637EF722" Ref="#PWR?"  Part="1" 
AR Path="/63686327/637EF722" Ref="#PWR0204"  Part="1" 
F 0 "#PWR0204" H 1300 2300 50  0001 C CNN
F 1 "GND" H 1400 2450 50  0000 C CNN
F 2 "" H 1300 2550 50  0001 C CNN
F 3 "" H 1300 2550 50  0001 C CNN
	1    1300 2550
	1    0    0    -1  
$EndComp
Wire Wire Line
	1200 2450 1300 2450
Wire Wire Line
	1300 2450 1300 2550
Text Label 1700 2050 2    50   ~ 0
VUSB
Wire Wire Line
	1200 2150 2100 2150
Wire Wire Line
	1200 2250 2250 2250
Wire Wire Line
	2100 2600 2100 2150
Connection ~ 2100 2150
Wire Wire Line
	2100 3600 2100 3650
Wire Wire Line
	2100 3650 2250 3650
Text Label 2800 2150 2    50   ~ 0
USB_N
Text Label 2800 2250 2    50   ~ 0
USB_P
$Comp
L Connector:TestPoint TP201
U 1 1 6381FCB7
P 2100 2050
F 0 "TP201" H 1900 2150 50  0000 L CNN
F 1 "D-" H 2050 2250 50  0000 L CNN
F 2 "TestPoint:TestPoint_Pad_D1.0mm" H 2300 2050 50  0001 C CNN
F 3 "" H 2300 2050 50  0001 C CNN
	1    2100 2050
	1    0    0    -1  
$EndComp
$Comp
L Connector:TestPoint TP202
U 1 1 63821BDF
P 2250 2050
F 0 "TP202" H 2300 2150 50  0000 L CNN
F 1 "D+" H 2200 2250 50  0000 L CNN
F 2 "TestPoint:TestPoint_Pad_D1.0mm" H 2450 2050 50  0001 C CNN
F 3 "" H 2450 2050 50  0001 C CNN
	1    2250 2050
	1    0    0    -1  
$EndComp
Wire Wire Line
	2100 2150 2100 2050
Text Label 2500 950  0    50   ~ 0
UPDI
$Comp
L power:GND #PWR?
U 1 1 6386C99C
P 1900 1100
AR Path="/6386C99C" Ref="#PWR?"  Part="1" 
AR Path="/610CCB80/6386C99C" Ref="#PWR?"  Part="1" 
AR Path="/614407CE/6386C99C" Ref="#PWR?"  Part="1" 
AR Path="/61465E4A/6386C99C" Ref="#PWR?"  Part="1" 
AR Path="/61481D40/6386C99C" Ref="#PWR?"  Part="1" 
AR Path="/63686327/6386C99C" Ref="#PWR0202"  Part="1" 
F 0 "#PWR0202" H 1900 850 50  0001 C CNN
F 1 "GND" H 2000 1000 50  0000 C CNN
F 2 "" H 1900 1100 50  0001 C CNN
F 3 "" H 1900 1100 50  0001 C CNN
	1    1900 1100
	1    0    0    -1  
$EndComp
Wire Wire Line
	1900 1100 1900 1050
Wire Wire Line
	2450 950  2500 950 
Wire Wire Line
	1900 1050 1950 1050
Text Label 3300 1050 0    50   ~ 0
+3.3V
Wire Wire Line
	3200 1050 3300 1050
Text Label 1850 850  2    50   ~ 0
+3.3V
Wire Wire Line
	1850 850  1950 850 
Wire Wire Line
	2700 850  2450 850 
Wire Wire Line
	1950 950  1800 950 
Wire Wire Line
	1800 950  1800 1300
Wire Wire Line
	1800 1300 2600 1300
$Comp
L Device:R R?
U 1 1 6388F675
P 1550 950
AR Path="/6388F675" Ref="R?"  Part="1" 
AR Path="/610CCB80/6388F675" Ref="R?"  Part="1" 
AR Path="/614407CE/6388F675" Ref="R?"  Part="1" 
AR Path="/61465E4A/6388F675" Ref="R?"  Part="1" 
AR Path="/61481D40/6388F675" Ref="R?"  Part="1" 
AR Path="/63686327/6388F675" Ref="R203"  Part="1" 
F 0 "R203" V 1450 1000 50  0000 L CNN
F 1 "4.7k" V 1450 800 50  0000 L CNN
F 2 "Resistor_SMD:R_0402_1005Metric" V 1480 950 50  0001 C CNN
F 3 "" H 1550 950 50  0001 C CNN
F 4 "Yageo" H 1550 950 50  0001 C CNN "Manufacturer"
F 5 "AC0402FR-074K7L" H 1550 950 50  0001 C CNN "Part Number"
	1    1550 950 
	0    -1   -1   0   
$EndComp
Text Label 1300 950  2    50   ~ 0
+3.3V
Wire Wire Line
	1300 950  1400 950 
Wire Wire Line
	1700 950  1800 950 
Connection ~ 1800 950 
Wire Wire Line
	2100 2150 2850 2150
Wire Wire Line
	2250 2250 2250 3650
Connection ~ 2250 2250
Wire Wire Line
	2250 2250 2850 2250
Wire Wire Line
	2250 2050 2250 2250
$Comp
L power:GND #PWR?
U 1 1 638CCE58
P 2600 2850
AR Path="/638CCE58" Ref="#PWR?"  Part="1" 
AR Path="/610CCB80/638CCE58" Ref="#PWR?"  Part="1" 
AR Path="/614407CE/638CCE58" Ref="#PWR?"  Part="1" 
AR Path="/61465E4A/638CCE58" Ref="#PWR?"  Part="1" 
AR Path="/61481D40/638CCE58" Ref="#PWR?"  Part="1" 
AR Path="/63686327/638CCE58" Ref="#PWR0208"  Part="1" 
F 0 "#PWR0208" H 2600 2600 50  0001 C CNN
F 1 "GND" H 2500 2750 50  0000 C CNN
F 2 "" H 2600 2850 50  0001 C CNN
F 3 "" H 2600 2850 50  0001 C CNN
	1    2600 2850
	1    0    0    -1  
$EndComp
Wire Wire Line
	2850 2450 2600 2450
Wire Wire Line
	2600 2450 2600 2500
Wire Wire Line
	2600 2850 2600 2800
Text Label 4400 2050 0    50   ~ 0
TX_UPDI
Text Label 4400 1950 0    50   ~ 0
RX_UPDI
Wire Wire Line
	4350 2050 4800 2050
Wire Wire Line
	4350 1950 5300 1950
Text Label 5950 1150 0    50   ~ 0
UPDI
Wire Wire Line
	5050 950  5050 1150
Wire Wire Line
	5050 1150 5200 1150
Wire Wire Line
	5600 1150 5750 1150
Wire Wire Line
	5750 1150 5750 950 
Wire Wire Line
	5950 1150 5750 1150
Connection ~ 5750 1150
Text Label 5750 550  0    50   ~ 0
+5.0V
Text Label 5050 550  0    50   ~ 0
+3.3V
Wire Wire Line
	5750 650  5750 550 
Wire Wire Line
	5050 650  5050 550 
Wire Wire Line
	5300 850  5300 550 
Wire Wire Line
	5300 550  5050 550 
Wire Wire Line
	4800 650  4800 550 
Wire Wire Line
	4800 550  5050 550 
Connection ~ 5050 550 
Wire Wire Line
	4800 950  4800 1150
Wire Wire Line
	4800 1150 5050 1150
Connection ~ 5050 1150
Wire Wire Line
	4800 1150 4800 2050
Connection ~ 4800 1150
$Comp
L Device:R R?
U 1 1 639622CF
P 6650 2250
AR Path="/639622CF" Ref="R?"  Part="1" 
AR Path="/610CCB80/639622CF" Ref="R?"  Part="1" 
AR Path="/614407CE/639622CF" Ref="R?"  Part="1" 
AR Path="/61465E4A/639622CF" Ref="R?"  Part="1" 
AR Path="/61481D40/639622CF" Ref="R?"  Part="1" 
AR Path="/63686327/639622CF" Ref="R209"  Part="1" 
F 0 "R209" H 6700 2150 50  0000 L CNN
F 1 "4.7k" H 6700 2300 50  0000 L CNN
F 2 "Resistor_SMD:R_0402_1005Metric" V 6580 2250 50  0001 C CNN
F 3 "" H 6650 2250 50  0001 C CNN
F 4 "Yageo" H 6650 2250 50  0001 C CNN "Manufacturer"
F 5 "AC0402FR-074K7L" H 6650 2250 50  0001 C CNN "Part Number"
	1    6650 2250
	1    0    0    -1  
$EndComp
$Comp
L Device:R R?
U 1 1 63962599
P 7350 2250
AR Path="/63962599" Ref="R?"  Part="1" 
AR Path="/610CCB80/63962599" Ref="R?"  Part="1" 
AR Path="/614407CE/63962599" Ref="R?"  Part="1" 
AR Path="/61465E4A/63962599" Ref="R?"  Part="1" 
AR Path="/61481D40/63962599" Ref="R?"  Part="1" 
AR Path="/63686327/63962599" Ref="R210"  Part="1" 
F 0 "R210" H 7400 2150 50  0000 L CNN
F 1 "4.7k" H 7400 2300 50  0000 L CNN
F 2 "Resistor_SMD:R_0402_1005Metric" V 7280 2250 50  0001 C CNN
F 3 "" H 7350 2250 50  0001 C CNN
F 4 "Yageo" H 7350 2250 50  0001 C CNN "Manufacturer"
F 5 "AC0402FR-074K7L" H 7350 2250 50  0001 C CNN "Part Number"
	1    7350 2250
	1    0    0    -1  
$EndComp
$Comp
L dk_Transistors-FETs-MOSFETs-Single:BSS138 Q203
U 1 1 639625A5
P 7000 2600
F 0 "Q203" V 6750 2700 60  0000 C CNN
F 1 "BSS138PW,115" V 7150 2600 60  0000 C CNN
F 2 "digikey-footprints:SOT-323" H 7200 2800 60  0001 L CNN
F 3 "" H 7200 2900 60  0001 L CNN
F 4 "Nexperia USA Inc." H 7200 3700 60  0001 L CNN "Manufacturer"
F 5 "BSS138PW,115" H 7200 3000 60  0001 L CNN "Part Number"
	1    7000 2600
	0    1    1    0   
$EndComp
Text Label 7550 2600 0    50   ~ 0
RX0
Wire Wire Line
	6650 2400 6650 2600
Wire Wire Line
	6650 2600 6800 2600
Wire Wire Line
	7200 2600 7350 2600
Wire Wire Line
	7350 2600 7350 2400
Wire Wire Line
	7550 2600 7350 2600
Connection ~ 7350 2600
Text Label 7350 2000 0    50   ~ 0
+5.0V
Text Label 6650 2000 0    50   ~ 0
+3.3V
Wire Wire Line
	7350 2100 7350 2000
Wire Wire Line
	6650 2100 6650 2000
Wire Wire Line
	6900 2300 6900 2000
Wire Wire Line
	6900 2000 6650 2000
Wire Wire Line
	6400 2600 6650 2600
Connection ~ 6650 2600
Wire Wire Line
	4900 2050 4800 2050
Connection ~ 4800 2050
Wire Wire Line
	5200 2050 5300 2050
Wire Wire Line
	5300 2050 5300 1950
$Comp
L Device:R R?
U 1 1 639C51E5
P 6650 1300
AR Path="/639C51E5" Ref="R?"  Part="1" 
AR Path="/610CCB80/639C51E5" Ref="R?"  Part="1" 
AR Path="/614407CE/639C51E5" Ref="R?"  Part="1" 
AR Path="/61465E4A/639C51E5" Ref="R?"  Part="1" 
AR Path="/61481D40/639C51E5" Ref="R?"  Part="1" 
AR Path="/63686327/639C51E5" Ref="R205"  Part="1" 
F 0 "R205" H 6700 1200 50  0000 L CNN
F 1 "4.7k" H 6700 1350 50  0000 L CNN
F 2 "Resistor_SMD:R_0402_1005Metric" V 6580 1300 50  0001 C CNN
F 3 "" H 6650 1300 50  0001 C CNN
F 4 "Yageo" H 6650 1300 50  0001 C CNN "Manufacturer"
F 5 "AC0402FR-074K7L" H 6650 1300 50  0001 C CNN "Part Number"
	1    6650 1300
	1    0    0    -1  
$EndComp
$Comp
L Device:R R?
U 1 1 639C54DF
P 7350 1300
AR Path="/639C54DF" Ref="R?"  Part="1" 
AR Path="/610CCB80/639C54DF" Ref="R?"  Part="1" 
AR Path="/614407CE/639C54DF" Ref="R?"  Part="1" 
AR Path="/61465E4A/639C54DF" Ref="R?"  Part="1" 
AR Path="/61481D40/639C54DF" Ref="R?"  Part="1" 
AR Path="/63686327/639C54DF" Ref="R206"  Part="1" 
F 0 "R206" H 7400 1200 50  0000 L CNN
F 1 "4.7k" H 7400 1350 50  0000 L CNN
F 2 "Resistor_SMD:R_0402_1005Metric" V 7280 1300 50  0001 C CNN
F 3 "" H 7350 1300 50  0001 C CNN
F 4 "Yageo" H 7350 1300 50  0001 C CNN "Manufacturer"
F 5 "AC0402FR-074K7L" H 7350 1300 50  0001 C CNN "Part Number"
	1    7350 1300
	1    0    0    -1  
$EndComp
$Comp
L dk_Transistors-FETs-MOSFETs-Single:BSS138 Q202
U 1 1 639C54EB
P 7000 1650
F 0 "Q202" V 6750 1750 60  0000 C CNN
F 1 "BSS138PW,115" V 7150 1650 60  0000 C CNN
F 2 "digikey-footprints:SOT-323" H 7200 1850 60  0001 L CNN
F 3 "" H 7200 1950 60  0001 L CNN
F 4 "Nexperia USA Inc." H 7200 2750 60  0001 L CNN "Manufacturer"
F 5 "BSS138PW,115" H 7200 2050 60  0001 L CNN "Part Number"
	1    7000 1650
	0    1    1    0   
$EndComp
Text Label 7550 1650 0    50   ~ 0
TX0
Wire Wire Line
	6650 1450 6650 1650
Wire Wire Line
	6650 1650 6800 1650
Wire Wire Line
	7200 1650 7350 1650
Wire Wire Line
	7350 1650 7350 1450
Wire Wire Line
	7550 1650 7350 1650
Connection ~ 7350 1650
Text Label 7350 1050 0    50   ~ 0
+5.0V
Text Label 6650 1050 0    50   ~ 0
+3.3V
Wire Wire Line
	7350 1150 7350 1050
Wire Wire Line
	6650 1150 6650 1050
Wire Wire Line
	6900 1350 6900 1050
Wire Wire Line
	6900 1050 6650 1050
Connection ~ 6650 1650
Wire Wire Line
	4350 1650 5600 1650
Wire Wire Line
	6400 1750 6400 2600
Text Label 4400 1650 0    50   ~ 0
RX_D11
Text Label 4400 1750 0    50   ~ 0
TX_D11
Wire Wire Line
	5600 1900 5600 1650
Connection ~ 5600 1650
Wire Wire Line
	5600 1650 6650 1650
Wire Wire Line
	6050 1900 6050 1750
Connection ~ 6050 1750
Wire Wire Line
	6050 1750 6400 1750
Wire Wire Line
	5600 2200 5600 2300
Wire Wire Line
	6050 2200 6050 2300
Wire Wire Line
	5600 2600 5600 2700
Wire Wire Line
	5600 2700 6050 2700
Wire Wire Line
	6050 2700 6050 2600
Text Label 5700 2700 0    50   ~ 0
+3.3V
Text Label 7850 1800 2    50   ~ 0
D9
Text Label 1300 5650 0    50   ~ 0
Vin5V0N
Wire Wire Line
	1150 5650 1300 5650
Text Label 7850 1900 2    50   ~ 0
D10
Text Label 7850 2000 2    50   ~ 0
D5
Text Label 7850 2200 2    50   ~ 0
TX0
Text Label 7850 2300 2    50   ~ 0
RX0
Wire Wire Line
	7850 1800 7950 1800
Wire Wire Line
	7850 1900 7950 1900
Wire Wire Line
	7850 2000 7950 2000
Wire Wire Line
	7850 2200 7950 2200
Wire Wire Line
	7850 2300 7950 2300
$Comp
L power:GND #PWR?
U 1 1 63A92DB3
P 8900 3800
AR Path="/63A92DB3" Ref="#PWR?"  Part="1" 
AR Path="/610CCB80/63A92DB3" Ref="#PWR?"  Part="1" 
AR Path="/614407CE/63A92DB3" Ref="#PWR?"  Part="1" 
AR Path="/61465E4A/63A92DB3" Ref="#PWR?"  Part="1" 
AR Path="/61481D40/63A92DB3" Ref="#PWR?"  Part="1" 
AR Path="/63686327/63A92DB3" Ref="#PWR0210"  Part="1" 
F 0 "#PWR0210" H 8900 3550 50  0001 C CNN
F 1 "GND" H 8900 3650 50  0000 C CNN
F 2 "" H 8900 3800 50  0001 C CNN
F 3 "" H 8900 3800 50  0001 C CNN
	1    8900 3800
	1    0    0    -1  
$EndComp
Text Label 8500 3250 2    50   ~ 0
+5.0V
$Comp
L power:GND #PWR?
U 1 1 63AA9360
P 8500 3800
AR Path="/63AA9360" Ref="#PWR?"  Part="1" 
AR Path="/610CCB80/63AA9360" Ref="#PWR?"  Part="1" 
AR Path="/614407CE/63AA9360" Ref="#PWR?"  Part="1" 
AR Path="/61465E4A/63AA9360" Ref="#PWR?"  Part="1" 
AR Path="/61481D40/63AA9360" Ref="#PWR?"  Part="1" 
AR Path="/63686327/63AA9360" Ref="#PWR0209"  Part="1" 
F 0 "#PWR0209" H 8500 3550 50  0001 C CNN
F 1 "GND" H 8500 3650 50  0000 C CNN
F 2 "" H 8500 3800 50  0001 C CNN
F 3 "" H 8500 3800 50  0001 C CNN
	1    8500 3800
	1    0    0    -1  
$EndComp
Wire Wire Line
	8500 3750 8500 3800
Wire Wire Line
	8500 3050 8500 3450
Wire Wire Line
	8700 3150 8700 3050
Wire Wire Line
	8800 3150 8800 3050
Wire Wire Line
	8900 3150 8900 3050
Wire Wire Line
	9100 3150 9100 3050
Wire Wire Line
	9200 3150 9200 3050
Wire Wire Line
	9300 3150 9300 3050
Wire Wire Line
	9400 3150 9400 3050
Wire Wire Line
	9500 3150 9500 3050
Wire Wire Line
	10600 3700 10600 3800
Wire Wire Line
	10450 3800 10600 3800
Connection ~ 10600 3800
Wire Wire Line
	10600 3800 10600 3900
Text Label 10600 3300 2    50   ~ 0
+5.0V
Wire Wire Line
	10600 3300 10600 3400
Text Label 10800 3800 0    50   ~ 0
RESETN
Wire Wire Line
	10600 3800 10800 3800
$Comp
L power:GND #PWR?
U 1 1 63B32C98
P 10150 4200
AR Path="/63B32C98" Ref="#PWR?"  Part="1" 
AR Path="/610CCB80/63B32C98" Ref="#PWR?"  Part="1" 
AR Path="/614407CE/63B32C98" Ref="#PWR?"  Part="1" 
AR Path="/61465E4A/63B32C98" Ref="#PWR?"  Part="1" 
AR Path="/61481D40/63B32C98" Ref="#PWR?"  Part="1" 
AR Path="/63686327/63B32C98" Ref="#PWR0213"  Part="1" 
F 0 "#PWR0213" H 10150 3950 50  0001 C CNN
F 1 "GND" H 10150 4050 50  0000 C CNN
F 2 "" H 10150 4200 50  0001 C CNN
F 3 "" H 10150 4200 50  0001 C CNN
	1    10150 4200
	1    0    0    -1  
$EndComp
$Comp
L power:GND #PWR?
U 1 1 63B33065
P 9750 3850
AR Path="/63B33065" Ref="#PWR?"  Part="1" 
AR Path="/610CCB80/63B33065" Ref="#PWR?"  Part="1" 
AR Path="/614407CE/63B33065" Ref="#PWR?"  Part="1" 
AR Path="/61465E4A/63B33065" Ref="#PWR?"  Part="1" 
AR Path="/61481D40/63B33065" Ref="#PWR?"  Part="1" 
AR Path="/63686327/63B33065" Ref="#PWR0211"  Part="1" 
F 0 "#PWR0211" H 9750 3600 50  0001 C CNN
F 1 "GND" H 9750 3700 50  0000 C CNN
F 2 "" H 9750 3850 50  0001 C CNN
F 3 "" H 9750 3850 50  0001 C CNN
	1    9750 3850
	1    0    0    -1  
$EndComp
Wire Wire Line
	9750 3850 9750 3800
Wire Wire Line
	9750 3800 9850 3800
$Comp
L power:GND #PWR?
U 1 1 63B326A5
P 10600 4300
AR Path="/63B326A5" Ref="#PWR?"  Part="1" 
AR Path="/610CCB80/63B326A5" Ref="#PWR?"  Part="1" 
AR Path="/614407CE/63B326A5" Ref="#PWR?"  Part="1" 
AR Path="/61465E4A/63B326A5" Ref="#PWR?"  Part="1" 
AR Path="/61481D40/63B326A5" Ref="#PWR?"  Part="1" 
AR Path="/63686327/63B326A5" Ref="#PWR0215"  Part="1" 
F 0 "#PWR0215" H 10600 4050 50  0001 C CNN
F 1 "GND" H 10600 4150 50  0000 C CNN
F 2 "" H 10600 4300 50  0001 C CNN
F 3 "" H 10600 4300 50  0001 C CNN
	1    10600 4300
	1    0    0    -1  
$EndComp
Wire Wire Line
	10150 4100 10150 4200
Wire Wire Line
	10600 4200 10600 4300
$Comp
L power:GND #PWR?
U 1 1 63BA9DDC
P 10400 2800
AR Path="/63BA9DDC" Ref="#PWR?"  Part="1" 
AR Path="/610CCB80/63BA9DDC" Ref="#PWR?"  Part="1" 
AR Path="/614407CE/63BA9DDC" Ref="#PWR?"  Part="1" 
AR Path="/61465E4A/63BA9DDC" Ref="#PWR?"  Part="1" 
AR Path="/61481D40/63BA9DDC" Ref="#PWR?"  Part="1" 
AR Path="/63686327/63BA9DDC" Ref="#PWR0207"  Part="1" 
F 0 "#PWR0207" H 10400 2550 50  0001 C CNN
F 1 "GND" H 10400 2650 50  0000 C CNN
F 2 "" H 10400 2800 50  0001 C CNN
F 3 "" H 10400 2800 50  0001 C CNN
	1    10400 2800
	1    0    0    -1  
$EndComp
Wire Wire Line
	10300 2750 10400 2750
Wire Wire Line
	10400 2750 10400 2800
Wire Wire Line
	10500 2750 10400 2750
Connection ~ 10400 2750
Wire Wire Line
	9950 2400 10400 2400
Wire Wire Line
	10400 2400 10400 2450
Wire Wire Line
	10400 2450 10300 2450
Wire Wire Line
	10400 2450 10500 2450
Connection ~ 10400 2450
Wire Wire Line
	10050 2600 9950 2600
Text Label 10400 2400 0    50   ~ 0
AREF
Text Label 10050 2300 0    50   ~ 0
+5.0V
Wire Wire Line
	10050 2300 9950 2300
Text Label 10050 2100 0    50   ~ 0
MOSI
Text Label 10050 2000 0    50   ~ 0
MISO
Text Label 10050 1900 0    50   ~ 0
SCK
Text Label 10050 1800 0    50   ~ 0
D8
Wire Wire Line
	9950 1500 10050 1500
Wire Wire Line
	9950 1800 10050 1800
Wire Wire Line
	9950 2000 10050 2000
Wire Wire Line
	9950 2100 10050 2100
Text Label 8600 3150 3    50   ~ 0
GND
Wire Wire Line
	8600 3050 8600 3150
Text Label 10050 2200 0    50   ~ 0
GND
Wire Wire Line
	9950 2200 10050 2200
Text Label 8900 3700 1    50   ~ 0
GND
Wire Wire Line
	8900 3800 8900 3700
Text Label 9200 950  1    50   ~ 0
RESETN
Text Label 9100 950  1    50   ~ 0
UPDI
Text Label 9000 950  1    50   ~ 0
+5.0V
Text Label 8900 950  1    50   ~ 0
GND
Wire Wire Line
	8500 950  8500 1050
Wire Wire Line
	8600 950  8600 1050
Wire Wire Line
	8700 950  8700 1050
Wire Wire Line
	8800 950  8800 1050
Wire Wire Line
	8900 950  8900 1050
Wire Wire Line
	9100 950  9100 1050
Wire Wire Line
	9200 950  9200 1050
Wire Wire Line
	9300 950  9300 1050
Wire Wire Line
	9400 950  9400 1050
Wire Wire Line
	9500 950  9500 1050
$Comp
L power:GND #PWR?
U 1 1 63C678C2
P 9900 900
AR Path="/63C678C2" Ref="#PWR?"  Part="1" 
AR Path="/610CCB80/63C678C2" Ref="#PWR?"  Part="1" 
AR Path="/614407CE/63C678C2" Ref="#PWR?"  Part="1" 
AR Path="/61465E4A/63C678C2" Ref="#PWR?"  Part="1" 
AR Path="/61481D40/63C678C2" Ref="#PWR?"  Part="1" 
AR Path="/63686327/63C678C2" Ref="#PWR0201"  Part="1" 
F 0 "#PWR0201" H 9900 650 50  0001 C CNN
F 1 "GND" H 9900 750 50  0000 C CNN
F 2 "" H 9900 900 50  0001 C CNN
F 3 "" H 9900 900 50  0001 C CNN
	1    9900 900 
	1    0    0    -1  
$EndComp
Wire Wire Line
	10000 900  9900 900 
Wire Wire Line
	9800 900  9900 900 
Connection ~ 9900 900 
Wire Wire Line
	10000 600  9900 600 
Wire Wire Line
	9900 600  9900 550 
Wire Wire Line
	9900 550  9000 550 
Wire Wire Line
	9000 550  9000 1050
Connection ~ 9900 600 
Wire Wire Line
	9900 600  9800 600 
$Comp
L 000_symbol:Multiplexer_AnalogDevices_ADG708 U204
U 1 1 6106361C
P 3250 6200
F 0 "U204" H 3400 6550 50  0000 L CNN
F 1 "Multiplexer_AnalogDevices_ADG708" H 2600 5450 50  0000 L CNN
F 2 "Package_SO:TSSOP-16_4.4x5mm_P0.65mm" H 2450 6400 50  0001 L CNN
F 3 "" H 3260 6200 50  0001 C CNN
F 4 "Analog Devices" H 3250 6200 50  0001 C CNN "Manufacturer"
F 5 "ADG708BRUZ" H 3250 6200 50  0001 C CNN "Part Number"
	1    3250 6200
	-1   0    0    -1  
$EndComp
$Comp
L power:GND #PWR?
U 1 1 611FA4C4
P 3300 5200
AR Path="/611FA4C4" Ref="#PWR?"  Part="1" 
AR Path="/610CCB80/611FA4C4" Ref="#PWR?"  Part="1" 
AR Path="/614407CE/611FA4C4" Ref="#PWR?"  Part="1" 
AR Path="/61465E4A/611FA4C4" Ref="#PWR?"  Part="1" 
AR Path="/61481D40/611FA4C4" Ref="#PWR?"  Part="1" 
AR Path="/63686327/611FA4C4" Ref="#PWR0219"  Part="1" 
F 0 "#PWR0219" H 3300 4950 50  0001 C CNN
F 1 "GND" H 3400 5100 50  0000 C CNN
F 2 "" H 3300 5200 50  0001 C CNN
F 3 "" H 3300 5200 50  0001 C CNN
	1    3300 5200
	1    0    0    -1  
$EndComp
Text Label 3050 5200 1    50   ~ 0
+5.0V
Wire Wire Line
	3150 5300 3150 5200
Wire Wire Line
	3150 5200 3300 5200
Wire Wire Line
	3050 5200 3050 5300
Text Label 3750 5500 0    50   ~ 0
+5.0V
Wire Wire Line
	3650 5500 3750 5500
$Comp
L power:GND #PWR?
U 1 1 61226848
P 3050 7050
AR Path="/61226848" Ref="#PWR?"  Part="1" 
AR Path="/610CCB80/61226848" Ref="#PWR?"  Part="1" 
AR Path="/614407CE/61226848" Ref="#PWR?"  Part="1" 
AR Path="/61465E4A/61226848" Ref="#PWR?"  Part="1" 
AR Path="/61481D40/61226848" Ref="#PWR?"  Part="1" 
AR Path="/63686327/61226848" Ref="#PWR0222"  Part="1" 
F 0 "#PWR0222" H 3050 6800 50  0001 C CNN
F 1 "GND" H 3150 6950 50  0000 C CNN
F 2 "" H 3050 7050 50  0001 C CNN
F 3 "" H 3050 7050 50  0001 C CNN
	1    3050 7050
	1    0    0    -1  
$EndComp
Wire Wire Line
	3050 7000 3050 7050
Text Label 1300 5750 0    50   ~ 0
SCK
Text Label 1300 5850 0    50   ~ 0
MISO
Text Label 1300 5950 0    50   ~ 0
MOSI
Text Label 2750 6600 2    50   ~ 0
D17
Text Label 3750 5800 0    50   ~ 0
D15
Text Label 3750 5900 0    50   ~ 0
D16
Text Label 3750 5700 0    50   ~ 0
D4
Wire Wire Line
	3650 5700 3750 5700
Wire Wire Line
	3650 5800 3750 5800
Wire Wire Line
	3650 5900 3750 5900
Wire Wire Line
	2750 6600 2850 6600
Text Label 3750 6700 0    50   ~ 0
CS_SlowDAC7
Text Label 3750 6800 0    50   ~ 0
CS_SlowDAC8
Text Label 3750 6600 0    50   ~ 0
CS_SlowDAC6
Text Label 3750 6500 0    50   ~ 0
CS_SlowDAC5
Text Label 3750 6100 0    50   ~ 0
CS_SlowDAC1
Wire Wire Line
	3650 6100 3750 6100
Wire Wire Line
	3650 6200 3750 6200
Wire Wire Line
	3650 6300 3750 6300
Wire Wire Line
	3650 6400 3750 6400
Wire Wire Line
	3650 6500 3750 6500
Text Label 1300 6050 0    50   ~ 0
CS_SlowDAC1
Text Label 1300 6150 0    50   ~ 0
CS_SlowDAC2
Text Label 1300 6250 0    50   ~ 0
CS_SlowDAC3
Text Label 1300 6350 0    50   ~ 0
CS_SlowDAC4
Text Label 1300 6450 0    50   ~ 0
CS_SlowDAC5
Text HLabel 1150 5850 0    50   Input ~ 0
MISO
Text HLabel 1150 5950 0    50   Output ~ 0
MOSI
Text HLabel 1150 6050 0    50   Output ~ 0
CS_SlowDAC1
Text HLabel 1150 6150 0    50   Output ~ 0
CS_SlowDAC2
Text HLabel 1150 6250 0    50   Output ~ 0
CS_SlowDAC3
Text HLabel 1150 6350 0    50   Output ~ 0
CS_SlowDAC4
Text HLabel 1150 6450 0    50   Output ~ 0
CS_SlowDAC5
Wire Wire Line
	1150 5750 1300 5750
Wire Wire Line
	1150 5850 1300 5850
Wire Wire Line
	1150 5950 1300 5950
Wire Wire Line
	1150 6050 1300 6050
Wire Wire Line
	1150 6150 1300 6150
Wire Wire Line
	1150 6250 1300 6250
Wire Wire Line
	1150 6350 1300 6350
Wire Wire Line
	1150 6450 1300 6450
Text Label 2600 2450 0    50   ~ 0
+3.3V
$Comp
L 000_symbol:MicroController_ATSAMD11D14A-MUT U202
U 1 1 6170DFE0
P 3600 2200
F 0 "U202" V 3600 2250 50  0000 R CNN
F 1 "MicroController_ATSAMD11D14A-MUT" V 3000 2900 50  0000 R CNN
F 2 "Package_DFN_QFN:QFN-24-1EP_4x4mm_P0.5mm_EP2.6x2.6mm_ThermalVias" H 3600 2250 50  0001 C CNN
F 3 "" H 3600 2200 50  0001 C CNN
F 4 "Microchip Technology" H 3600 2300 50  0001 C CNN "Manufacturer"
F 5 "ATSAMD11D14A-MUT" H 3550 2150 50  0001 C CNN "Part Number"
	1    3600 2200
	0    -1   -1   0   
$EndComp
Wire Wire Line
	3650 1450 3650 1400
Wire Wire Line
	3650 1400 4250 1400
Wire Wire Line
	4250 1400 4250 1750
Wire Wire Line
	4250 1750 6050 1750
Wire Wire Line
	4350 1650 4350 1350
Wire Wire Line
	4350 1350 3550 1350
Wire Wire Line
	3550 1350 3550 1450
Wire Wire Line
	2850 2550 2850 2600
$Comp
L power:GND #PWR?
U 1 1 617D36C0
P 2850 2600
AR Path="/617D36C0" Ref="#PWR?"  Part="1" 
AR Path="/610CCB80/617D36C0" Ref="#PWR?"  Part="1" 
AR Path="/614407CE/617D36C0" Ref="#PWR?"  Part="1" 
AR Path="/61465E4A/617D36C0" Ref="#PWR?"  Part="1" 
AR Path="/61481D40/617D36C0" Ref="#PWR?"  Part="1" 
AR Path="/63686327/617D36C0" Ref="#PWR0205"  Part="1" 
F 0 "#PWR0205" H 2850 2350 50  0001 C CNN
F 1 "GND" H 2950 2500 50  0000 C CNN
F 2 "" H 2850 2600 50  0001 C CNN
F 3 "" H 2850 2600 50  0001 C CNN
	1    2850 2600
	1    0    0    -1  
$EndComp
$Comp
L power:GND #PWR?
U 1 1 617E1EDB
P 2450 2350
AR Path="/617E1EDB" Ref="#PWR?"  Part="1" 
AR Path="/610CCB80/617E1EDB" Ref="#PWR?"  Part="1" 
AR Path="/614407CE/617E1EDB" Ref="#PWR?"  Part="1" 
AR Path="/61465E4A/617E1EDB" Ref="#PWR?"  Part="1" 
AR Path="/61481D40/617E1EDB" Ref="#PWR?"  Part="1" 
AR Path="/63686327/617E1EDB" Ref="#PWR0203"  Part="1" 
F 0 "#PWR0203" H 2450 2100 50  0001 C CNN
F 1 "GND" H 2450 2200 50  0000 C CNN
F 2 "" H 2450 2350 50  0001 C CNN
F 3 "" H 2450 2350 50  0001 C CNN
	1    2450 2350
	1    0    0    -1  
$EndComp
Wire Wire Line
	2450 2350 2850 2350
Wire Wire Line
	2450 1050 2800 1050
Connection ~ 2800 1050
Wire Wire Line
	2800 1050 2900 1050
Wire Wire Line
	3350 1450 3350 1400
Wire Wire Line
	3350 1400 2800 1400
Wire Wire Line
	2800 1400 2800 1050
Wire Wire Line
	2850 2050 2700 2050
Wire Wire Line
	2850 1950 2600 1950
Wire Wire Line
	2600 1300 2600 1950
Wire Wire Line
	2700 850  2700 2050
Text Label 1300 6550 0    50   ~ 0
CS_SlowDAC6
Text HLabel 1150 6550 0    50   Output ~ 0
CS_SlowDAC6
Wire Wire Line
	1150 6550 1300 6550
Text Label 3750 6200 0    50   ~ 0
CS_SlowDAC2
Wire Wire Line
	3650 6600 3750 6600
$Comp
L 000_symbol:LDO_MCP1711T-33I-OT U203
U 1 1 6369F0EC
P 5750 4000
F 0 "U203" V 5425 4000 50  0000 C CNN
F 1 "LDO_MCP1711T-33I-OT" V 5516 4000 50  0000 C CNN
F 2 "Package_TO_SOT_SMD:SOT-23-5" H 5750 4000 50  0001 C CNN
F 3 "" H 5750 4000 50  0001 C CNN
F 4 "Microchip Technology" H 5750 4000 50  0001 C CNN "Manufacturer"
F 5 "MCP1711T-33I/OT" H 5750 4000 50  0001 C CNN "Part Number"
	1    5750 4000
	0    1    1    0   
$EndComp
$Comp
L Connector_Generic:Conn_01x06 J?
U 1 1 621D8046
P 7850 5700
AR Path="/61946A72/621D8046" Ref="J?"  Part="1" 
AR Path="/61C571A7/621D8046" Ref="J?"  Part="1" 
AR Path="/61C58781/621D8046" Ref="J?"  Part="1" 
AR Path="/63686327/621D8046" Ref="J204"  Part="1" 
F 0 "J204" H 7768 6117 50  0000 C CNN
F 1 "Conn_01x06" H 7768 6026 50  0000 C CNN
F 2 "000_footprint:PinHeader_1x06_P2.54mm_Vertical_CrtYd2.54mm" H 7850 5700 50  0001 C CNN
F 3 "" H 7850 5700 50  0001 C CNN
F 4 "Sullins Connector Solutions" H 7850 5700 50  0001 C CNN "Manufacturer"
F 5 "PEC06SAAN" H 7850 5700 50  0001 C CNN "Part Number"
F 6 "MNT-106-BK-G (Samtec)" H 7850 5700 50  0001 C CNN "Mating Product"
F 7 "Buy the part and mating product, but do not install" H 7850 5700 50  0001 C CNN "Comment"
	1    7850 5700
	-1   0    0    -1  
$EndComp
Text Label 8150 5500 0    50   ~ 0
Vin5V0P
Text Label 8150 5700 0    50   ~ 0
Vin5V0N
Text Label 8150 5800 0    50   ~ 0
MOSI
Text Label 8150 6000 0    50   ~ 0
SCK
Text Label 8150 5900 0    50   ~ 0
MISO
Wire Wire Line
	8050 5500 8150 5500
Wire Wire Line
	8050 5700 8150 5700
Wire Wire Line
	8050 5800 8150 5800
Wire Wire Line
	8050 5900 8150 5900
Wire Wire Line
	8050 6000 8150 6000
$Comp
L power:GND #PWR?
U 1 1 621D8056
P 8500 5600
AR Path="/621D8056" Ref="#PWR?"  Part="1" 
AR Path="/610CCB80/621D8056" Ref="#PWR?"  Part="1" 
AR Path="/614407CE/621D8056" Ref="#PWR?"  Part="1" 
AR Path="/61465E4A/621D8056" Ref="#PWR?"  Part="1" 
AR Path="/61481D40/621D8056" Ref="#PWR?"  Part="1" 
AR Path="/63686327/621D8056" Ref="#PWR0220"  Part="1" 
AR Path="/61946A72/621D8056" Ref="#PWR?"  Part="1" 
AR Path="/61C55900/621D8056" Ref="#PWR?"  Part="1" 
AR Path="/61C571A7/621D8056" Ref="#PWR?"  Part="1" 
AR Path="/61C571FF/621D8056" Ref="#PWR?"  Part="1" 
AR Path="/61C58729/621D8056" Ref="#PWR?"  Part="1" 
AR Path="/61C58781/621D8056" Ref="#PWR?"  Part="1" 
F 0 "#PWR0220" H 8500 5350 50  0001 C CNN
F 1 "GND" H 8500 5650 50  0000 C CNN
F 2 "" H 8500 5600 50  0001 C CNN
F 3 "" H 8500 5600 50  0001 C CNN
	1    8500 5600
	1    0    0    -1  
$EndComp
Wire Wire Line
	8050 5600 8500 5600
Text HLabel 1150 5750 0    50   Output ~ 0
SCK
Text Label 3750 6400 0    50   ~ 0
CS_SlowDAC4
Wire Wire Line
	3650 6700 3750 6700
Text Label 3750 6300 0    50   ~ 0
CS_SlowDAC3
Wire Wire Line
	3650 6800 3750 6800
Wire Wire Line
	9950 5350 10050 5350
Wire Wire Line
	10050 5450 9950 5450
Wire Wire Line
	9950 5550 10050 5550
Wire Wire Line
	10050 5650 9950 5650
Text Label 9950 5650 2    50   ~ 0
CS_SlowDAC4
Text Label 9950 5550 2    50   ~ 0
CS_SlowDAC3
Text Label 9950 5450 2    50   ~ 0
CS_SlowDAC2
Text Label 9950 5350 2    50   ~ 0
CS_SlowDAC1
Wire Wire Line
	9950 5750 10050 5750
Wire Wire Line
	10050 5850 9950 5850
Wire Wire Line
	9950 5950 10050 5950
Wire Wire Line
	10050 6050 9950 6050
Text Label 9950 6050 2    50   ~ 0
CS_SlowDAC8
Text Label 9950 5950 2    50   ~ 0
CS_SlowDAC7
Text Label 9950 5850 2    50   ~ 0
CS_SlowDAC6
Text Label 9950 5750 2    50   ~ 0
CS_SlowDAC5
$Comp
L power:GND #PWR?
U 1 1 62457F90
P 10650 6100
AR Path="/62457F90" Ref="#PWR?"  Part="1" 
AR Path="/610CCB80/62457F90" Ref="#PWR?"  Part="1" 
AR Path="/614407CE/62457F90" Ref="#PWR?"  Part="1" 
AR Path="/61465E4A/62457F90" Ref="#PWR?"  Part="1" 
AR Path="/61481D40/62457F90" Ref="#PWR?"  Part="1" 
AR Path="/63686327/62457F90" Ref="#PWR0221"  Part="1" 
AR Path="/61946A72/62457F90" Ref="#PWR?"  Part="1" 
AR Path="/61C55900/62457F90" Ref="#PWR?"  Part="1" 
AR Path="/61C571A7/62457F90" Ref="#PWR?"  Part="1" 
AR Path="/61C571FF/62457F90" Ref="#PWR?"  Part="1" 
AR Path="/61C58729/62457F90" Ref="#PWR?"  Part="1" 
AR Path="/61C58781/62457F90" Ref="#PWR?"  Part="1" 
F 0 "#PWR0221" H 10650 5850 50  0001 C CNN
F 1 "GND" H 10750 6000 50  0000 C CNN
F 2 "" H 10650 6100 50  0001 C CNN
F 3 "" H 10650 6100 50  0001 C CNN
	1    10650 6100
	1    0    0    -1  
$EndComp
Wire Wire Line
	10650 6100 10650 6050
Wire Wire Line
	10650 5350 10550 5350
Wire Wire Line
	10550 5450 10650 5450
Connection ~ 10650 5450
Wire Wire Line
	10650 5450 10650 5350
Wire Wire Line
	10550 5550 10650 5550
Connection ~ 10650 5550
Wire Wire Line
	10650 5550 10650 5450
Wire Wire Line
	10550 5650 10650 5650
Connection ~ 10650 5650
Wire Wire Line
	10650 5650 10650 5550
Wire Wire Line
	10550 5750 10650 5750
Connection ~ 10650 5750
Wire Wire Line
	10650 5750 10650 5650
Wire Wire Line
	10550 5850 10650 5850
Connection ~ 10650 5850
Wire Wire Line
	10650 5850 10650 5750
Wire Wire Line
	10550 5950 10650 5950
Connection ~ 10650 5950
Wire Wire Line
	10650 5950 10650 5850
Wire Wire Line
	10550 6050 10650 6050
Connection ~ 10650 6050
Wire Wire Line
	10650 6050 10650 5950
$Comp
L Mechanical:MountingHole H?
U 1 1 61960CA9
P 5500 6800
AR Path="/61960CA9" Ref="H?"  Part="1" 
AR Path="/61946A72/61960CA9" Ref="H?"  Part="1" 
AR Path="/63686327/61960CA9" Ref="H201"  Part="1" 
F 0 "H201" H 5600 6846 50  0000 L CNN
F 1 "MountingHole" H 5600 6755 50  0000 L CNN
F 2 "MountingHole:MountingHole_3mm" H 5500 6800 50  0001 C CNN
F 3 "" H 5500 6800 50  0001 C CNN
	1    5500 6800
	1    0    0    -1  
$EndComp
$Comp
L Mechanical:MountingHole H?
U 1 1 61960CAF
P 5500 7050
AR Path="/61960CAF" Ref="H?"  Part="1" 
AR Path="/61946A72/61960CAF" Ref="H?"  Part="1" 
AR Path="/63686327/61960CAF" Ref="H202"  Part="1" 
F 0 "H202" H 5600 7096 50  0000 L CNN
F 1 "MountingHole" H 5600 7005 50  0000 L CNN
F 2 "MountingHole:MountingHole_3mm" H 5500 7050 50  0001 C CNN
F 3 "" H 5500 7050 50  0001 C CNN
	1    5500 7050
	1    0    0    -1  
$EndComp
$Comp
L Mechanical:MountingHole H?
U 1 1 61960CB5
P 5500 7300
AR Path="/61960CB5" Ref="H?"  Part="1" 
AR Path="/61946A72/61960CB5" Ref="H?"  Part="1" 
AR Path="/63686327/61960CB5" Ref="H203"  Part="1" 
F 0 "H203" H 5600 7346 50  0000 L CNN
F 1 "MountingHole" H 5600 7255 50  0000 L CNN
F 2 "MountingHole:MountingHole_3mm" H 5500 7300 50  0001 C CNN
F 3 "" H 5500 7300 50  0001 C CNN
	1    5500 7300
	1    0    0    -1  
$EndComp
$Comp
L Connector_Generic:Conn_02x08_Odd_Even J203
U 1 1 623F3B3E
P 10250 5650
F 0 "J203" H 10300 6167 50  0000 C CNN
F 1 "Conn_02x08_Odd_Even" H 10300 6076 50  0000 C CNN
F 2 "Connector_PinHeader_1.27mm:PinHeader_2x08_P1.27mm_Vertical" H 10250 5650 50  0001 C CNN
F 3 "" H 10250 5650 50  0001 C CNN
F 4 "Sullins Connector Solutions" H 10250 5650 50  0001 C CNN "Manufacturer"
F 5 "GRPB082VWVN-RC" H 10250 5650 50  0001 C CNN "Part Number"
	1    10250 5650
	1    0    0    -1  
$EndComp
$Comp
L Mechanical:MountingHole H?
U 1 1 61AC4C0D
P 5500 7550
AR Path="/61AC4C0D" Ref="H?"  Part="1" 
AR Path="/61946A72/61AC4C0D" Ref="H?"  Part="1" 
AR Path="/63686327/61AC4C0D" Ref="H204"  Part="1" 
F 0 "H204" H 5600 7596 50  0000 L CNN
F 1 "MountingHole" H 5600 7505 50  0000 L CNN
F 2 "MountingHole:MountingHole_3mm" H 5500 7550 50  0001 C CNN
F 3 "" H 5500 7550 50  0001 C CNN
	1    5500 7550
	1    0    0    -1  
$EndComp
$Comp
L dk_USB-DVI-HDMI-Connectors:0473460001 J202
U 1 1 61AD2747
P 900 2250
F 0 "J202" H 964 2973 50  0000 C CNN
F 1 "0473460001" H 964 2882 50  0000 C CNN
F 2 "digikey-footprints:USB_Micro_B_Female_0473460001" H 1100 2450 60  0001 L CNN
F 3 "https://www.molex.com/pdm_docs/sd/473460001_sd.pdf" H 1100 2550 60  0001 L CNN
F 4 "Molex" H 1100 3350 60  0001 L CNN "Manufacturer"
F 5 "0473460001" H 1100 2750 60  0001 L CNN "Part Number"
	1    900  2250
	1    0    0    -1  
$EndComp
Wire Wire Line
	800  2850 800  3650
Wire Wire Line
	1150 3650 1700 3650
Connection ~ 1150 3650
Wire Wire Line
	9950 1900 10050 1900
Text HLabel 1150 5550 0    50   Input ~ 0
Vin5V0P
Text Label 1300 5550 0    50   ~ 0
Vin5V0P
Wire Wire Line
	1150 5550 1300 5550
Text Label 3250 4300 2    50   ~ 0
Vin5V0
Text Label 3400 4300 0    50   ~ 0
+5.0V
Wire Wire Line
	3400 4300 3250 4300
Text HLabel 1150 5450 0    50   Input ~ 0
Vin5V0
Text Label 1300 5450 0    50   ~ 0
Vin5V0
Wire Wire Line
	1150 5450 1300 5450
Text Label 5100 5450 2    50   ~ 0
+5.0V
$Comp
L Device:R R?
U 1 1 62127FE2
P 5550 5450
AR Path="/62127FE2" Ref="R?"  Part="1" 
AR Path="/610CCB80/62127FE2" Ref="R?"  Part="1" 
AR Path="/614407CE/62127FE2" Ref="R?"  Part="1" 
AR Path="/61465E4A/62127FE2" Ref="R?"  Part="1" 
AR Path="/61481D40/62127FE2" Ref="R?"  Part="1" 
AR Path="/63686327/62127FE2" Ref="R216"  Part="1" 
F 0 "R216" V 5600 5550 50  0000 L CNN
F 1 "10k" V 5600 5200 50  0000 L CNN
F 2 "Resistor_SMD:R_0402_1005Metric" V 5480 5450 50  0001 C CNN
F 3 "" H 5550 5450 50  0001 C CNN
F 4 "Yageo" H 5550 5450 50  0001 C CNN "Manufacturer"
F 5 "RC0402FR-0710KL" H 5550 5450 50  0001 C CNN "Part Number"
	1    5550 5450
	0    -1   -1   0   
$EndComp
Wire Wire Line
	5700 5450 5900 5450
Wire Wire Line
	5400 5450 5200 5450
$Comp
L Device:R R?
U 1 1 6215D141
P 5550 5550
AR Path="/6215D141" Ref="R?"  Part="1" 
AR Path="/610CCB80/6215D141" Ref="R?"  Part="1" 
AR Path="/614407CE/6215D141" Ref="R?"  Part="1" 
AR Path="/61465E4A/6215D141" Ref="R?"  Part="1" 
AR Path="/61481D40/6215D141" Ref="R?"  Part="1" 
AR Path="/63686327/6215D141" Ref="R217"  Part="1" 
F 0 "R217" V 5600 5650 50  0000 L CNN
F 1 "10k" V 5600 5300 50  0000 L CNN
F 2 "Resistor_SMD:R_0402_1005Metric" V 5480 5550 50  0001 C CNN
F 3 "" H 5550 5550 50  0001 C CNN
F 4 "Yageo" H 5550 5550 50  0001 C CNN "Manufacturer"
F 5 "RC0402FR-0710KL" H 5550 5550 50  0001 C CNN "Part Number"
	1    5550 5550
	0    -1   -1   0   
$EndComp
Wire Wire Line
	5700 5550 5900 5550
Wire Wire Line
	5400 5550 5200 5550
Wire Wire Line
	5200 5550 5200 5450
Connection ~ 5200 5450
Wire Wire Line
	5200 5450 5100 5450
$Comp
L Device:R R?
U 1 1 6217D734
P 5550 5650
AR Path="/6217D734" Ref="R?"  Part="1" 
AR Path="/610CCB80/6217D734" Ref="R?"  Part="1" 
AR Path="/614407CE/6217D734" Ref="R?"  Part="1" 
AR Path="/61465E4A/6217D734" Ref="R?"  Part="1" 
AR Path="/61481D40/6217D734" Ref="R?"  Part="1" 
AR Path="/63686327/6217D734" Ref="R218"  Part="1" 
F 0 "R218" V 5600 5750 50  0000 L CNN
F 1 "10k" V 5600 5400 50  0000 L CNN
F 2 "Resistor_SMD:R_0402_1005Metric" V 5480 5650 50  0001 C CNN
F 3 "" H 5550 5650 50  0001 C CNN
F 4 "Yageo" H 5550 5650 50  0001 C CNN "Manufacturer"
F 5 "RC0402FR-0710KL" H 5550 5650 50  0001 C CNN "Part Number"
	1    5550 5650
	0    -1   -1   0   
$EndComp
Wire Wire Line
	5700 5650 5900 5650
Wire Wire Line
	5400 5650 5200 5650
$Comp
L Device:R R?
U 1 1 6218E61E
P 5550 5750
AR Path="/6218E61E" Ref="R?"  Part="1" 
AR Path="/610CCB80/6218E61E" Ref="R?"  Part="1" 
AR Path="/614407CE/6218E61E" Ref="R?"  Part="1" 
AR Path="/61465E4A/6218E61E" Ref="R?"  Part="1" 
AR Path="/61481D40/6218E61E" Ref="R?"  Part="1" 
AR Path="/63686327/6218E61E" Ref="R219"  Part="1" 
F 0 "R219" V 5600 5850 50  0000 L CNN
F 1 "10k" V 5600 5500 50  0000 L CNN
F 2 "Resistor_SMD:R_0402_1005Metric" V 5480 5750 50  0001 C CNN
F 3 "" H 5550 5750 50  0001 C CNN
F 4 "Yageo" H 5550 5750 50  0001 C CNN "Manufacturer"
F 5 "RC0402FR-0710KL" H 5550 5750 50  0001 C CNN "Part Number"
	1    5550 5750
	0    -1   -1   0   
$EndComp
Wire Wire Line
	5700 5750 5900 5750
Wire Wire Line
	5400 5750 5200 5750
$Comp
L Device:R R?
U 1 1 6219F14C
P 5550 5850
AR Path="/6219F14C" Ref="R?"  Part="1" 
AR Path="/610CCB80/6219F14C" Ref="R?"  Part="1" 
AR Path="/614407CE/6219F14C" Ref="R?"  Part="1" 
AR Path="/61465E4A/6219F14C" Ref="R?"  Part="1" 
AR Path="/61481D40/6219F14C" Ref="R?"  Part="1" 
AR Path="/63686327/6219F14C" Ref="R220"  Part="1" 
F 0 "R220" V 5600 5950 50  0000 L CNN
F 1 "10k" V 5600 5600 50  0000 L CNN
F 2 "Resistor_SMD:R_0402_1005Metric" V 5480 5850 50  0001 C CNN
F 3 "" H 5550 5850 50  0001 C CNN
F 4 "Yageo" H 5550 5850 50  0001 C CNN "Manufacturer"
F 5 "RC0402FR-0710KL" H 5550 5850 50  0001 C CNN "Part Number"
	1    5550 5850
	0    -1   -1   0   
$EndComp
Wire Wire Line
	5700 5850 5900 5850
Wire Wire Line
	5400 5850 5200 5850
$Comp
L Device:R R?
U 1 1 621B0002
P 5550 5950
AR Path="/621B0002" Ref="R?"  Part="1" 
AR Path="/610CCB80/621B0002" Ref="R?"  Part="1" 
AR Path="/614407CE/621B0002" Ref="R?"  Part="1" 
AR Path="/61465E4A/621B0002" Ref="R?"  Part="1" 
AR Path="/61481D40/621B0002" Ref="R?"  Part="1" 
AR Path="/63686327/621B0002" Ref="R221"  Part="1" 
F 0 "R221" V 5600 6050 50  0000 L CNN
F 1 "10k" V 5600 5700 50  0000 L CNN
F 2 "Resistor_SMD:R_0402_1005Metric" V 5480 5950 50  0001 C CNN
F 3 "" H 5550 5950 50  0001 C CNN
F 4 "Yageo" H 5550 5950 50  0001 C CNN "Manufacturer"
F 5 "RC0402FR-0710KL" H 5550 5950 50  0001 C CNN "Part Number"
	1    5550 5950
	0    -1   -1   0   
$EndComp
Wire Wire Line
	5700 5950 5900 5950
Wire Wire Line
	5400 5950 5200 5950
$Comp
L Device:R R?
U 1 1 621C17E3
P 5550 6050
AR Path="/621C17E3" Ref="R?"  Part="1" 
AR Path="/610CCB80/621C17E3" Ref="R?"  Part="1" 
AR Path="/614407CE/621C17E3" Ref="R?"  Part="1" 
AR Path="/61465E4A/621C17E3" Ref="R?"  Part="1" 
AR Path="/61481D40/621C17E3" Ref="R?"  Part="1" 
AR Path="/63686327/621C17E3" Ref="R222"  Part="1" 
F 0 "R222" V 5600 6150 50  0000 L CNN
F 1 "10k" V 5600 5800 50  0000 L CNN
F 2 "Resistor_SMD:R_0402_1005Metric" V 5480 6050 50  0001 C CNN
F 3 "" H 5550 6050 50  0001 C CNN
F 4 "Yageo" H 5550 6050 50  0001 C CNN "Manufacturer"
F 5 "RC0402FR-0710KL" H 5550 6050 50  0001 C CNN "Part Number"
	1    5550 6050
	0    -1   -1   0   
$EndComp
Wire Wire Line
	5700 6050 5900 6050
Wire Wire Line
	5400 6050 5200 6050
$Comp
L Device:R R?
U 1 1 621C19AD
P 5550 6150
AR Path="/621C19AD" Ref="R?"  Part="1" 
AR Path="/610CCB80/621C19AD" Ref="R?"  Part="1" 
AR Path="/614407CE/621C19AD" Ref="R?"  Part="1" 
AR Path="/61465E4A/621C19AD" Ref="R?"  Part="1" 
AR Path="/61481D40/621C19AD" Ref="R?"  Part="1" 
AR Path="/63686327/621C19AD" Ref="R223"  Part="1" 
F 0 "R223" V 5600 6250 50  0000 L CNN
F 1 "10k" V 5600 5900 50  0000 L CNN
F 2 "Resistor_SMD:R_0402_1005Metric" V 5480 6150 50  0001 C CNN
F 3 "" H 5550 6150 50  0001 C CNN
F 4 "Yageo" H 5550 6150 50  0001 C CNN "Manufacturer"
F 5 "RC0402FR-0710KL" H 5550 6150 50  0001 C CNN "Part Number"
	1    5550 6150
	0    -1   -1   0   
$EndComp
Wire Wire Line
	5700 6150 5900 6150
Wire Wire Line
	5400 6150 5200 6150
Wire Wire Line
	5200 6150 5200 6050
Connection ~ 5200 5550
Connection ~ 5200 5650
Wire Wire Line
	5200 5650 5200 5550
Connection ~ 5200 5750
Wire Wire Line
	5200 5750 5200 5650
Connection ~ 5200 5850
Wire Wire Line
	5200 5850 5200 5750
Connection ~ 5200 5950
Wire Wire Line
	5200 5950 5200 5850
Connection ~ 5200 6050
Wire Wire Line
	5200 6050 5200 5950
Text Label 9100 3150 3    50   ~ 0
D17
Text Label 9200 3150 3    50   ~ 0
D16
Text Label 9300 3150 3    50   ~ 0
D15
Text Label 5900 6050 0    50   ~ 0
CS_SlowDAC7
Text Label 5900 6150 0    50   ~ 0
CS_SlowDAC8
Text Label 5900 5950 0    50   ~ 0
CS_SlowDAC6
Text Label 5900 5850 0    50   ~ 0
CS_SlowDAC5
Text Label 5900 5450 0    50   ~ 0
CS_SlowDAC1
Text Label 5900 5550 0    50   ~ 0
CS_SlowDAC2
Text Label 5900 5750 0    50   ~ 0
CS_SlowDAC4
Text Label 5900 5650 0    50   ~ 0
CS_SlowDAC3
Text Label 8900 3150 3    50   ~ 0
D4
Text Label 8300 950  1    50   ~ 0
GND
Wire Wire Line
	8300 950  8300 1050
$EndSCHEMATC
