EESchema Schematic File Version 4
EELAYER 30 0
EELAYER END
$Descr A4 11693 8268
encoding utf-8
Sheet 3 8
Title ""
Date ""
Rev ""
Comp ""
Comment1 ""
Comment2 ""
Comment3 ""
Comment4 ""
$EndDescr
$Comp
L 000_symbol:DAC_LTC2704-16 U301
U 1 1 61946BBE
P 5750 2950
AR Path="/61946A72/61946BBE" Ref="U301"  Part="1" 
AR Path="/61C55900/61946BBE" Ref="U401"  Part="1" 
AR Path="/61C571A7/61946BBE" Ref="U501"  Part="1" 
AR Path="/61C571FF/61946BBE" Ref="U601"  Part="1" 
AR Path="/61C58729/61946BBE" Ref="U701"  Part="1" 
AR Path="/61C58781/61946BBE" Ref="U801"  Part="1" 
F 0 "U301" H 5750 4265 50  0000 C CNN
F 1 "DAC_LTC2704-16" H 5750 4174 50  0000 C CNN
F 2 "000_footprint:LTC2704_SSOP-44" H 5700 3500 50  0001 C CNN
F 3 "" H 5700 3450 50  0001 C CNN
F 4 "Analog Devices" H 5800 3000 50  0001 C CNN "Manufacturer"
F 5 "LTC2704CGW-16#PBF" H 5750 2900 50  0001 C CNN "Part Number"
	1    5750 2950
	1    0    0    -1  
$EndComp
$Comp
L Device:C C?
U 1 1 6199FF81
P 3000 5900
AR Path="/6199FF81" Ref="C?"  Part="1" 
AR Path="/610CCB80/6199FF81" Ref="C?"  Part="1" 
AR Path="/614407CE/6199FF81" Ref="C?"  Part="1" 
AR Path="/61465E4A/6199FF81" Ref="C?"  Part="1" 
AR Path="/61481D40/6199FF81" Ref="C?"  Part="1" 
AR Path="/63686327/6199FF81" Ref="C?"  Part="1" 
AR Path="/61946A72/6199FF81" Ref="C314"  Part="1" 
AR Path="/61C55900/6199FF81" Ref="C414"  Part="1" 
AR Path="/61C571A7/6199FF81" Ref="C514"  Part="1" 
AR Path="/61C571FF/6199FF81" Ref="C614"  Part="1" 
AR Path="/61C58729/6199FF81" Ref="C714"  Part="1" 
AR Path="/61C58781/6199FF81" Ref="C814"  Part="1" 
F 0 "C314" H 2950 5800 50  0000 C CNN
F 1 "0.1u" H 2950 6000 50  0000 C CNN
F 2 "Capacitor_SMD:C_0402_1005Metric" H 3038 5750 50  0001 C CNN
F 3 "" H 3000 5900 50  0001 C CNN
F 4 "Murata" V 3000 5900 50  0001 C CNN "Manufacturer"
F 5 "GRM155R71H104KE14D" V 3000 5900 50  0001 C CNN "Part Number"
	1    3000 5900
	-1   0    0    1   
$EndComp
Wire Wire Line
	3000 6050 3000 6100
$Comp
L 000_symbol:VoltageReference_ADR430B U303
U 1 1 619A606C
P 2450 5650
AR Path="/61946A72/619A606C" Ref="U303"  Part="1" 
AR Path="/61C55900/619A606C" Ref="U403"  Part="1" 
AR Path="/61C571A7/619A606C" Ref="U503"  Part="1" 
AR Path="/61C571FF/619A606C" Ref="U603"  Part="1" 
AR Path="/61C58729/619A606C" Ref="U703"  Part="1" 
AR Path="/61C58781/619A606C" Ref="U803"  Part="1" 
F 0 "U303" H 2450 6065 50  0000 C CNN
F 1 "VoltageReference_ADR430B" H 2450 5974 50  0000 C CNN
F 2 "Package_SO:SOIC-8_3.9x4.9mm_P1.27mm" H 2500 5600 50  0001 C CNN
F 3 "" H 2500 5600 50  0001 C CNN
F 4 "Analog Devices" H 2450 5700 50  0001 C CNN "Manufacturer"
F 5 "ADR430BRZ" H 2450 5700 50  0001 C CNN "Part Number"
F 6 "ADR431BRZ" H 2450 5700 50  0001 C CNN "Backup"
	1    2450 5650
	1    0    0    -1  
$EndComp
$Comp
L Device:C C?
U 1 1 619B2B32
P 2300 4500
AR Path="/619B2B32" Ref="C?"  Part="1" 
AR Path="/610CCB80/619B2B32" Ref="C?"  Part="1" 
AR Path="/614407CE/619B2B32" Ref="C?"  Part="1" 
AR Path="/61465E4A/619B2B32" Ref="C?"  Part="1" 
AR Path="/61481D40/619B2B32" Ref="C?"  Part="1" 
AR Path="/63686327/619B2B32" Ref="C?"  Part="1" 
AR Path="/61946A72/619B2B32" Ref="C306"  Part="1" 
AR Path="/61C55900/619B2B32" Ref="C406"  Part="1" 
AR Path="/61C571A7/619B2B32" Ref="C506"  Part="1" 
AR Path="/61C571FF/619B2B32" Ref="C606"  Part="1" 
AR Path="/61C58729/619B2B32" Ref="C706"  Part="1" 
AR Path="/61C58781/619B2B32" Ref="C806"  Part="1" 
F 0 "C306" H 2400 4400 50  0000 C CNN
F 1 "0.1u" H 2400 4600 50  0000 C CNN
F 2 "Capacitor_SMD:C_0603_1608Metric" H 2338 4350 50  0001 C CNN
F 3 "" H 2300 4500 50  0001 C CNN
F 4 "AVX" V 2300 4500 50  0001 C CNN "Manufacturer"
F 5 "0603YC104MAT2A" V 2300 4500 50  0001 C CNN "Part Number"
	1    2300 4500
	-1   0    0    1   
$EndComp
$Comp
L power:GND #PWR?
U 1 1 619C1018
P 2300 4700
AR Path="/619C1018" Ref="#PWR?"  Part="1" 
AR Path="/610CCB80/619C1018" Ref="#PWR?"  Part="1" 
AR Path="/614407CE/619C1018" Ref="#PWR?"  Part="1" 
AR Path="/61465E4A/619C1018" Ref="#PWR?"  Part="1" 
AR Path="/61481D40/619C1018" Ref="#PWR?"  Part="1" 
AR Path="/63686327/619C1018" Ref="#PWR?"  Part="1" 
AR Path="/61946A72/619C1018" Ref="#PWR0305"  Part="1" 
AR Path="/61C55900/619C1018" Ref="#PWR0405"  Part="1" 
AR Path="/61C571A7/619C1018" Ref="#PWR0505"  Part="1" 
AR Path="/61C571FF/619C1018" Ref="#PWR0605"  Part="1" 
AR Path="/61C58729/619C1018" Ref="#PWR0705"  Part="1" 
AR Path="/61C58781/619C1018" Ref="#PWR0805"  Part="1" 
F 0 "#PWR0305" H 2300 4450 50  0001 C CNN
F 1 "GND" H 2200 4600 50  0000 C CNN
F 2 "" H 2300 4700 50  0001 C CNN
F 3 "" H 2300 4700 50  0001 C CNN
	1    2300 4700
	1    0    0    -1  
$EndComp
Wire Wire Line
	2300 4650 2300 4700
$Comp
L Connector_Generic:Conn_01x03 J?
U 1 1 61A0142E
P 9850 2500
AR Path="/63686327/61A0142E" Ref="J?"  Part="1" 
AR Path="/61946A72/61A0142E" Ref="J301"  Part="1" 
AR Path="/61C55900/61A0142E" Ref="J401"  Part="1" 
AR Path="/61C571A7/61A0142E" Ref="J501"  Part="1" 
AR Path="/61C571FF/61A0142E" Ref="J601"  Part="1" 
AR Path="/61C58729/61A0142E" Ref="J701"  Part="1" 
AR Path="/61C58781/61A0142E" Ref="J801"  Part="1" 
F 0 "J301" H 10000 2500 50  0000 C CNN
F 1 "Conn_01x03" H 9768 2726 50  0000 C CNN
F 2 "000_footprint:PinHeader_1x3_P2.54_Drill1.1mm_TE_640456-3" H 9850 2500 50  0001 C CNN
F 3 "" H 9850 2500 50  0001 C CNN
F 4 "Molex" H 9850 2500 50  0001 C CNN "Manufacturer"
F 5 "0022232031" H 9850 2500 50  0001 C CNN "Part Number"
	1    9850 2500
	-1   0    0    -1  
$EndComp
Wire Wire Line
	1250 1200 1400 1200
Wire Wire Line
	1250 1300 1400 1300
Wire Wire Line
	1250 1400 1400 1400
Wire Wire Line
	1250 1500 1400 1500
Wire Wire Line
	1250 1600 1400 1600
Text HLabel 1250 1200 0    50   Input ~ 0
Vin5V0P
Text HLabel 1250 1300 0    50   Input ~ 0
Vin5V0N
Text Label 1400 1200 0    50   ~ 0
Vin5V0P
Text Label 1400 1300 0    50   ~ 0
Vin5V0N
Wire Wire Line
	10050 2400 10150 2400
Wire Wire Line
	10050 2600 10150 2600
Text Label 10150 2400 0    50   ~ 0
OUTA
Text Label 10150 2600 0    50   ~ 0
OUTB
$Comp
L Connector_Generic:Conn_01x03 J?
U 1 1 61A2D402
P 9850 3000
AR Path="/63686327/61A2D402" Ref="J?"  Part="1" 
AR Path="/61946A72/61A2D402" Ref="J302"  Part="1" 
AR Path="/61C55900/61A2D402" Ref="J402"  Part="1" 
AR Path="/61C571A7/61A2D402" Ref="J502"  Part="1" 
AR Path="/61C571FF/61A2D402" Ref="J602"  Part="1" 
AR Path="/61C58729/61A2D402" Ref="J702"  Part="1" 
AR Path="/61C58781/61A2D402" Ref="J802"  Part="1" 
F 0 "J302" H 10000 3000 50  0000 C CNN
F 1 "Conn_01x03" H 9768 3226 50  0000 C CNN
F 2 "000_footprint:PinHeader_1x3_P2.54_Drill1.1mm_TE_640456-3" H 9850 3000 50  0001 C CNN
F 3 "" H 9850 3000 50  0001 C CNN
F 4 "Molex" H 9850 3000 50  0001 C CNN "Manufacturer"
F 5 "0022232031" H 9850 3000 50  0001 C CNN "Part Number"
	1    9850 3000
	-1   0    0    -1  
$EndComp
Wire Wire Line
	10050 2900 10150 2900
Wire Wire Line
	10050 3100 10150 3100
Text Label 10150 2900 0    50   ~ 0
OUTC
Text Label 10150 3100 0    50   ~ 0
OUTD
$Comp
L Connector:TestPoint TP301
U 1 1 61A388E3
P 3350 1250
AR Path="/61946A72/61A388E3" Ref="TP301"  Part="1" 
AR Path="/61C55900/61A388E3" Ref="TP401"  Part="1" 
AR Path="/61C571A7/61A388E3" Ref="TP501"  Part="1" 
AR Path="/61C571FF/61A388E3" Ref="TP601"  Part="1" 
AR Path="/61C58729/61A388E3" Ref="TP701"  Part="1" 
AR Path="/61C58781/61A388E3" Ref="TP801"  Part="1" 
F 0 "TP301" H 3300 1450 50  0000 L CNN
F 1 "TestPoint" H 3200 1200 50  0000 L CNN
F 2 "TestPoint:TestPoint_Pad_D1.0mm" H 3550 1250 50  0001 C CNN
F 3 "" H 3550 1250 50  0001 C CNN
	1    3350 1250
	1    0    0    -1  
$EndComp
Text Label 4950 2700 0    50   ~ 0
~LDAC
Wire Wire Line
	5200 2700 4950 2700
Text Label 3450 1250 0    50   ~ 0
~LDAC
$Comp
L 000_symbol:VoltageReference_LT1790-3.3 U302
U 1 1 6177B3F2
P 2400 3800
AR Path="/61946A72/6177B3F2" Ref="U302"  Part="1" 
AR Path="/61C55900/6177B3F2" Ref="U402"  Part="1" 
AR Path="/61C571A7/6177B3F2" Ref="U502"  Part="1" 
AR Path="/61C571FF/6177B3F2" Ref="U602"  Part="1" 
AR Path="/61C58729/6177B3F2" Ref="U702"  Part="1" 
AR Path="/61C58781/6177B3F2" Ref="U802"  Part="1" 
F 0 "U302" V 2150 3500 50  0000 L CNN
F 1 "VoltageReference_LT1790-3.3" V 2400 3200 50  0000 L CNN
F 2 "Package_TO_SOT_SMD:TSOT-23-6" H 2400 3850 50  0001 C CNN
F 3 "" H 2450 3700 50  0001 C CNN
F 4 "Analog Devices" H 2400 3800 50  0001 C CNN "Manufacturer"
F 5 "LT1790AIS6-3.3" H 2400 3750 50  0001 C CNN "Part Number"
	1    2400 3800
	0    1    1    0   
$EndComp
Wire Wire Line
	2500 4650 2500 4700
$Comp
L power:GND #PWR?
U 1 1 619C0C46
P 2500 4700
AR Path="/619C0C46" Ref="#PWR?"  Part="1" 
AR Path="/610CCB80/619C0C46" Ref="#PWR?"  Part="1" 
AR Path="/614407CE/619C0C46" Ref="#PWR?"  Part="1" 
AR Path="/61465E4A/619C0C46" Ref="#PWR?"  Part="1" 
AR Path="/61481D40/619C0C46" Ref="#PWR?"  Part="1" 
AR Path="/63686327/619C0C46" Ref="#PWR?"  Part="1" 
AR Path="/61946A72/619C0C46" Ref="#PWR0306"  Part="1" 
AR Path="/61C55900/619C0C46" Ref="#PWR0406"  Part="1" 
AR Path="/61C571A7/619C0C46" Ref="#PWR0506"  Part="1" 
AR Path="/61C571FF/619C0C46" Ref="#PWR0606"  Part="1" 
AR Path="/61C58729/619C0C46" Ref="#PWR0706"  Part="1" 
AR Path="/61C58781/619C0C46" Ref="#PWR0806"  Part="1" 
F 0 "#PWR0306" H 2500 4450 50  0001 C CNN
F 1 "GND" H 2600 4600 50  0000 C CNN
F 2 "" H 2500 4700 50  0001 C CNN
F 3 "" H 2500 4700 50  0001 C CNN
	1    2500 4700
	1    0    0    -1  
$EndComp
$Comp
L Device:C C?
U 1 1 619B3FF5
P 2500 4500
AR Path="/619B3FF5" Ref="C?"  Part="1" 
AR Path="/610CCB80/619B3FF5" Ref="C?"  Part="1" 
AR Path="/614407CE/619B3FF5" Ref="C?"  Part="1" 
AR Path="/61465E4A/619B3FF5" Ref="C?"  Part="1" 
AR Path="/61481D40/619B3FF5" Ref="C?"  Part="1" 
AR Path="/63686327/619B3FF5" Ref="C?"  Part="1" 
AR Path="/61946A72/619B3FF5" Ref="C307"  Part="1" 
AR Path="/61C55900/619B3FF5" Ref="C407"  Part="1" 
AR Path="/61C571A7/619B3FF5" Ref="C507"  Part="1" 
AR Path="/61C571FF/619B3FF5" Ref="C607"  Part="1" 
AR Path="/61C58729/619B3FF5" Ref="C707"  Part="1" 
AR Path="/61C58781/619B3FF5" Ref="C807"  Part="1" 
F 0 "C307" H 2400 4400 50  0000 C CNN
F 1 "4.7u" H 2400 4600 50  0000 C CNN
F 2 "Capacitor_SMD:C_0603_1608Metric" H 2538 4350 50  0001 C CNN
F 3 "" H 2500 4500 50  0001 C CNN
F 4 "TDK" V 2500 4500 50  0001 C CNN "Manufacturer"
F 5 "C1608X5R1E475M080AC" V 2500 4500 50  0001 C CNN "Part Number"
	1    2500 4500
	-1   0    0    1   
$EndComp
Text Label 2500 4250 0    50   ~ 0
VCC
$Comp
L power:GND #PWR?
U 1 1 617ABC53
P 2700 3400
AR Path="/617ABC53" Ref="#PWR?"  Part="1" 
AR Path="/610CCB80/617ABC53" Ref="#PWR?"  Part="1" 
AR Path="/614407CE/617ABC53" Ref="#PWR?"  Part="1" 
AR Path="/61465E4A/617ABC53" Ref="#PWR?"  Part="1" 
AR Path="/61481D40/617ABC53" Ref="#PWR?"  Part="1" 
AR Path="/63686327/617ABC53" Ref="#PWR?"  Part="1" 
AR Path="/61946A72/617ABC53" Ref="#PWR0302"  Part="1" 
AR Path="/61C55900/617ABC53" Ref="#PWR0402"  Part="1" 
AR Path="/61C571A7/617ABC53" Ref="#PWR0502"  Part="1" 
AR Path="/61C571FF/617ABC53" Ref="#PWR0602"  Part="1" 
AR Path="/61C58729/617ABC53" Ref="#PWR0702"  Part="1" 
AR Path="/61C58781/617ABC53" Ref="#PWR0802"  Part="1" 
F 0 "#PWR0302" H 2700 3150 50  0001 C CNN
F 1 "GND" H 2700 3250 50  0000 C CNN
F 2 "" H 2700 3400 50  0001 C CNN
F 3 "" H 2700 3400 50  0001 C CNN
	1    2700 3400
	1    0    0    -1  
$EndComp
Wire Wire Line
	2500 3450 2500 3400
Wire Wire Line
	2500 3400 2700 3400
Wire Wire Line
	2400 3450 2400 3400
Wire Wire Line
	2400 3400 2500 3400
Connection ~ 2500 3400
Text Label 2600 1250 0    50   ~ 0
VCC
$Comp
L Device:R R?
U 1 1 617CA21B
P 3000 1250
AR Path="/617CA21B" Ref="R?"  Part="1" 
AR Path="/610CCB80/617CA21B" Ref="R?"  Part="1" 
AR Path="/614407CE/617CA21B" Ref="R?"  Part="1" 
AR Path="/61465E4A/617CA21B" Ref="R?"  Part="1" 
AR Path="/61481D40/617CA21B" Ref="R?"  Part="1" 
AR Path="/63686327/617CA21B" Ref="R?"  Part="1" 
AR Path="/61946A72/617CA21B" Ref="R301"  Part="1" 
AR Path="/61C55900/617CA21B" Ref="R401"  Part="1" 
AR Path="/61C571A7/617CA21B" Ref="R501"  Part="1" 
AR Path="/61C571FF/617CA21B" Ref="R601"  Part="1" 
AR Path="/61C58729/617CA21B" Ref="R701"  Part="1" 
AR Path="/61C58781/617CA21B" Ref="R801"  Part="1" 
F 0 "R301" V 2900 1250 50  0000 L CNN
F 1 "10k" V 3100 1200 50  0000 L CNN
F 2 "Resistor_SMD:R_0603_1608Metric" V 2930 1250 50  0001 C CNN
F 3 "" H 3000 1250 50  0001 C CNN
F 4 "Yageo" H 3000 1250 50  0001 C CNN "Manufacturer"
F 5 "RC0603JR-0710KL" H 3000 1250 50  0001 C CNN "Part Number"
	1    3000 1250
	0    -1   -1   0   
$EndComp
Wire Wire Line
	2600 1250 2850 1250
Wire Wire Line
	3150 1250 3350 1250
Connection ~ 3350 1250
Wire Wire Line
	3350 1250 3450 1250
Text HLabel 1250 1400 0    50   Input ~ 0
~CS
Text HLabel 1250 1500 0    50   Input ~ 0
SDI
Wire Wire Line
	1250 1700 1400 1700
Text HLabel 1250 1600 0    50   Input ~ 0
SCK
Text HLabel 1250 1700 0    50   Output ~ 0
SRO
Text Label 1400 1400 0    50   ~ 0
~CS
Text Label 1400 1500 0    50   ~ 0
SDI
Text Label 1400 1600 0    50   ~ 0
SCK
Text Label 1400 1700 0    50   ~ 0
SRO
Wire Wire Line
	5200 2800 4950 2800
Wire Wire Line
	5200 2900 4950 2900
Wire Wire Line
	5200 3000 4950 3000
Wire Wire Line
	5200 3100 4950 3100
Text Label 4950 2800 0    50   ~ 0
~CS
Text Label 4950 2900 0    50   ~ 0
SDI
Text Label 4950 3100 0    50   ~ 0
SCK
Text Label 4950 3000 0    50   ~ 0
SRO
$Comp
L Connector:TestPoint TP302
U 1 1 617DC79B
P 3350 1650
AR Path="/61946A72/617DC79B" Ref="TP302"  Part="1" 
AR Path="/61C55900/617DC79B" Ref="TP402"  Part="1" 
AR Path="/61C571A7/617DC79B" Ref="TP502"  Part="1" 
AR Path="/61C571FF/617DC79B" Ref="TP602"  Part="1" 
AR Path="/61C58729/617DC79B" Ref="TP702"  Part="1" 
AR Path="/61C58781/617DC79B" Ref="TP802"  Part="1" 
F 0 "TP302" H 3300 1850 50  0000 L CNN
F 1 "TestPoint" H 3200 1600 50  0000 L CNN
F 2 "TestPoint:TestPoint_Pad_D1.0mm" H 3550 1650 50  0001 C CNN
F 3 "" H 3550 1650 50  0001 C CNN
	1    3350 1650
	1    0    0    -1  
$EndComp
Text Label 3450 1650 0    50   ~ 0
~CLR
Text Label 2600 1650 0    50   ~ 0
VCC
$Comp
L Device:R R?
U 1 1 617DC957
P 3000 1650
AR Path="/617DC957" Ref="R?"  Part="1" 
AR Path="/610CCB80/617DC957" Ref="R?"  Part="1" 
AR Path="/614407CE/617DC957" Ref="R?"  Part="1" 
AR Path="/61465E4A/617DC957" Ref="R?"  Part="1" 
AR Path="/61481D40/617DC957" Ref="R?"  Part="1" 
AR Path="/63686327/617DC957" Ref="R?"  Part="1" 
AR Path="/61946A72/617DC957" Ref="R302"  Part="1" 
AR Path="/61C55900/617DC957" Ref="R402"  Part="1" 
AR Path="/61C571A7/617DC957" Ref="R502"  Part="1" 
AR Path="/61C571FF/617DC957" Ref="R602"  Part="1" 
AR Path="/61C58729/617DC957" Ref="R702"  Part="1" 
AR Path="/61C58781/617DC957" Ref="R802"  Part="1" 
F 0 "R302" V 2900 1650 50  0000 L CNN
F 1 "10k" V 3100 1600 50  0000 L CNN
F 2 "Resistor_SMD:R_0603_1608Metric" V 2930 1650 50  0001 C CNN
F 3 "" H 3000 1650 50  0001 C CNN
F 4 "Yageo" H 3000 1650 50  0001 C CNN "Manufacturer"
F 5 "RC0603JR-0710KL" H 3000 1650 50  0001 C CNN "Part Number"
	1    3000 1650
	0    -1   -1   0   
$EndComp
Wire Wire Line
	2600 1650 2850 1650
Wire Wire Line
	3150 1650 3350 1650
Connection ~ 3350 1650
Wire Wire Line
	3350 1650 3450 1650
Wire Wire Line
	5200 3200 4950 3200
Text Label 4950 3200 0    50   ~ 0
~CLR
$Comp
L Connector:TestPoint TP305
U 1 1 617E1CB6
P 3350 2100
AR Path="/61946A72/617E1CB6" Ref="TP305"  Part="1" 
AR Path="/61C55900/617E1CB6" Ref="TP405"  Part="1" 
AR Path="/61C571A7/617E1CB6" Ref="TP505"  Part="1" 
AR Path="/61C571FF/617E1CB6" Ref="TP605"  Part="1" 
AR Path="/61C58729/617E1CB6" Ref="TP705"  Part="1" 
AR Path="/61C58781/617E1CB6" Ref="TP805"  Part="1" 
F 0 "TP305" H 3300 2300 50  0000 L CNN
F 1 "TestPoint" H 3200 2050 50  0000 L CNN
F 2 "TestPoint:TestPoint_Pad_D1.0mm" H 3550 2100 50  0001 C CNN
F 3 "" H 3550 2100 50  0001 C CNN
	1    3350 2100
	1    0    0    -1  
$EndComp
Text Label 3450 2100 0    50   ~ 0
~RFLAG
Text Label 2600 2100 0    50   ~ 0
VCC
$Comp
L Device:R R?
U 1 1 617E1E2A
P 3000 2100
AR Path="/617E1E2A" Ref="R?"  Part="1" 
AR Path="/610CCB80/617E1E2A" Ref="R?"  Part="1" 
AR Path="/614407CE/617E1E2A" Ref="R?"  Part="1" 
AR Path="/61465E4A/617E1E2A" Ref="R?"  Part="1" 
AR Path="/61481D40/617E1E2A" Ref="R?"  Part="1" 
AR Path="/63686327/617E1E2A" Ref="R?"  Part="1" 
AR Path="/61946A72/617E1E2A" Ref="R303"  Part="1" 
AR Path="/61C55900/617E1E2A" Ref="R403"  Part="1" 
AR Path="/61C571A7/617E1E2A" Ref="R503"  Part="1" 
AR Path="/61C571FF/617E1E2A" Ref="R603"  Part="1" 
AR Path="/61C58729/617E1E2A" Ref="R703"  Part="1" 
AR Path="/61C58781/617E1E2A" Ref="R803"  Part="1" 
F 0 "R303" V 2900 2100 50  0000 L CNN
F 1 "1k" V 3100 2050 50  0000 L CNN
F 2 "Resistor_SMD:R_0603_1608Metric" V 2930 2100 50  0001 C CNN
F 3 "" H 3000 2100 50  0001 C CNN
F 4 "Yageo" H 3000 2100 50  0001 C CNN "Manufacturer"
F 5 "RC0603JR-071KL" H 3000 2100 50  0001 C CNN "Part Number"
	1    3000 2100
	0    -1   -1   0   
$EndComp
Wire Wire Line
	3150 2100 3350 2100
Connection ~ 3350 2100
Wire Wire Line
	3350 2100 3450 2100
Text Label 6550 2800 2    50   ~ 0
~RFLAG
Wire Wire Line
	6300 2800 6550 2800
Wire Wire Line
	2600 2100 2850 2100
Text Label 6550 2900 2    50   ~ 0
VCC
$Comp
L power:GND #PWR?
U 1 1 61821A6E
P 7200 3050
AR Path="/61821A6E" Ref="#PWR?"  Part="1" 
AR Path="/610CCB80/61821A6E" Ref="#PWR?"  Part="1" 
AR Path="/614407CE/61821A6E" Ref="#PWR?"  Part="1" 
AR Path="/61465E4A/61821A6E" Ref="#PWR?"  Part="1" 
AR Path="/61481D40/61821A6E" Ref="#PWR?"  Part="1" 
AR Path="/63686327/61821A6E" Ref="#PWR?"  Part="1" 
AR Path="/61946A72/61821A6E" Ref="#PWR0301"  Part="1" 
AR Path="/61C55900/61821A6E" Ref="#PWR0401"  Part="1" 
AR Path="/61C571A7/61821A6E" Ref="#PWR0501"  Part="1" 
AR Path="/61C571FF/61821A6E" Ref="#PWR0601"  Part="1" 
AR Path="/61C58729/61821A6E" Ref="#PWR0701"  Part="1" 
AR Path="/61C58781/61821A6E" Ref="#PWR0801"  Part="1" 
F 0 "#PWR0301" H 7200 2800 50  0001 C CNN
F 1 "GND" H 7300 2950 50  0000 C CNN
F 2 "" H 7200 3050 50  0001 C CNN
F 3 "" H 7200 3050 50  0001 C CNN
	1    7200 3050
	1    0    0    -1  
$EndComp
Wire Wire Line
	6300 2900 6750 2900
$Comp
L Connector:TestPoint TP306
U 1 1 61835F29
P 6750 2900
AR Path="/61946A72/61835F29" Ref="TP306"  Part="1" 
AR Path="/61C55900/61835F29" Ref="TP406"  Part="1" 
AR Path="/61C571A7/61835F29" Ref="TP506"  Part="1" 
AR Path="/61C571FF/61835F29" Ref="TP606"  Part="1" 
AR Path="/61C58729/61835F29" Ref="TP706"  Part="1" 
AR Path="/61C58781/61835F29" Ref="TP806"  Part="1" 
F 0 "TP306" H 6600 3050 50  0000 L CNN
F 1 "TestPoint" H 6750 3050 50  0000 L CNN
F 2 "TestPoint:TestPoint_Pad_D1.0mm" H 6950 2900 50  0001 C CNN
F 3 "" H 6950 2900 50  0001 C CNN
	1    6750 2900
	1    0    0    -1  
$EndComp
Wire Wire Line
	6300 3100 6700 3100
Wire Wire Line
	6300 3000 6700 3000
Wire Wire Line
	6700 3000 6700 3100
$Comp
L Device:C C?
U 1 1 61858990
P 1850 7050
AR Path="/61858990" Ref="C?"  Part="1" 
AR Path="/610CCB80/61858990" Ref="C?"  Part="1" 
AR Path="/614407CE/61858990" Ref="C?"  Part="1" 
AR Path="/61465E4A/61858990" Ref="C?"  Part="1" 
AR Path="/61481D40/61858990" Ref="C?"  Part="1" 
AR Path="/63686327/61858990" Ref="C?"  Part="1" 
AR Path="/61946A72/61858990" Ref="C316"  Part="1" 
AR Path="/61C55900/61858990" Ref="C416"  Part="1" 
AR Path="/61C571A7/61858990" Ref="C516"  Part="1" 
AR Path="/61C571FF/61858990" Ref="C616"  Part="1" 
AR Path="/61C58729/61858990" Ref="C716"  Part="1" 
AR Path="/61C58781/61858990" Ref="C816"  Part="1" 
F 0 "C316" H 1800 6950 50  0000 C CNN
F 1 "0.1u" H 1800 7150 50  0000 C CNN
F 2 "Capacitor_SMD:C_0402_1005Metric" H 1888 6900 50  0001 C CNN
F 3 "" H 1850 7050 50  0001 C CNN
F 4 "Murata" V 1850 7050 50  0001 C CNN "Manufacturer"
F 5 "GRM155R71H104KE14D" V 1850 7050 50  0001 C CNN "Part Number"
	1    1850 7050
	-1   0    0    1   
$EndComp
$Comp
L Device:C C?
U 1 1 61858B4E
P 1600 7050
AR Path="/61858B4E" Ref="C?"  Part="1" 
AR Path="/610CCB80/61858B4E" Ref="C?"  Part="1" 
AR Path="/614407CE/61858B4E" Ref="C?"  Part="1" 
AR Path="/61465E4A/61858B4E" Ref="C?"  Part="1" 
AR Path="/61481D40/61858B4E" Ref="C?"  Part="1" 
AR Path="/63686327/61858B4E" Ref="C?"  Part="1" 
AR Path="/61946A72/61858B4E" Ref="C315"  Part="1" 
AR Path="/61C55900/61858B4E" Ref="C415"  Part="1" 
AR Path="/61C571A7/61858B4E" Ref="C515"  Part="1" 
AR Path="/61C571FF/61858B4E" Ref="C615"  Part="1" 
AR Path="/61C58729/61858B4E" Ref="C715"  Part="1" 
AR Path="/61C58781/61858B4E" Ref="C815"  Part="1" 
F 0 "C315" H 1550 6950 50  0000 C CNN
F 1 "10u" H 1550 7150 50  0000 C CNN
F 2 "Capacitor_SMD:C_0805_2012Metric" H 1638 6900 50  0001 C CNN
F 3 "" H 1600 7050 50  0001 C CNN
F 4 "Murata" V 1600 7050 50  0001 C CNN "Manufacturer"
F 5 "GRM21BR61E106KA73L" V 1600 7050 50  0001 C CNN "Part Number"
	1    1600 7050
	-1   0    0    1   
$EndComp
$Comp
L Device:C C?
U 1 1 61858B5A
P 3000 7150
AR Path="/61858B5A" Ref="C?"  Part="1" 
AR Path="/610CCB80/61858B5A" Ref="C?"  Part="1" 
AR Path="/614407CE/61858B5A" Ref="C?"  Part="1" 
AR Path="/61465E4A/61858B5A" Ref="C?"  Part="1" 
AR Path="/61481D40/61858B5A" Ref="C?"  Part="1" 
AR Path="/63686327/61858B5A" Ref="C?"  Part="1" 
AR Path="/61946A72/61858B5A" Ref="C317"  Part="1" 
AR Path="/61C55900/61858B5A" Ref="C417"  Part="1" 
AR Path="/61C571A7/61858B5A" Ref="C517"  Part="1" 
AR Path="/61C571FF/61858B5A" Ref="C617"  Part="1" 
AR Path="/61C58729/61858B5A" Ref="C717"  Part="1" 
AR Path="/61C58781/61858B5A" Ref="C817"  Part="1" 
F 0 "C317" H 2950 7050 50  0000 C CNN
F 1 "0.1u" H 2950 7250 50  0000 C CNN
F 2 "Capacitor_SMD:C_0402_1005Metric" H 3038 7000 50  0001 C CNN
F 3 "" H 3000 7150 50  0001 C CNN
F 4 "Murata" V 3000 7150 50  0001 C CNN "Manufacturer"
F 5 "GRM155R71H104KE14D" V 3000 7150 50  0001 C CNN "Part Number"
	1    3000 7150
	-1   0    0    1   
$EndComp
$Comp
L 000_symbol:VoltageReference_ADR430B U304
U 1 1 61858B68
P 2450 6900
AR Path="/61946A72/61858B68" Ref="U304"  Part="1" 
AR Path="/61C55900/61858B68" Ref="U404"  Part="1" 
AR Path="/61C571A7/61858B68" Ref="U504"  Part="1" 
AR Path="/61C571FF/61858B68" Ref="U604"  Part="1" 
AR Path="/61C58729/61858B68" Ref="U704"  Part="1" 
AR Path="/61C58781/61858B68" Ref="U804"  Part="1" 
F 0 "U304" H 2450 7315 50  0000 C CNN
F 1 "VoltageReference_ADR430B" H 2450 7224 50  0000 C CNN
F 2 "Package_SO:SOIC-8_3.9x4.9mm_P1.27mm" H 2500 6850 50  0001 C CNN
F 3 "" H 2500 6850 50  0001 C CNN
F 4 "Analog Devices" H 2450 6950 50  0001 C CNN "Manufacturer"
F 5 "ADR430BRZ" H 2450 6950 50  0001 C CNN "Part Number"
F 6 "ADR431BRZ" H 2450 6950 50  0001 C CNN "Backup"
	1    2450 6900
	1    0    0    -1  
$EndComp
Wire Wire Line
	2800 6950 3000 6950
Wire Wire Line
	2100 6850 1850 6850
Wire Wire Line
	1850 6900 1850 6850
Wire Wire Line
	1600 6900 1600 6850
Wire Wire Line
	1600 6850 1850 6850
Connection ~ 1850 6850
Wire Wire Line
	3000 7300 3000 7350
Wire Wire Line
	3000 6950 3000 7000
Wire Wire Line
	2100 7050 2100 7350
Wire Wire Line
	1850 7200 1850 7350
Wire Wire Line
	1850 7350 2100 7350
Connection ~ 2100 7350
Wire Wire Line
	2100 7350 3000 7350
Wire Wire Line
	1600 7200 1600 7350
Wire Wire Line
	1600 7350 1850 7350
Connection ~ 1850 7350
Connection ~ 1850 6100
Wire Wire Line
	1600 5950 1600 6100
Wire Wire Line
	1600 6100 1850 6100
Wire Wire Line
	1850 5950 1850 6100
$Comp
L Device:C C?
U 1 1 6199F5A7
P 1600 5800
AR Path="/6199F5A7" Ref="C?"  Part="1" 
AR Path="/610CCB80/6199F5A7" Ref="C?"  Part="1" 
AR Path="/614407CE/6199F5A7" Ref="C?"  Part="1" 
AR Path="/61465E4A/6199F5A7" Ref="C?"  Part="1" 
AR Path="/61481D40/6199F5A7" Ref="C?"  Part="1" 
AR Path="/63686327/6199F5A7" Ref="C?"  Part="1" 
AR Path="/61946A72/6199F5A7" Ref="C312"  Part="1" 
AR Path="/61C55900/6199F5A7" Ref="C412"  Part="1" 
AR Path="/61C571A7/6199F5A7" Ref="C512"  Part="1" 
AR Path="/61C571FF/6199F5A7" Ref="C612"  Part="1" 
AR Path="/61C58729/6199F5A7" Ref="C712"  Part="1" 
AR Path="/61C58781/6199F5A7" Ref="C812"  Part="1" 
F 0 "C312" H 1550 5700 50  0000 C CNN
F 1 "10u" H 1550 5900 50  0000 C CNN
F 2 "Capacitor_SMD:C_0805_2012Metric" H 1638 5650 50  0001 C CNN
F 3 "" H 1600 5800 50  0001 C CNN
F 4 "Murata" V 1600 5800 50  0001 C CNN "Manufacturer"
F 5 "GRM21BR61E106KA73L" V 1600 5800 50  0001 C CNN "Part Number"
	1    1600 5800
	-1   0    0    1   
$EndComp
$Comp
L Device:C C?
U 1 1 6199EF07
P 1850 5800
AR Path="/6199EF07" Ref="C?"  Part="1" 
AR Path="/610CCB80/6199EF07" Ref="C?"  Part="1" 
AR Path="/614407CE/6199EF07" Ref="C?"  Part="1" 
AR Path="/61465E4A/6199EF07" Ref="C?"  Part="1" 
AR Path="/61481D40/6199EF07" Ref="C?"  Part="1" 
AR Path="/63686327/6199EF07" Ref="C?"  Part="1" 
AR Path="/61946A72/6199EF07" Ref="C313"  Part="1" 
AR Path="/61C55900/6199EF07" Ref="C413"  Part="1" 
AR Path="/61C571A7/6199EF07" Ref="C513"  Part="1" 
AR Path="/61C571FF/6199EF07" Ref="C613"  Part="1" 
AR Path="/61C58729/6199EF07" Ref="C713"  Part="1" 
AR Path="/61C58781/6199EF07" Ref="C813"  Part="1" 
F 0 "C313" H 1800 5700 50  0000 C CNN
F 1 "0.1u" H 1800 5900 50  0000 C CNN
F 2 "Capacitor_SMD:C_0402_1005Metric" H 1888 5650 50  0001 C CNN
F 3 "" H 1850 5800 50  0001 C CNN
F 4 "Murata" V 1850 5800 50  0001 C CNN "Manufacturer"
F 5 "GRM155R71H104KE14D" V 1850 5800 50  0001 C CNN "Part Number"
	1    1850 5800
	-1   0    0    1   
$EndComp
Wire Wire Line
	1600 5600 1850 5600
Wire Wire Line
	2800 5700 3000 5700
Wire Wire Line
	1850 6100 2100 6100
Wire Wire Line
	1850 5650 1850 5600
Connection ~ 1850 5600
Wire Wire Line
	1850 5600 2100 5600
Wire Wire Line
	1600 5650 1600 5600
Wire Wire Line
	2100 5800 2100 6100
Connection ~ 2100 6100
Wire Wire Line
	2100 6100 3000 6100
Wire Wire Line
	3000 5750 3000 5700
Text Label 3000 5700 0    50   ~ 0
REF1
Text Label 3000 6950 0    50   ~ 0
REF2
Text Label 6550 2000 2    50   ~ 0
REF1
Text Label 6550 3900 2    50   ~ 0
REF2
$Comp
L Connector:TestPoint TP304
U 1 1 61898D92
P 6650 2000
AR Path="/61946A72/61898D92" Ref="TP304"  Part="1" 
AR Path="/61C55900/61898D92" Ref="TP404"  Part="1" 
AR Path="/61C571A7/61898D92" Ref="TP504"  Part="1" 
AR Path="/61C571FF/61898D92" Ref="TP604"  Part="1" 
AR Path="/61C58729/61898D92" Ref="TP704"  Part="1" 
AR Path="/61C58781/61898D92" Ref="TP804"  Part="1" 
F 0 "TP304" H 6700 2150 50  0000 L CNN
F 1 "TestPoint" H 6650 2050 50  0000 L CNN
F 2 "TestPoint:TestPoint_Pad_D1.0mm" H 6850 2000 50  0001 C CNN
F 3 "" H 6850 2000 50  0001 C CNN
	1    6650 2000
	1    0    0    -1  
$EndComp
$Comp
L Connector:TestPoint TP307
U 1 1 618992F9
P 6650 3900
AR Path="/61946A72/618992F9" Ref="TP307"  Part="1" 
AR Path="/61C55900/618992F9" Ref="TP407"  Part="1" 
AR Path="/61C571A7/618992F9" Ref="TP507"  Part="1" 
AR Path="/61C571FF/618992F9" Ref="TP607"  Part="1" 
AR Path="/61C58729/618992F9" Ref="TP707"  Part="1" 
AR Path="/61C58781/618992F9" Ref="TP807"  Part="1" 
F 0 "TP307" H 6600 4100 50  0000 L CNN
F 1 "TestPoint" H 6650 4000 50  0000 L CNN
F 2 "TestPoint:TestPoint_Pad_D1.0mm" H 6850 3900 50  0001 C CNN
F 3 "" H 6850 3900 50  0001 C CNN
	1    6650 3900
	1    0    0    -1  
$EndComp
$Comp
L power:GND #PWR?
U 1 1 618A8D83
P 7100 5300
AR Path="/618A8D83" Ref="#PWR?"  Part="1" 
AR Path="/610CCB80/618A8D83" Ref="#PWR?"  Part="1" 
AR Path="/614407CE/618A8D83" Ref="#PWR?"  Part="1" 
AR Path="/61465E4A/618A8D83" Ref="#PWR?"  Part="1" 
AR Path="/61481D40/618A8D83" Ref="#PWR?"  Part="1" 
AR Path="/63686327/618A8D83" Ref="#PWR?"  Part="1" 
AR Path="/61946A72/618A8D83" Ref="#PWR0307"  Part="1" 
AR Path="/61C55900/618A8D83" Ref="#PWR0407"  Part="1" 
AR Path="/61C571A7/618A8D83" Ref="#PWR0507"  Part="1" 
AR Path="/61C571FF/618A8D83" Ref="#PWR0607"  Part="1" 
AR Path="/61C58729/618A8D83" Ref="#PWR0707"  Part="1" 
AR Path="/61C58781/618A8D83" Ref="#PWR0807"  Part="1" 
F 0 "#PWR0307" H 7100 5050 50  0001 C CNN
F 1 "GND" H 7100 5150 50  0000 C CNN
F 2 "" H 7100 5300 50  0001 C CNN
F 3 "" H 7100 5300 50  0001 C CNN
	1    7100 5300
	1    0    0    -1  
$EndComp
Wire Wire Line
	2300 4150 2300 4350
Wire Wire Line
	6300 2300 6350 2300
Wire Wire Line
	6300 3600 6350 3600
$Comp
L Connector:TestPoint TP303
U 1 1 619C22E1
P 6350 1900
AR Path="/61946A72/619C22E1" Ref="TP303"  Part="1" 
AR Path="/61C55900/619C22E1" Ref="TP403"  Part="1" 
AR Path="/61C571A7/619C22E1" Ref="TP503"  Part="1" 
AR Path="/61C571FF/619C22E1" Ref="TP603"  Part="1" 
AR Path="/61C58729/619C22E1" Ref="TP703"  Part="1" 
AR Path="/61C58781/619C22E1" Ref="TP803"  Part="1" 
F 0 "TP303" H 6350 1950 50  0000 L CNN
F 1 "TestPoint" H 6200 2100 50  0000 L CNN
F 2 "TestPoint:TestPoint_Pad_D1.0mm" H 6550 1900 50  0001 C CNN
F 3 "" H 6550 1900 50  0001 C CNN
	1    6350 1900
	1    0    0    -1  
$EndComp
$Comp
L Connector:TestPoint TP308
U 1 1 619C5161
P 6450 4100
AR Path="/61946A72/619C5161" Ref="TP308"  Part="1" 
AR Path="/61C55900/619C5161" Ref="TP408"  Part="1" 
AR Path="/61C571A7/619C5161" Ref="TP508"  Part="1" 
AR Path="/61C571FF/619C5161" Ref="TP608"  Part="1" 
AR Path="/61C58729/619C5161" Ref="TP708"  Part="1" 
AR Path="/61C58781/619C5161" Ref="TP808"  Part="1" 
F 0 "TP308" H 6500 4200 50  0000 L CNN
F 1 "TestPoint" H 6500 4100 50  0000 L CNN
F 2 "TestPoint:TestPoint_Pad_D1.0mm" H 6650 4100 50  0001 C CNN
F 3 "" H 6650 4100 50  0001 C CNN
	1    6450 4100
	1    0    0    -1  
$EndComp
Wire Wire Line
	6450 4100 6300 4100
Wire Wire Line
	6300 4100 6300 4000
Wire Wire Line
	6300 1900 6350 1900
Wire Wire Line
	6300 3700 6350 3700
Wire Wire Line
	6350 3700 6350 3600
Wire Wire Line
	5200 3800 5150 3800
Wire Wire Line
	5150 3800 5150 3700
Wire Wire Line
	5150 3700 5200 3700
Wire Wire Line
	6300 2200 6350 2200
Wire Wire Line
	6350 2200 6350 2300
Wire Wire Line
	5200 2100 5150 2100
Wire Wire Line
	5150 2100 5150 2200
Wire Wire Line
	5150 2200 5200 2200
Wire Wire Line
	5200 2000 5150 2000
Wire Wire Line
	5150 2000 5150 2100
Connection ~ 5150 2100
Wire Wire Line
	5150 3900 5150 3800
Wire Wire Line
	5150 3900 5200 3900
Connection ~ 5150 3800
$Comp
L Device:C C?
U 1 1 61A05F9E
P 4550 5350
AR Path="/61A05F9E" Ref="C?"  Part="1" 
AR Path="/610CCB80/61A05F9E" Ref="C?"  Part="1" 
AR Path="/614407CE/61A05F9E" Ref="C?"  Part="1" 
AR Path="/61465E4A/61A05F9E" Ref="C?"  Part="1" 
AR Path="/61481D40/61A05F9E" Ref="C?"  Part="1" 
AR Path="/63686327/61A05F9E" Ref="C?"  Part="1" 
AR Path="/61946A72/61A05F9E" Ref="C308"  Part="1" 
AR Path="/61C55900/61A05F9E" Ref="C408"  Part="1" 
AR Path="/61C571A7/61A05F9E" Ref="C508"  Part="1" 
AR Path="/61C571FF/61A05F9E" Ref="C608"  Part="1" 
AR Path="/61C58729/61A05F9E" Ref="C708"  Part="1" 
AR Path="/61C58781/61A05F9E" Ref="C808"  Part="1" 
F 0 "C308" H 4450 5250 50  0000 C CNN
F 1 "0.1u" H 4450 5450 50  0000 C CNN
F 2 "Capacitor_SMD:C_0603_1608Metric" H 4588 5200 50  0001 C CNN
F 3 "" H 4550 5350 50  0001 C CNN
F 4 "Taiyo Yuden" V 4550 5350 50  0001 C CNN "Manufacturer"
F 5 "TMK107BJ104KA-T" V 4550 5350 50  0001 C CNN "Part Number"
	1    4550 5350
	-1   0    0    1   
$EndComp
Text Label 6550 2100 2    50   ~ 0
Vin5V0P
Text Label 6550 3800 2    50   ~ 0
Vin5V0P
Text Label 4450 5150 2    50   ~ 0
Vin5V0P
$Comp
L power:GND #PWR?
U 1 1 61A21544
P 4550 5600
AR Path="/61A21544" Ref="#PWR?"  Part="1" 
AR Path="/610CCB80/61A21544" Ref="#PWR?"  Part="1" 
AR Path="/614407CE/61A21544" Ref="#PWR?"  Part="1" 
AR Path="/61465E4A/61A21544" Ref="#PWR?"  Part="1" 
AR Path="/61481D40/61A21544" Ref="#PWR?"  Part="1" 
AR Path="/63686327/61A21544" Ref="#PWR?"  Part="1" 
AR Path="/61946A72/61A21544" Ref="#PWR0309"  Part="1" 
AR Path="/61C55900/61A21544" Ref="#PWR0409"  Part="1" 
AR Path="/61C571A7/61A21544" Ref="#PWR0509"  Part="1" 
AR Path="/61C571FF/61A21544" Ref="#PWR0609"  Part="1" 
AR Path="/61C58729/61A21544" Ref="#PWR0709"  Part="1" 
AR Path="/61C58781/61A21544" Ref="#PWR0809"  Part="1" 
F 0 "#PWR0309" H 4550 5350 50  0001 C CNN
F 1 "GND" H 4650 5500 50  0000 C CNN
F 2 "" H 4550 5600 50  0001 C CNN
F 3 "" H 4550 5600 50  0001 C CNN
	1    4550 5600
	1    0    0    -1  
$EndComp
$Comp
L Device:C C?
U 1 1 61A28B0F
P 4750 5350
AR Path="/61A28B0F" Ref="C?"  Part="1" 
AR Path="/610CCB80/61A28B0F" Ref="C?"  Part="1" 
AR Path="/614407CE/61A28B0F" Ref="C?"  Part="1" 
AR Path="/61465E4A/61A28B0F" Ref="C?"  Part="1" 
AR Path="/61481D40/61A28B0F" Ref="C?"  Part="1" 
AR Path="/63686327/61A28B0F" Ref="C?"  Part="1" 
AR Path="/61946A72/61A28B0F" Ref="C309"  Part="1" 
AR Path="/61C55900/61A28B0F" Ref="C409"  Part="1" 
AR Path="/61C571A7/61A28B0F" Ref="C509"  Part="1" 
AR Path="/61C571FF/61A28B0F" Ref="C609"  Part="1" 
AR Path="/61C58729/61A28B0F" Ref="C709"  Part="1" 
AR Path="/61C58781/61A28B0F" Ref="C809"  Part="1" 
F 0 "C309" H 4650 5250 50  0000 C CNN
F 1 "0.1u" H 4650 5450 50  0000 C CNN
F 2 "Capacitor_SMD:C_0603_1608Metric" H 4788 5200 50  0001 C CNN
F 3 "" H 4750 5350 50  0001 C CNN
F 4 "Taiyo Yuden" V 4750 5350 50  0001 C CNN "Manufacturer"
F 5 "TMK107BJ104KA-T" V 4750 5350 50  0001 C CNN "Part Number"
	1    4750 5350
	-1   0    0    1   
$EndComp
Wire Wire Line
	4550 5500 4550 5550
Wire Wire Line
	4750 5500 4750 5550
Wire Wire Line
	4750 5550 4550 5550
Connection ~ 4550 5550
Wire Wire Line
	4550 5550 4550 5600
Wire Wire Line
	4450 5150 4550 5150
Wire Wire Line
	4750 5150 4750 5200
Wire Wire Line
	4550 5200 4550 5150
Connection ~ 4550 5150
Wire Wire Line
	4550 5150 4750 5150
$Comp
L Device:C C?
U 1 1 61A5352A
P 5350 5350
AR Path="/61A5352A" Ref="C?"  Part="1" 
AR Path="/610CCB80/61A5352A" Ref="C?"  Part="1" 
AR Path="/614407CE/61A5352A" Ref="C?"  Part="1" 
AR Path="/61465E4A/61A5352A" Ref="C?"  Part="1" 
AR Path="/61481D40/61A5352A" Ref="C?"  Part="1" 
AR Path="/63686327/61A5352A" Ref="C?"  Part="1" 
AR Path="/61946A72/61A5352A" Ref="C310"  Part="1" 
AR Path="/61C55900/61A5352A" Ref="C410"  Part="1" 
AR Path="/61C571A7/61A5352A" Ref="C510"  Part="1" 
AR Path="/61C571FF/61A5352A" Ref="C610"  Part="1" 
AR Path="/61C58729/61A5352A" Ref="C710"  Part="1" 
AR Path="/61C58781/61A5352A" Ref="C810"  Part="1" 
F 0 "C310" H 5250 5250 50  0000 C CNN
F 1 "0.1u" H 5250 5450 50  0000 C CNN
F 2 "Capacitor_SMD:C_0603_1608Metric" H 5388 5200 50  0001 C CNN
F 3 "" H 5350 5350 50  0001 C CNN
F 4 "Taiyo Yuden" V 5350 5350 50  0001 C CNN "Manufacturer"
F 5 "TMK107BJ104KA-T" V 5350 5350 50  0001 C CNN "Part Number"
	1    5350 5350
	-1   0    0    1   
$EndComp
Text Label 5250 5150 2    50   ~ 0
Vin5V0N
$Comp
L power:GND #PWR?
U 1 1 61A53765
P 5350 5600
AR Path="/61A53765" Ref="#PWR?"  Part="1" 
AR Path="/610CCB80/61A53765" Ref="#PWR?"  Part="1" 
AR Path="/614407CE/61A53765" Ref="#PWR?"  Part="1" 
AR Path="/61465E4A/61A53765" Ref="#PWR?"  Part="1" 
AR Path="/61481D40/61A53765" Ref="#PWR?"  Part="1" 
AR Path="/63686327/61A53765" Ref="#PWR?"  Part="1" 
AR Path="/61946A72/61A53765" Ref="#PWR0310"  Part="1" 
AR Path="/61C55900/61A53765" Ref="#PWR0410"  Part="1" 
AR Path="/61C571A7/61A53765" Ref="#PWR0510"  Part="1" 
AR Path="/61C571FF/61A53765" Ref="#PWR0610"  Part="1" 
AR Path="/61C58729/61A53765" Ref="#PWR0710"  Part="1" 
AR Path="/61C58781/61A53765" Ref="#PWR0810"  Part="1" 
F 0 "#PWR0310" H 5350 5350 50  0001 C CNN
F 1 "GND" H 5450 5500 50  0000 C CNN
F 2 "" H 5350 5600 50  0001 C CNN
F 3 "" H 5350 5600 50  0001 C CNN
	1    5350 5600
	1    0    0    -1  
$EndComp
$Comp
L Device:C C?
U 1 1 61A53771
P 5550 5350
AR Path="/61A53771" Ref="C?"  Part="1" 
AR Path="/610CCB80/61A53771" Ref="C?"  Part="1" 
AR Path="/614407CE/61A53771" Ref="C?"  Part="1" 
AR Path="/61465E4A/61A53771" Ref="C?"  Part="1" 
AR Path="/61481D40/61A53771" Ref="C?"  Part="1" 
AR Path="/63686327/61A53771" Ref="C?"  Part="1" 
AR Path="/61946A72/61A53771" Ref="C311"  Part="1" 
AR Path="/61C55900/61A53771" Ref="C411"  Part="1" 
AR Path="/61C571A7/61A53771" Ref="C511"  Part="1" 
AR Path="/61C571FF/61A53771" Ref="C611"  Part="1" 
AR Path="/61C58729/61A53771" Ref="C711"  Part="1" 
AR Path="/61C58781/61A53771" Ref="C811"  Part="1" 
F 0 "C311" H 5450 5250 50  0000 C CNN
F 1 "0.1u" H 5450 5450 50  0000 C CNN
F 2 "Capacitor_SMD:C_0603_1608Metric" H 5588 5200 50  0001 C CNN
F 3 "" H 5550 5350 50  0001 C CNN
F 4 "Taiyo Yuden" V 5550 5350 50  0001 C CNN "Manufacturer"
F 5 "TMK107BJ104KA-T" V 5550 5350 50  0001 C CNN "Part Number"
	1    5550 5350
	-1   0    0    1   
$EndComp
Wire Wire Line
	5350 5500 5350 5550
Wire Wire Line
	5550 5500 5550 5550
Wire Wire Line
	5550 5550 5350 5550
Connection ~ 5350 5550
Wire Wire Line
	5350 5550 5350 5600
Wire Wire Line
	5250 5150 5350 5150
Wire Wire Line
	5550 5150 5550 5200
Wire Wire Line
	5350 5200 5350 5150
Connection ~ 5350 5150
Wire Wire Line
	5350 5150 5550 5150
Text Label 6550 2700 2    50   ~ 0
Vin5V0N
Text Label 6550 3200 2    50   ~ 0
Vin5V0N
Text Label 4950 4000 0    50   ~ 0
Vin5V0N
Text Label 4950 3300 0    50   ~ 0
Vin5V0N
Text Label 4950 2600 0    50   ~ 0
Vin5V0N
Text Label 4950 1900 0    50   ~ 0
Vin5V0N
$Comp
L Device:C C?
U 1 1 61AF57F6
P 4800 2300
AR Path="/61AF57F6" Ref="C?"  Part="1" 
AR Path="/610CCB80/61AF57F6" Ref="C?"  Part="1" 
AR Path="/614407CE/61AF57F6" Ref="C?"  Part="1" 
AR Path="/61465E4A/61AF57F6" Ref="C?"  Part="1" 
AR Path="/61481D40/61AF57F6" Ref="C?"  Part="1" 
AR Path="/63686327/61AF57F6" Ref="C?"  Part="1" 
AR Path="/61946A72/61AF57F6" Ref="C301"  Part="1" 
AR Path="/61C55900/61AF57F6" Ref="C401"  Part="1" 
AR Path="/61C571A7/61AF57F6" Ref="C501"  Part="1" 
AR Path="/61C571FF/61AF57F6" Ref="C601"  Part="1" 
AR Path="/61C58729/61AF57F6" Ref="C701"  Part="1" 
AR Path="/61C58781/61AF57F6" Ref="C801"  Part="1" 
F 0 "C301" V 4750 2200 50  0000 C CNN
F 1 "27p" V 4750 2450 50  0000 C CNN
F 2 "Capacitor_SMD:C_0603_1608Metric" H 4838 2150 50  0001 C CNN
F 3 "" H 4800 2300 50  0001 C CNN
F 4 "AVX" V 4800 2300 50  0001 C CNN "Manufacturer"
F 5 "06033A270JAT2A" V 4800 2300 50  0001 C CNN "Part Number"
	1    4800 2300
	0    -1   -1   0   
$EndComp
Wire Wire Line
	5200 2300 4950 2300
Wire Wire Line
	4650 2300 4550 2300
Wire Wire Line
	4550 2300 4550 2400
Wire Wire Line
	4550 2400 5150 2400
Wire Wire Line
	5200 2500 5150 2500
Wire Wire Line
	5150 2500 5150 2400
Connection ~ 5150 2400
Wire Wire Line
	5150 2400 5200 2400
Text Label 4550 2400 2    50   ~ 0
OUTA
$Comp
L Device:C C?
U 1 1 61B28255
P 4800 3600
AR Path="/61B28255" Ref="C?"  Part="1" 
AR Path="/610CCB80/61B28255" Ref="C?"  Part="1" 
AR Path="/614407CE/61B28255" Ref="C?"  Part="1" 
AR Path="/61465E4A/61B28255" Ref="C?"  Part="1" 
AR Path="/61481D40/61B28255" Ref="C?"  Part="1" 
AR Path="/63686327/61B28255" Ref="C?"  Part="1" 
AR Path="/61946A72/61B28255" Ref="C305"  Part="1" 
AR Path="/61C55900/61B28255" Ref="C405"  Part="1" 
AR Path="/61C571A7/61B28255" Ref="C505"  Part="1" 
AR Path="/61C571FF/61B28255" Ref="C605"  Part="1" 
AR Path="/61C58729/61B28255" Ref="C705"  Part="1" 
AR Path="/61C58781/61B28255" Ref="C805"  Part="1" 
F 0 "C305" V 4750 3500 50  0000 C CNN
F 1 "27p" V 4750 3750 50  0000 C CNN
F 2 "Capacitor_SMD:C_0603_1608Metric" H 4838 3450 50  0001 C CNN
F 3 "" H 4800 3600 50  0001 C CNN
F 4 "AVX" V 4800 3600 50  0001 C CNN "Manufacturer"
F 5 "06033A270JAT2A" V 4800 3600 50  0001 C CNN "Part Number"
	1    4800 3600
	0    -1   -1   0   
$EndComp
Wire Wire Line
	5200 3600 4950 3600
Wire Wire Line
	4650 3600 4550 3600
Wire Wire Line
	4550 3600 4550 3500
Wire Wire Line
	4550 3500 5150 3500
Wire Wire Line
	5200 3400 5150 3400
Wire Wire Line
	5150 3400 5150 3500
Connection ~ 5150 3500
Wire Wire Line
	5150 3500 5200 3500
Text Label 4550 3600 2    50   ~ 0
OUTD
$Comp
L Device:C C?
U 1 1 61B678D4
P 6700 2400
AR Path="/61B678D4" Ref="C?"  Part="1" 
AR Path="/610CCB80/61B678D4" Ref="C?"  Part="1" 
AR Path="/614407CE/61B678D4" Ref="C?"  Part="1" 
AR Path="/61465E4A/61B678D4" Ref="C?"  Part="1" 
AR Path="/61481D40/61B678D4" Ref="C?"  Part="1" 
AR Path="/63686327/61B678D4" Ref="C?"  Part="1" 
AR Path="/61946A72/61B678D4" Ref="C302"  Part="1" 
AR Path="/61C55900/61B678D4" Ref="C402"  Part="1" 
AR Path="/61C571A7/61B678D4" Ref="C502"  Part="1" 
AR Path="/61C571FF/61B678D4" Ref="C602"  Part="1" 
AR Path="/61C58729/61B678D4" Ref="C702"  Part="1" 
AR Path="/61C58781/61B678D4" Ref="C802"  Part="1" 
F 0 "C302" V 6650 2300 50  0000 C CNN
F 1 "27p" V 6650 2550 50  0000 C CNN
F 2 "Capacitor_SMD:C_0603_1608Metric" H 6738 2250 50  0001 C CNN
F 3 "" H 6700 2400 50  0001 C CNN
F 4 "AVX" V 6700 2400 50  0001 C CNN "Manufacturer"
F 5 "06033A270JAT2A" V 6700 2400 50  0001 C CNN "Part Number"
	1    6700 2400
	0    -1   -1   0   
$EndComp
Wire Wire Line
	6300 2400 6550 2400
Wire Wire Line
	6950 2400 6950 2500
Wire Wire Line
	6950 2500 6350 2500
Wire Wire Line
	6850 2400 6950 2400
Wire Wire Line
	6300 2600 6350 2600
Wire Wire Line
	6350 2600 6350 2500
Connection ~ 6350 2500
Wire Wire Line
	6350 2500 6300 2500
Text Label 6950 2500 0    50   ~ 0
OUTB
$Comp
L Device:C C?
U 1 1 61B9BA5C
P 6700 3500
AR Path="/61B9BA5C" Ref="C?"  Part="1" 
AR Path="/610CCB80/61B9BA5C" Ref="C?"  Part="1" 
AR Path="/614407CE/61B9BA5C" Ref="C?"  Part="1" 
AR Path="/61465E4A/61B9BA5C" Ref="C?"  Part="1" 
AR Path="/61481D40/61B9BA5C" Ref="C?"  Part="1" 
AR Path="/63686327/61B9BA5C" Ref="C?"  Part="1" 
AR Path="/61946A72/61B9BA5C" Ref="C304"  Part="1" 
AR Path="/61C55900/61B9BA5C" Ref="C404"  Part="1" 
AR Path="/61C571A7/61B9BA5C" Ref="C504"  Part="1" 
AR Path="/61C571FF/61B9BA5C" Ref="C604"  Part="1" 
AR Path="/61C58729/61B9BA5C" Ref="C704"  Part="1" 
AR Path="/61C58781/61B9BA5C" Ref="C804"  Part="1" 
F 0 "C304" V 6750 3400 50  0000 C CNN
F 1 "27p" V 6750 3600 50  0000 C CNN
F 2 "Capacitor_SMD:C_0603_1608Metric" H 6738 3350 50  0001 C CNN
F 3 "" H 6700 3500 50  0001 C CNN
F 4 "AVX" V 6700 3500 50  0001 C CNN "Manufacturer"
F 5 "06033A270JAT2A" V 6700 3500 50  0001 C CNN "Part Number"
	1    6700 3500
	0    -1   -1   0   
$EndComp
$Comp
L Device:C C?
U 1 1 61828B5E
P 7000 2900
AR Path="/61828B5E" Ref="C?"  Part="1" 
AR Path="/610CCB80/61828B5E" Ref="C?"  Part="1" 
AR Path="/614407CE/61828B5E" Ref="C?"  Part="1" 
AR Path="/61465E4A/61828B5E" Ref="C?"  Part="1" 
AR Path="/61481D40/61828B5E" Ref="C?"  Part="1" 
AR Path="/63686327/61828B5E" Ref="C?"  Part="1" 
AR Path="/61946A72/61828B5E" Ref="C303"  Part="1" 
AR Path="/61C55900/61828B5E" Ref="C403"  Part="1" 
AR Path="/61C571A7/61828B5E" Ref="C503"  Part="1" 
AR Path="/61C571FF/61828B5E" Ref="C603"  Part="1" 
AR Path="/61C58729/61828B5E" Ref="C703"  Part="1" 
AR Path="/61C58781/61828B5E" Ref="C803"  Part="1" 
F 0 "C303" V 6950 2800 50  0000 C CNN
F 1 "0.1u" V 6950 3050 50  0000 C CNN
F 2 "Capacitor_SMD:C_0603_1608Metric" H 7038 2750 50  0001 C CNN
F 3 "" H 7000 2900 50  0001 C CNN
F 4 "AVX" V 7000 2900 50  0001 C CNN "Manufacturer"
F 5 "0603YC104MAT2A" V 7000 2900 50  0001 C CNN "Part Number"
	1    7000 2900
	0    -1   -1   0   
$EndComp
Connection ~ 6750 2900
Wire Wire Line
	6750 2900 6850 2900
Wire Wire Line
	7150 2900 7200 2900
Wire Wire Line
	7200 2900 7200 3000
Wire Wire Line
	7200 3000 6700 3000
Connection ~ 6700 3000
Wire Wire Line
	7200 3000 7200 3050
Connection ~ 7200 3000
Wire Wire Line
	6300 3500 6550 3500
Wire Wire Line
	6850 3500 6950 3500
Wire Wire Line
	6950 3500 6950 3400
Wire Wire Line
	6950 3400 6350 3400
Wire Wire Line
	6300 3300 6350 3300
Wire Wire Line
	6350 3300 6350 3400
Connection ~ 6350 3400
Wire Wire Line
	6350 3400 6300 3400
Text Label 6950 3500 0    50   ~ 0
OUTC
Wire Wire Line
	2500 4150 2500 4350
Wire Wire Line
	4950 2600 5200 2600
Wire Wire Line
	4950 1900 5200 1900
Wire Wire Line
	4950 3300 5200 3300
Wire Wire Line
	4950 4000 5200 4000
Wire Wire Line
	6300 2700 6550 2700
Wire Wire Line
	6300 2100 6550 2100
Wire Wire Line
	6300 3200 6550 3200
Wire Wire Line
	6300 3800 6550 3800
Wire Wire Line
	6300 3900 6650 3900
Wire Wire Line
	6300 2000 6650 2000
Wire Wire Line
	7100 5250 7100 5300
Text Label 6600 5250 2    50   ~ 0
GND1
Text Label 2100 6200 2    50   ~ 0
GND1
Wire Wire Line
	2100 6100 2100 6200
Text Label 4950 2000 0    50   ~ 0
GND1
Wire Wire Line
	4950 2000 5150 2000
Connection ~ 5150 2000
Text Label 6550 2200 2    50   ~ 0
GND1
Wire Wire Line
	6550 2200 6350 2200
Connection ~ 6350 2200
Text Label 10150 2500 0    50   ~ 0
GND1
Wire Wire Line
	10050 2500 10150 2500
Wire Wire Line
	2100 7350 2100 7450
Text Label 2100 7450 2    50   ~ 0
GND2
Text Label 4950 3900 0    50   ~ 0
GND2
Text Label 6550 3600 2    50   ~ 0
GND2
Wire Wire Line
	4950 3900 5150 3900
Connection ~ 5150 3900
Wire Wire Line
	6550 3600 6350 3600
Connection ~ 6350 3600
Text Label 10150 3000 0    50   ~ 0
GND2
Wire Wire Line
	10150 3000 10050 3000
$Comp
L Device:Net-Tie_2 NT701
U 1 1 62029753
P 6850 5250
AR Path="/61C58729/62029753" Ref="NT701"  Part="1" 
AR Path="/61946A72/62029753" Ref="NT301"  Part="1" 
AR Path="/61C55900/62029753" Ref="NT401"  Part="1" 
AR Path="/61C571A7/62029753" Ref="NT501"  Part="1" 
AR Path="/61C571FF/62029753" Ref="NT601"  Part="1" 
AR Path="/61C58781/62029753" Ref="NT801"  Part="1" 
F 0 "NT301" H 6850 5200 50  0000 C CNN
F 1 "Net-Tie_2" H 6850 5300 50  0000 C CNN
F 2 "NetTie:NetTie-2_THT_Pad0.3mm" H 6850 5250 50  0001 C CNN
F 3 "" H 6850 5250 50  0001 C CNN
	1    6850 5250
	1    0    0    -1  
$EndComp
Wire Wire Line
	6600 5250 6750 5250
Wire Wire Line
	6950 5250 7100 5250
$Comp
L power:GND #PWR?
U 1 1 618B52F9
P 7100 5700
AR Path="/618B52F9" Ref="#PWR?"  Part="1" 
AR Path="/610CCB80/618B52F9" Ref="#PWR?"  Part="1" 
AR Path="/614407CE/618B52F9" Ref="#PWR?"  Part="1" 
AR Path="/61465E4A/618B52F9" Ref="#PWR?"  Part="1" 
AR Path="/61481D40/618B52F9" Ref="#PWR?"  Part="1" 
AR Path="/63686327/618B52F9" Ref="#PWR?"  Part="1" 
AR Path="/61946A72/618B52F9" Ref="#PWR0311"  Part="1" 
AR Path="/61C55900/618B52F9" Ref="#PWR0411"  Part="1" 
AR Path="/61C571A7/618B52F9" Ref="#PWR0511"  Part="1" 
AR Path="/61C571FF/618B52F9" Ref="#PWR0611"  Part="1" 
AR Path="/61C58729/618B52F9" Ref="#PWR0711"  Part="1" 
AR Path="/61C58781/618B52F9" Ref="#PWR0811"  Part="1" 
F 0 "#PWR0311" H 7100 5450 50  0001 C CNN
F 1 "GND" H 7100 5550 50  0000 C CNN
F 2 "" H 7100 5700 50  0001 C CNN
F 3 "" H 7100 5700 50  0001 C CNN
	1    7100 5700
	1    0    0    -1  
$EndComp
Wire Wire Line
	7100 5700 7100 5650
Text Label 6600 5650 2    50   ~ 0
GND2
$Comp
L Device:Net-Tie_2 NT702
U 1 1 6202CEB1
P 6850 5650
AR Path="/61C58729/6202CEB1" Ref="NT702"  Part="1" 
AR Path="/61946A72/6202CEB1" Ref="NT302"  Part="1" 
AR Path="/61C55900/6202CEB1" Ref="NT402"  Part="1" 
AR Path="/61C571A7/6202CEB1" Ref="NT502"  Part="1" 
AR Path="/61C571FF/6202CEB1" Ref="NT602"  Part="1" 
AR Path="/61C58781/6202CEB1" Ref="NT802"  Part="1" 
F 0 "NT302" H 6850 5600 50  0000 C CNN
F 1 "Net-Tie_2" H 6850 5700 50  0000 C CNN
F 2 "NetTie:NetTie-2_THT_Pad0.3mm" H 6850 5650 50  0001 C CNN
F 3 "" H 6850 5650 50  0001 C CNN
	1    6850 5650
	1    0    0    -1  
$EndComp
Wire Wire Line
	6950 5650 7100 5650
Wire Wire Line
	6600 5650 6750 5650
$Comp
L Connector_Generic:Conn_01x06 J303
U 1 1 6210DDB1
P 9850 3800
AR Path="/61946A72/6210DDB1" Ref="J303"  Part="1" 
AR Path="/61C571A7/6210DDB1" Ref="J503"  Part="1" 
AR Path="/61C58781/6210DDB1" Ref="J803"  Part="1" 
AR Path="/61C55900/6210DDB1" Ref="J403"  Part="1" 
AR Path="/61C571FF/6210DDB1" Ref="J603"  Part="1" 
AR Path="/61C58729/6210DDB1" Ref="J703"  Part="1" 
F 0 "J303" H 9768 4217 50  0000 C CNN
F 1 "Conn_01x06" H 9768 4126 50  0000 C CNN
F 2 "000_footprint:PinHeader_1x06_P2.54mm_Vertical_CrtYd2.54mm" H 9850 3800 50  0001 C CNN
F 3 "" H 9850 3800 50  0001 C CNN
F 4 "Sullins Connector Solutions" H 9850 3800 50  0001 C CNN "Manufacturer"
F 5 "PEC06SAAN" H 9850 3800 50  0001 C CNN "Part Number"
F 6 "MNT-106-BK-G (Samtec)" H 9850 3800 50  0001 C CNN "Mating Product"
F 7 "Buy the part and mating product, but do not install" H 9850 3800 50  0001 C CNN "Comment"
	1    9850 3800
	-1   0    0    -1  
$EndComp
Text Label 10150 3600 0    50   ~ 0
Vin5V0P
Text Label 10150 3800 0    50   ~ 0
Vin5V0N
Text Label 10150 5350 0    50   ~ 0
~CS
Text Label 10150 3900 0    50   ~ 0
SDI
Text Label 10150 4100 0    50   ~ 0
SCK
Text Label 10150 4000 0    50   ~ 0
SRO
Wire Wire Line
	10050 3600 10150 3600
Wire Wire Line
	10050 3800 10150 3800
Wire Wire Line
	10050 3900 10150 3900
Wire Wire Line
	10050 4000 10150 4000
Wire Wire Line
	10050 4100 10150 4100
$Comp
L power:GND #PWR?
U 1 1 62166EA2
P 10500 3700
AR Path="/62166EA2" Ref="#PWR?"  Part="1" 
AR Path="/610CCB80/62166EA2" Ref="#PWR?"  Part="1" 
AR Path="/614407CE/62166EA2" Ref="#PWR?"  Part="1" 
AR Path="/61465E4A/62166EA2" Ref="#PWR?"  Part="1" 
AR Path="/61481D40/62166EA2" Ref="#PWR?"  Part="1" 
AR Path="/63686327/62166EA2" Ref="#PWR?"  Part="1" 
AR Path="/61946A72/62166EA2" Ref="#PWR0303"  Part="1" 
AR Path="/61C55900/62166EA2" Ref="#PWR0403"  Part="1" 
AR Path="/61C571A7/62166EA2" Ref="#PWR0503"  Part="1" 
AR Path="/61C571FF/62166EA2" Ref="#PWR0603"  Part="1" 
AR Path="/61C58729/62166EA2" Ref="#PWR0703"  Part="1" 
AR Path="/61C58781/62166EA2" Ref="#PWR0803"  Part="1" 
F 0 "#PWR0303" H 10500 3450 50  0001 C CNN
F 1 "GND" H 10500 3750 50  0000 C CNN
F 2 "" H 10500 3700 50  0001 C CNN
F 3 "" H 10500 3700 50  0001 C CNN
	1    10500 3700
	1    0    0    -1  
$EndComp
Wire Wire Line
	10050 3700 10500 3700
$Comp
L Connector_Generic:Conn_01x06 J304
U 1 1 6218292F
P 9850 4650
AR Path="/61946A72/6218292F" Ref="J304"  Part="1" 
AR Path="/61C571A7/6218292F" Ref="J504"  Part="1" 
AR Path="/61C58781/6218292F" Ref="J804"  Part="1" 
AR Path="/61C55900/6218292F" Ref="J404"  Part="1" 
AR Path="/61C571FF/6218292F" Ref="J604"  Part="1" 
AR Path="/61C58729/6218292F" Ref="J704"  Part="1" 
F 0 "J304" H 9768 5067 50  0000 C CNN
F 1 "Conn_01x06" H 9768 4976 50  0000 C CNN
F 2 "000_footprint:PinHeader_1x06_P2.54mm_Vertical_CrtYd2.54mm" H 9850 4650 50  0001 C CNN
F 3 "" H 9850 4650 50  0001 C CNN
F 4 "Sullins Connector Solutions" H 9850 4650 50  0001 C CNN "Manufacturer"
F 5 "PEC06SAAN" H 9850 4650 50  0001 C CNN "Part Number"
F 6 "MNT-106-BK-G (Samtec)" H 9850 4650 50  0001 C CNN "Mating Product"
F 7 "Buy the part and mating product, but do not install" H 9850 4650 50  0001 C CNN "Comment"
	1    9850 4650
	-1   0    0    -1  
$EndComp
Text Label 10150 4450 0    50   ~ 0
Vin5V0P
Text Label 10150 4650 0    50   ~ 0
Vin5V0N
Text Label 10150 4750 0    50   ~ 0
SDI
Text Label 10150 4950 0    50   ~ 0
SCK
Text Label 10150 4850 0    50   ~ 0
SRO
Wire Wire Line
	10050 4450 10150 4450
Wire Wire Line
	10050 4650 10150 4650
Wire Wire Line
	10050 4750 10150 4750
Wire Wire Line
	10050 4850 10150 4850
Wire Wire Line
	10050 4950 10150 4950
$Comp
L power:GND #PWR?
U 1 1 62182AEB
P 10500 4550
AR Path="/62182AEB" Ref="#PWR?"  Part="1" 
AR Path="/610CCB80/62182AEB" Ref="#PWR?"  Part="1" 
AR Path="/614407CE/62182AEB" Ref="#PWR?"  Part="1" 
AR Path="/61465E4A/62182AEB" Ref="#PWR?"  Part="1" 
AR Path="/61481D40/62182AEB" Ref="#PWR?"  Part="1" 
AR Path="/63686327/62182AEB" Ref="#PWR?"  Part="1" 
AR Path="/61946A72/62182AEB" Ref="#PWR0304"  Part="1" 
AR Path="/61C55900/62182AEB" Ref="#PWR0404"  Part="1" 
AR Path="/61C571A7/62182AEB" Ref="#PWR0504"  Part="1" 
AR Path="/61C571FF/62182AEB" Ref="#PWR0604"  Part="1" 
AR Path="/61C58729/62182AEB" Ref="#PWR0704"  Part="1" 
AR Path="/61C58781/62182AEB" Ref="#PWR0804"  Part="1" 
F 0 "#PWR0304" H 10500 4300 50  0001 C CNN
F 1 "GND" H 10500 4600 50  0000 C CNN
F 2 "" H 10500 4550 50  0001 C CNN
F 3 "" H 10500 4550 50  0001 C CNN
	1    10500 4550
	1    0    0    -1  
$EndComp
Wire Wire Line
	10050 4550 10500 4550
$Comp
L Connector_Generic:Conn_01x02 J305
U 1 1 621920D2
P 9850 5350
AR Path="/61946A72/621920D2" Ref="J305"  Part="1" 
AR Path="/61C571A7/621920D2" Ref="J505"  Part="1" 
AR Path="/61C58781/621920D2" Ref="J805"  Part="1" 
AR Path="/61C55900/621920D2" Ref="J405"  Part="1" 
AR Path="/61C571FF/621920D2" Ref="J605"  Part="1" 
AR Path="/61C58729/621920D2" Ref="J705"  Part="1" 
F 0 "J305" H 9768 5567 50  0000 C CNN
F 1 "Conn_01x02" H 9768 5476 50  0000 C CNN
F 2 "Connector_PinHeader_1.27mm:PinHeader_1x02_P1.27mm_Vertical" H 9850 5350 50  0001 C CNN
F 3 "" H 9850 5350 50  0001 C CNN
F 4 "Sullins Connector Solutions" H 9850 5350 50  0001 C CNN "Manufacturer"
F 5 "GRPB021VWVN-RC" H 9850 5350 50  0001 C CNN "Part Number"
	1    9850 5350
	-1   0    0    -1  
$EndComp
Wire Wire Line
	10150 5350 10050 5350
Wire Wire Line
	10050 5450 10150 5450
$Comp
L power:GND #PWR?
U 1 1 621B6FDE
P 10150 5450
AR Path="/621B6FDE" Ref="#PWR?"  Part="1" 
AR Path="/610CCB80/621B6FDE" Ref="#PWR?"  Part="1" 
AR Path="/614407CE/621B6FDE" Ref="#PWR?"  Part="1" 
AR Path="/61465E4A/621B6FDE" Ref="#PWR?"  Part="1" 
AR Path="/61481D40/621B6FDE" Ref="#PWR?"  Part="1" 
AR Path="/63686327/621B6FDE" Ref="#PWR?"  Part="1" 
AR Path="/61946A72/621B6FDE" Ref="#PWR0308"  Part="1" 
AR Path="/61C55900/621B6FDE" Ref="#PWR0408"  Part="1" 
AR Path="/61C571A7/621B6FDE" Ref="#PWR0508"  Part="1" 
AR Path="/61C571FF/621B6FDE" Ref="#PWR0608"  Part="1" 
AR Path="/61C58729/621B6FDE" Ref="#PWR0708"  Part="1" 
AR Path="/61C58781/621B6FDE" Ref="#PWR0808"  Part="1" 
F 0 "#PWR0308" H 10150 5200 50  0001 C CNN
F 1 "GND" H 10150 5500 50  0000 C CNN
F 2 "" H 10150 5450 50  0001 C CNN
F 3 "" H 10150 5450 50  0001 C CNN
	1    10150 5450
	1    0    0    -1  
$EndComp
Text Label 2300 4250 2    50   ~ 0
Vin5V0P
Text Label 1600 5600 2    50   ~ 0
Vin5V0P
Text Label 1600 6850 2    50   ~ 0
Vin5V0P
$Comp
L Mechanical:MountingHole H?
U 1 1 61953CBF
P 5200 6550
AR Path="/61953CBF" Ref="H?"  Part="1" 
AR Path="/61946A72/61953CBF" Ref="H301"  Part="1" 
AR Path="/61C55900/61953CBF" Ref="H401"  Part="1" 
AR Path="/61C571A7/61953CBF" Ref="H501"  Part="1" 
AR Path="/61C571FF/61953CBF" Ref="H601"  Part="1" 
AR Path="/61C58729/61953CBF" Ref="H701"  Part="1" 
AR Path="/61C58781/61953CBF" Ref="H801"  Part="1" 
F 0 "H301" H 5300 6596 50  0000 L CNN
F 1 "MountingHole" H 5300 6505 50  0000 L CNN
F 2 "MountingHole:MountingHole_3mm" H 5200 6550 50  0001 C CNN
F 3 "" H 5200 6550 50  0001 C CNN
	1    5200 6550
	1    0    0    -1  
$EndComp
$Comp
L Mechanical:MountingHole H?
U 1 1 61953CC5
P 5200 6800
AR Path="/61953CC5" Ref="H?"  Part="1" 
AR Path="/61946A72/61953CC5" Ref="H302"  Part="1" 
AR Path="/61C55900/61953CC5" Ref="H402"  Part="1" 
AR Path="/61C571A7/61953CC5" Ref="H502"  Part="1" 
AR Path="/61C571FF/61953CC5" Ref="H602"  Part="1" 
AR Path="/61C58729/61953CC5" Ref="H702"  Part="1" 
AR Path="/61C58781/61953CC5" Ref="H802"  Part="1" 
F 0 "H302" H 5300 6846 50  0000 L CNN
F 1 "MountingHole" H 5300 6755 50  0000 L CNN
F 2 "MountingHole:MountingHole_3mm" H 5200 6800 50  0001 C CNN
F 3 "" H 5200 6800 50  0001 C CNN
	1    5200 6800
	1    0    0    -1  
$EndComp
$Comp
L Mechanical:MountingHole H?
U 1 1 6195E14E
P 5200 7050
AR Path="/6195E14E" Ref="H?"  Part="1" 
AR Path="/61946A72/6195E14E" Ref="H303"  Part="1" 
AR Path="/61C55900/6195E14E" Ref="H403"  Part="1" 
AR Path="/61C571A7/6195E14E" Ref="H503"  Part="1" 
AR Path="/61C571FF/6195E14E" Ref="H603"  Part="1" 
AR Path="/61C58729/6195E14E" Ref="H703"  Part="1" 
AR Path="/61C58781/6195E14E" Ref="H803"  Part="1" 
F 0 "H303" H 5300 7096 50  0000 L CNN
F 1 "MountingHole" H 5300 7005 50  0000 L CNN
F 2 "MountingHole:MountingHole_3mm" H 5200 7050 50  0001 C CNN
F 3 "" H 5200 7050 50  0001 C CNN
	1    5200 7050
	1    0    0    -1  
$EndComp
$Comp
L Mechanical:MountingHole H?
U 1 1 619CE1F3
P 5200 7300
AR Path="/619CE1F3" Ref="H?"  Part="1" 
AR Path="/61946A72/619CE1F3" Ref="H304"  Part="1" 
AR Path="/61C55900/619CE1F3" Ref="H404"  Part="1" 
AR Path="/61C571A7/619CE1F3" Ref="H504"  Part="1" 
AR Path="/61C571FF/619CE1F3" Ref="H604"  Part="1" 
AR Path="/61C58729/619CE1F3" Ref="H704"  Part="1" 
AR Path="/61C58781/619CE1F3" Ref="H804"  Part="1" 
F 0 "H304" H 5300 7346 50  0000 L CNN
F 1 "MountingHole" H 5300 7255 50  0000 L CNN
F 2 "MountingHole:MountingHole_3mm" H 5200 7300 50  0001 C CNN
F 3 "" H 5200 7300 50  0001 C CNN
	1    5200 7300
	1    0    0    -1  
$EndComp
$Comp
L Device:Net-Tie_2 NT303
U 1 1 61ABB361
P 8100 5000
AR Path="/61946A72/61ABB361" Ref="NT303"  Part="1" 
AR Path="/61C55900/61ABB361" Ref="NT403"  Part="1" 
AR Path="/61C571A7/61ABB361" Ref="NT503"  Part="1" 
AR Path="/61C571FF/61ABB361" Ref="NT603"  Part="1" 
AR Path="/61C58729/61ABB361" Ref="NT703"  Part="1" 
AR Path="/61C58781/61ABB361" Ref="NT803"  Part="1" 
F 0 "NT303" H 8050 4950 50  0000 C CNN
F 1 "Net-Tie_2" H 8100 5050 50  0000 C CNN
F 2 "NetTie:NetTie-2_THT_Pad0.3mm" H 8100 5000 50  0001 C CNN
F 3 "" H 8100 5000 50  0001 C CNN
	1    8100 5000
	1    0    0    -1  
$EndComp
Text Label 7850 5000 2    50   ~ 0
AGND
Wire Wire Line
	7850 5000 8000 5000
$Comp
L power:GND #PWR?
U 1 1 61AD0C6B
P 8350 5050
AR Path="/61AD0C6B" Ref="#PWR?"  Part="1" 
AR Path="/610CCB80/61AD0C6B" Ref="#PWR?"  Part="1" 
AR Path="/614407CE/61AD0C6B" Ref="#PWR?"  Part="1" 
AR Path="/61465E4A/61AD0C6B" Ref="#PWR?"  Part="1" 
AR Path="/61481D40/61AD0C6B" Ref="#PWR?"  Part="1" 
AR Path="/63686327/61AD0C6B" Ref="#PWR?"  Part="1" 
AR Path="/61946A72/61AD0C6B" Ref="#PWR0312"  Part="1" 
AR Path="/61C55900/61AD0C6B" Ref="#PWR0412"  Part="1" 
AR Path="/61C571A7/61AD0C6B" Ref="#PWR0512"  Part="1" 
AR Path="/61C571FF/61AD0C6B" Ref="#PWR0612"  Part="1" 
AR Path="/61C58729/61AD0C6B" Ref="#PWR0712"  Part="1" 
AR Path="/61C58781/61AD0C6B" Ref="#PWR0812"  Part="1" 
F 0 "#PWR0312" H 8350 4800 50  0001 C CNN
F 1 "GND" H 8350 4900 50  0000 C CNN
F 2 "" H 8350 5050 50  0001 C CNN
F 3 "" H 8350 5050 50  0001 C CNN
	1    8350 5050
	1    0    0    -1  
$EndComp
Wire Wire Line
	8350 5050 8350 5000
Wire Wire Line
	8200 5000 8350 5000
$Comp
L Device:Net-Tie_2 NT304
U 1 1 61AF8286
P 8100 5350
AR Path="/61946A72/61AF8286" Ref="NT304"  Part="1" 
AR Path="/61C55900/61AF8286" Ref="NT407"  Part="1" 
AR Path="/61C571A7/61AF8286" Ref="NT507"  Part="1" 
AR Path="/61C571FF/61AF8286" Ref="NT607"  Part="1" 
AR Path="/61C58729/61AF8286" Ref="NT707"  Part="1" 
AR Path="/61C58781/61AF8286" Ref="NT807"  Part="1" 
F 0 "NT304" H 8050 5300 50  0000 C CNN
F 1 "Net-Tie_2" H 8100 5400 50  0000 C CNN
F 2 "NetTie:NetTie-2_THT_Pad0.3mm" H 8100 5350 50  0001 C CNN
F 3 "" H 8100 5350 50  0001 C CNN
	1    8100 5350
	1    0    0    -1  
$EndComp
Text Label 7850 5350 2    50   ~ 0
AGND
Wire Wire Line
	7850 5350 8000 5350
$Comp
L power:GND #PWR?
U 1 1 61AF845A
P 8350 5400
AR Path="/61AF845A" Ref="#PWR?"  Part="1" 
AR Path="/610CCB80/61AF845A" Ref="#PWR?"  Part="1" 
AR Path="/614407CE/61AF845A" Ref="#PWR?"  Part="1" 
AR Path="/61465E4A/61AF845A" Ref="#PWR?"  Part="1" 
AR Path="/61481D40/61AF845A" Ref="#PWR?"  Part="1" 
AR Path="/63686327/61AF845A" Ref="#PWR?"  Part="1" 
AR Path="/61946A72/61AF845A" Ref="#PWR0316"  Part="1" 
AR Path="/61C55900/61AF845A" Ref="#PWR0416"  Part="1" 
AR Path="/61C571A7/61AF845A" Ref="#PWR0516"  Part="1" 
AR Path="/61C571FF/61AF845A" Ref="#PWR0616"  Part="1" 
AR Path="/61C58729/61AF845A" Ref="#PWR0716"  Part="1" 
AR Path="/61C58781/61AF845A" Ref="#PWR0816"  Part="1" 
F 0 "#PWR0316" H 8350 5150 50  0001 C CNN
F 1 "GND" H 8350 5250 50  0000 C CNN
F 2 "" H 8350 5400 50  0001 C CNN
F 3 "" H 8350 5400 50  0001 C CNN
	1    8350 5400
	1    0    0    -1  
$EndComp
Wire Wire Line
	8350 5400 8350 5350
Wire Wire Line
	8200 5350 8350 5350
$Comp
L Device:Net-Tie_2 NT305
U 1 1 61B060D6
P 8100 5700
AR Path="/61946A72/61B060D6" Ref="NT305"  Part="1" 
AR Path="/61C55900/61B060D6" Ref="NT408"  Part="1" 
AR Path="/61C571A7/61B060D6" Ref="NT508"  Part="1" 
AR Path="/61C571FF/61B060D6" Ref="NT608"  Part="1" 
AR Path="/61C58729/61B060D6" Ref="NT708"  Part="1" 
AR Path="/61C58781/61B060D6" Ref="NT808"  Part="1" 
F 0 "NT305" H 8050 5650 50  0000 C CNN
F 1 "Net-Tie_2" H 8100 5750 50  0000 C CNN
F 2 "NetTie:NetTie-2_THT_Pad0.3mm" H 8100 5700 50  0001 C CNN
F 3 "" H 8100 5700 50  0001 C CNN
	1    8100 5700
	1    0    0    -1  
$EndComp
Text Label 7850 5700 2    50   ~ 0
AGND
Wire Wire Line
	7850 5700 8000 5700
$Comp
L power:GND #PWR?
U 1 1 61B062C6
P 8350 5750
AR Path="/61B062C6" Ref="#PWR?"  Part="1" 
AR Path="/610CCB80/61B062C6" Ref="#PWR?"  Part="1" 
AR Path="/614407CE/61B062C6" Ref="#PWR?"  Part="1" 
AR Path="/61465E4A/61B062C6" Ref="#PWR?"  Part="1" 
AR Path="/61481D40/61B062C6" Ref="#PWR?"  Part="1" 
AR Path="/63686327/61B062C6" Ref="#PWR?"  Part="1" 
AR Path="/61946A72/61B062C6" Ref="#PWR0317"  Part="1" 
AR Path="/61C55900/61B062C6" Ref="#PWR0417"  Part="1" 
AR Path="/61C571A7/61B062C6" Ref="#PWR0517"  Part="1" 
AR Path="/61C571FF/61B062C6" Ref="#PWR0617"  Part="1" 
AR Path="/61C58729/61B062C6" Ref="#PWR0717"  Part="1" 
AR Path="/61C58781/61B062C6" Ref="#PWR0817"  Part="1" 
F 0 "#PWR0317" H 8350 5500 50  0001 C CNN
F 1 "GND" H 8350 5600 50  0000 C CNN
F 2 "" H 8350 5750 50  0001 C CNN
F 3 "" H 8350 5750 50  0001 C CNN
	1    8350 5750
	1    0    0    -1  
$EndComp
Wire Wire Line
	8350 5750 8350 5700
Wire Wire Line
	8200 5700 8350 5700
$Comp
L Device:Net-Tie_2 NT306
U 1 1 61B129DC
P 8100 6100
AR Path="/61946A72/61B129DC" Ref="NT306"  Part="1" 
AR Path="/61C55900/61B129DC" Ref="NT409"  Part="1" 
AR Path="/61C571A7/61B129DC" Ref="NT509"  Part="1" 
AR Path="/61C571FF/61B129DC" Ref="NT609"  Part="1" 
AR Path="/61C58729/61B129DC" Ref="NT709"  Part="1" 
AR Path="/61C58781/61B129DC" Ref="NT809"  Part="1" 
F 0 "NT306" H 8050 6050 50  0000 C CNN
F 1 "Net-Tie_2" H 8100 6150 50  0000 C CNN
F 2 "NetTie:NetTie-2_THT_Pad0.3mm" H 8100 6100 50  0001 C CNN
F 3 "" H 8100 6100 50  0001 C CNN
	1    8100 6100
	1    0    0    -1  
$EndComp
Text Label 7850 6100 2    50   ~ 0
AGND
Wire Wire Line
	7850 6100 8000 6100
$Comp
L power:GND #PWR?
U 1 1 61B12BE8
P 8350 6150
AR Path="/61B12BE8" Ref="#PWR?"  Part="1" 
AR Path="/610CCB80/61B12BE8" Ref="#PWR?"  Part="1" 
AR Path="/614407CE/61B12BE8" Ref="#PWR?"  Part="1" 
AR Path="/61465E4A/61B12BE8" Ref="#PWR?"  Part="1" 
AR Path="/61481D40/61B12BE8" Ref="#PWR?"  Part="1" 
AR Path="/63686327/61B12BE8" Ref="#PWR?"  Part="1" 
AR Path="/61946A72/61B12BE8" Ref="#PWR0318"  Part="1" 
AR Path="/61C55900/61B12BE8" Ref="#PWR0418"  Part="1" 
AR Path="/61C571A7/61B12BE8" Ref="#PWR0518"  Part="1" 
AR Path="/61C571FF/61B12BE8" Ref="#PWR0618"  Part="1" 
AR Path="/61C58729/61B12BE8" Ref="#PWR0718"  Part="1" 
AR Path="/61C58781/61B12BE8" Ref="#PWR0818"  Part="1" 
F 0 "#PWR0318" H 8350 5900 50  0001 C CNN
F 1 "GND" H 8350 6000 50  0000 C CNN
F 2 "" H 8350 6150 50  0001 C CNN
F 3 "" H 8350 6150 50  0001 C CNN
	1    8350 6150
	1    0    0    -1  
$EndComp
Wire Wire Line
	8350 6150 8350 6100
Wire Wire Line
	8200 6100 8350 6100
Wire Wire Line
	1250 1800 1400 1800
Text HLabel 1250 1800 0    50   UnSpc ~ 0
AGND
Text Label 1400 1800 0    50   ~ 0
AGND
$EndSCHEMATC
