EESchema Schematic File Version 4
EELAYER 30 0
EELAYER END
$Descr A4 11693 8268
encoding utf-8
Sheet 1 8
Title ""
Date ""
Rev ""
Comp ""
Comment1 ""
Comment2 ""
Comment3 ""
Comment4 ""
$EndDescr
$Sheet
S 3000 1150 950  1400
U 63686327
F0 "Communication" 50
F1 "Communication.sch" 50
F2 "SCK" O R 3950 1250 50 
F3 "MISO" I R 3950 1400 50 
F4 "MOSI" O R 3950 1550 50 
F5 "CS_SlowDAC1" O R 3950 1700 50 
F6 "CS_SlowDAC2" O R 3950 1850 50 
F7 "CS_SlowDAC3" O R 3950 2000 50 
F8 "CS_SlowDAC4" O R 3950 2150 50 
F9 "CS_SlowDAC5" O R 3950 2300 50 
F10 "CS_SlowDAC6" O R 3950 2450 50 
F11 "Vin5V0N" I L 3000 1550 50 
F12 "Vin5V0P" I L 3000 1400 50 
F13 "Vin5V0" I L 3000 1250 50 
$EndSheet
Text Label 2500 1250 2    50   ~ 0
Vin5V0
Text Label 4050 1250 0    50   ~ 0
SCK
Wire Wire Line
	3950 1250 4050 1250
Text Label 4050 1400 0    50   ~ 0
MISO
Text Label 4050 1550 0    50   ~ 0
MOSI
Text Label 4050 1700 0    50   ~ 0
CS_SlowDAC1
Text Label 4050 1850 0    50   ~ 0
CS_SlowDAC2
Text Label 4050 2000 0    50   ~ 0
CS_SlowDAC3
Text Label 4050 2150 0    50   ~ 0
CS_SlowDAC4
Text Label 4050 2300 0    50   ~ 0
CS_SlowDAC5
Wire Wire Line
	3950 1400 4050 1400
Wire Wire Line
	3950 1550 4050 1550
Wire Wire Line
	3950 1700 4050 1700
Wire Wire Line
	3950 1850 4050 1850
Wire Wire Line
	3950 2000 4050 2000
Wire Wire Line
	3950 2150 4050 2150
Wire Wire Line
	3950 2300 4050 2300
$Sheet
S 5600 1100 850  800 
U 61946A72
F0 "SlowDAC1" 50
F1 "SlowDAC.sch" 50
F2 "Vin5V0P" I L 5600 1200 50 
F3 "Vin5V0N" I L 5600 1350 50 
F4 "~CS" I L 5600 1500 50 
F5 "SDI" I L 5600 1800 50 
F6 "SCK" I L 5600 1650 50 
F7 "SRO" O R 6450 1800 50 
F8 "AGND" U R 6450 1200 50 
$EndSheet
$Sheet
S 5600 2150 850  800 
U 61C55900
F0 "SlowDAC2" 50
F1 "SlowDAC.sch" 50
F2 "Vin5V0P" I L 5600 2250 50 
F3 "Vin5V0N" I L 5600 2400 50 
F4 "~CS" I L 5600 2550 50 
F5 "SDI" I L 5600 2850 50 
F6 "SCK" I L 5600 2700 50 
F7 "SRO" O R 6450 2850 50 
F8 "AGND" U R 6450 2250 50 
$EndSheet
$Sheet
S 5600 3200 850  800 
U 61C571A7
F0 "SlowDAC3" 50
F1 "SlowDAC.sch" 50
F2 "Vin5V0P" I L 5600 3300 50 
F3 "Vin5V0N" I L 5600 3450 50 
F4 "~CS" I L 5600 3600 50 
F5 "SDI" I L 5600 3900 50 
F6 "SCK" I L 5600 3750 50 
F7 "SRO" O R 6450 3900 50 
F8 "AGND" U R 6450 3300 50 
$EndSheet
$Sheet
S 5600 4250 850  800 
U 61C571FF
F0 "SlowDAC4" 50
F1 "SlowDAC.sch" 50
F2 "Vin5V0P" I L 5600 4350 50 
F3 "Vin5V0N" I L 5600 4500 50 
F4 "~CS" I L 5600 4650 50 
F5 "SDI" I L 5600 4950 50 
F6 "SCK" I L 5600 4800 50 
F7 "SRO" O R 6450 4950 50 
F8 "AGND" U R 6450 4350 50 
$EndSheet
$Sheet
S 5600 5300 850  800 
U 61C58729
F0 "SlowDAC5" 50
F1 "SlowDAC.sch" 50
F2 "Vin5V0P" I L 5600 5400 50 
F3 "Vin5V0N" I L 5600 5550 50 
F4 "~CS" I L 5600 5700 50 
F5 "SDI" I L 5600 6000 50 
F6 "SCK" I L 5600 5850 50 
F7 "SRO" O R 6450 6000 50 
F8 "AGND" U R 6450 5400 50 
$EndSheet
$Sheet
S 5600 6350 850  800 
U 61C58781
F0 "SlowDAC6" 50
F1 "SlowDAC.sch" 50
F2 "Vin5V0P" I L 5600 6450 50 
F3 "Vin5V0N" I L 5600 6600 50 
F4 "~CS" I L 5600 6750 50 
F5 "SDI" I L 5600 7050 50 
F6 "SCK" I L 5600 6900 50 
F7 "SRO" O R 6450 7050 50 
F8 "AGND" U R 6450 6450 50 
$EndSheet
Text Label 4050 2450 0    50   ~ 0
CS_SlowDAC6
Wire Wire Line
	3950 2450 4050 2450
Wire Wire Line
	5600 1500 5500 1500
Text Label 5500 1500 2    50   ~ 0
CS_SlowDAC1
Wire Wire Line
	5600 2550 5500 2550
Text Label 5500 2550 2    50   ~ 0
CS_SlowDAC2
Wire Wire Line
	5600 3600 5500 3600
Text Label 5500 3600 2    50   ~ 0
CS_SlowDAC3
Wire Wire Line
	5600 4650 5500 4650
Text Label 5500 4650 2    50   ~ 0
CS_SlowDAC4
Wire Wire Line
	5600 5700 5500 5700
Text Label 5500 5700 2    50   ~ 0
CS_SlowDAC5
Wire Wire Line
	5600 6750 5500 6750
Text Label 5500 6750 2    50   ~ 0
CS_SlowDAC6
Text Label 1150 1300 0    50   ~ 0
Vin5V0P
Wire Wire Line
	1050 1300 1150 1300
Text Label 1150 1500 0    50   ~ 0
Vin5V0N
Wire Wire Line
	1050 1500 1150 1500
$Comp
L power:GND #PWR?
U 1 1 61C660F8
P 1550 1400
AR Path="/5DF9BF76/61C660F8" Ref="#PWR?"  Part="1" 
AR Path="/5E194F27/61C660F8" Ref="#PWR?"  Part="1" 
AR Path="/61C660F8" Ref="#PWR0101"  Part="1" 
F 0 "#PWR0101" H 1550 1150 50  0001 C CNN
F 1 "GND" H 1555 1227 50  0000 C CNN
F 2 "" H 1550 1400 50  0001 C CNN
F 3 "" H 1550 1400 50  0001 C CNN
	1    1550 1400
	1    0    0    -1  
$EndComp
Wire Wire Line
	1050 1400 1550 1400
Text Label 5500 1200 2    50   ~ 0
Vin5V0P
Wire Wire Line
	5500 1200 5600 1200
Text Label 5500 2250 2    50   ~ 0
Vin5V0P
Wire Wire Line
	5500 2250 5600 2250
Text Label 5500 3300 2    50   ~ 0
Vin5V0P
Wire Wire Line
	5500 3300 5600 3300
Text Label 5500 4350 2    50   ~ 0
Vin5V0P
Wire Wire Line
	5500 4350 5600 4350
Text Label 5500 5400 2    50   ~ 0
Vin5V0P
Wire Wire Line
	5500 5400 5600 5400
Text Label 5500 6450 2    50   ~ 0
Vin5V0P
Wire Wire Line
	5500 6450 5600 6450
Text Label 5500 1350 2    50   ~ 0
Vin5V0N
Wire Wire Line
	5500 1350 5600 1350
Text Label 5500 2400 2    50   ~ 0
Vin5V0N
Wire Wire Line
	5500 2400 5600 2400
Text Label 5500 3450 2    50   ~ 0
Vin5V0N
Wire Wire Line
	5500 3450 5600 3450
Text Label 5500 4500 2    50   ~ 0
Vin5V0N
Wire Wire Line
	5500 4500 5600 4500
Text Label 5500 5550 2    50   ~ 0
Vin5V0N
Wire Wire Line
	5500 5550 5600 5550
Text Label 5500 6600 2    50   ~ 0
Vin5V0N
Wire Wire Line
	5500 6600 5600 6600
Wire Wire Line
	5600 1650 5500 1650
Text Label 5500 1650 2    50   ~ 0
SCK
Wire Wire Line
	5600 2700 5500 2700
Text Label 5500 2700 2    50   ~ 0
SCK
Wire Wire Line
	5600 3750 5500 3750
Text Label 5500 3750 2    50   ~ 0
SCK
Wire Wire Line
	5600 4800 5500 4800
Text Label 5500 4800 2    50   ~ 0
SCK
Wire Wire Line
	5600 5850 5500 5850
Text Label 5500 5850 2    50   ~ 0
SCK
Wire Wire Line
	5600 6900 5500 6900
Text Label 5500 6900 2    50   ~ 0
SCK
Wire Wire Line
	5600 1800 5500 1800
Text Label 5500 1800 2    50   ~ 0
MOSI
Wire Wire Line
	5600 4950 5500 4950
Wire Wire Line
	5600 7050 5500 7050
Text Label 5500 7050 2    50   ~ 0
MOSI
Wire Wire Line
	5600 3900 5500 3900
Text Label 5500 3900 2    50   ~ 0
MOSI
Wire Wire Line
	5600 6000 5500 6000
Text Label 5500 6000 2    50   ~ 0
MOSI
Text Label 5500 4950 2    50   ~ 0
MOSI
Wire Wire Line
	5600 2850 5500 2850
Text Label 5500 2850 2    50   ~ 0
MOSI
Wire Wire Line
	6550 1800 6450 1800
Text Label 6550 1800 0    50   ~ 0
MISO
Wire Wire Line
	6550 2850 6450 2850
Text Label 6550 2850 0    50   ~ 0
MISO
Wire Wire Line
	6550 3900 6450 3900
Text Label 6550 3900 0    50   ~ 0
MISO
Wire Wire Line
	6550 4950 6450 4950
Text Label 6550 4950 0    50   ~ 0
MISO
Wire Wire Line
	6550 6000 6450 6000
Text Label 6550 6000 0    50   ~ 0
MISO
Wire Wire Line
	6550 7050 6450 7050
Text Label 6550 7050 0    50   ~ 0
MISO
Wire Wire Line
	2800 1250 3000 1250
Wire Wire Line
	2500 1250 2700 1250
$Comp
L Connector_Generic:Conn_01x03 J101
U 1 1 61F2A965
P 850 1400
F 0 "J101" H 768 1717 50  0000 C CNN
F 1 "Conn_01x03" H 768 1626 50  0000 C CNN
F 2 "000_footprint:Wurth_64900311122" H 850 1400 50  0001 C CNN
F 3 "" H 850 1400 50  0001 C CNN
F 4 "Wurth" H 850 1400 50  0001 C CNN "Manufacturer"
F 5 "64900311122" H 850 1400 50  0001 C CNN "Part Number"
F 6 "649003013322" H 850 1400 50  0001 C CNN "Mating Product"
	1    850  1400
	-1   0    0    -1  
$EndComp
Text Label 1100 2150 2    50   ~ 0
Vin5V0P
Text Label 1100 3050 2    50   ~ 0
Vin5V0N
$Comp
L Diode:BAT54S D?
U 1 1 626087EE
P 1450 2600
AR Path="/61946A72/626087EE" Ref="D?"  Part="1" 
AR Path="/61C55900/626087EE" Ref="D?"  Part="1" 
AR Path="/61C571A7/626087EE" Ref="D?"  Part="1" 
AR Path="/61C571FF/626087EE" Ref="D?"  Part="1" 
AR Path="/61C58729/626087EE" Ref="D?"  Part="1" 
AR Path="/61C58781/626087EE" Ref="D?"  Part="1" 
AR Path="/626087EE" Ref="D101"  Part="1" 
F 0 "D101" V 1500 2700 50  0000 C CNN
F 1 "BAT54S" V 1400 2750 50  0000 C CNN
F 2 "Package_TO_SOT_SMD:SOT-23" H 1525 2725 50  0001 L CNN
F 3 "https://www.diodes.com/assets/Datasheets/ds11005.pdf" H 1330 2600 50  0001 C CNN
F 4 "onsemi" V 1450 2600 50  0001 C CNN "Manufacturer"
F 5 "BAT54SLT1G" V 1450 2600 50  0001 C CNN "Part Number"
	1    1450 2600
	0    1    -1   0   
$EndComp
$Comp
L power:GND #PWR0102
U 1 1 626087F4
P 900 2600
AR Path="/626087F4" Ref="#PWR0102"  Part="1" 
AR Path="/610CCB80/626087F4" Ref="#PWR?"  Part="1" 
AR Path="/614407CE/626087F4" Ref="#PWR?"  Part="1" 
AR Path="/61465E4A/626087F4" Ref="#PWR?"  Part="1" 
AR Path="/61481D40/626087F4" Ref="#PWR?"  Part="1" 
AR Path="/63686327/626087F4" Ref="#PWR?"  Part="1" 
AR Path="/61946A72/626087F4" Ref="#PWR?"  Part="1" 
AR Path="/61C55900/626087F4" Ref="#PWR?"  Part="1" 
AR Path="/61C571A7/626087F4" Ref="#PWR?"  Part="1" 
AR Path="/61C571FF/626087F4" Ref="#PWR?"  Part="1" 
AR Path="/61C58729/626087F4" Ref="#PWR?"  Part="1" 
AR Path="/61C58781/626087F4" Ref="#PWR?"  Part="1" 
F 0 "#PWR0102" H 900 2350 50  0001 C CNN
F 1 "GND" H 800 2500 50  0000 C CNN
F 2 "" H 900 2600 50  0001 C CNN
F 3 "" H 900 2600 50  0001 C CNN
	1    900  2600
	1    0    0    -1  
$EndComp
$Comp
L Device:C C101
U 1 1 626087FC
P 1100 2400
AR Path="/626087FC" Ref="C101"  Part="1" 
AR Path="/610CCB80/626087FC" Ref="C?"  Part="1" 
AR Path="/614407CE/626087FC" Ref="C?"  Part="1" 
AR Path="/61465E4A/626087FC" Ref="C?"  Part="1" 
AR Path="/61481D40/626087FC" Ref="C?"  Part="1" 
AR Path="/63686327/626087FC" Ref="C?"  Part="1" 
AR Path="/61946A72/626087FC" Ref="C?"  Part="1" 
AR Path="/61C55900/626087FC" Ref="C?"  Part="1" 
AR Path="/61C571A7/626087FC" Ref="C?"  Part="1" 
AR Path="/61C571FF/626087FC" Ref="C?"  Part="1" 
AR Path="/61C58729/626087FC" Ref="C?"  Part="1" 
AR Path="/61C58781/626087FC" Ref="C?"  Part="1" 
F 0 "C101" H 1000 2300 50  0000 C CNN
F 1 "4.7u" H 1000 2500 50  0000 C CNN
F 2 "Capacitor_SMD:C_1206_3216Metric" H 1138 2250 50  0001 C CNN
F 3 "" H 1100 2400 50  0001 C CNN
F 4 "Taiyo Yuden" V 1100 2400 50  0001 C CNN "Manufacturer"
F 5 "UMK316ABJ475KD-T" V 1100 2400 50  0001 C CNN "Part Number"
	1    1100 2400
	-1   0    0    1   
$EndComp
$Comp
L Device:C C102
U 1 1 62608804
P 1100 2800
AR Path="/62608804" Ref="C102"  Part="1" 
AR Path="/610CCB80/62608804" Ref="C?"  Part="1" 
AR Path="/614407CE/62608804" Ref="C?"  Part="1" 
AR Path="/61465E4A/62608804" Ref="C?"  Part="1" 
AR Path="/61481D40/62608804" Ref="C?"  Part="1" 
AR Path="/63686327/62608804" Ref="C?"  Part="1" 
AR Path="/61946A72/62608804" Ref="C?"  Part="1" 
AR Path="/61C55900/62608804" Ref="C?"  Part="1" 
AR Path="/61C571A7/62608804" Ref="C?"  Part="1" 
AR Path="/61C571FF/62608804" Ref="C?"  Part="1" 
AR Path="/61C58729/62608804" Ref="C?"  Part="1" 
AR Path="/61C58781/62608804" Ref="C?"  Part="1" 
F 0 "C102" H 1000 2700 50  0000 C CNN
F 1 "4.7u" H 1000 2900 50  0000 C CNN
F 2 "Capacitor_SMD:C_1206_3216Metric" H 1138 2650 50  0001 C CNN
F 3 "" H 1100 2800 50  0001 C CNN
F 4 "Taiyo Yuden" V 1100 2800 50  0001 C CNN "Manufacturer"
F 5 "UMK316ABJ475KD-T" V 1100 2800 50  0001 C CNN "Part Number"
	1    1100 2800
	-1   0    0    1   
$EndComp
Wire Wire Line
	1100 2150 1100 2200
Wire Wire Line
	1100 2550 1100 2600
Wire Wire Line
	900  2600 1100 2600
Connection ~ 1100 2600
Wire Wire Line
	1100 2600 1100 2650
Wire Wire Line
	1100 2950 1100 3000
Wire Wire Line
	1100 2600 1250 2600
Wire Wire Line
	1450 2300 1450 2200
Wire Wire Line
	1450 2200 1100 2200
Connection ~ 1100 2200
Wire Wire Line
	1100 2200 1100 2250
Wire Wire Line
	1450 2900 1450 3000
Wire Wire Line
	1450 3000 1100 3000
Connection ~ 1100 3000
Wire Wire Line
	1100 3000 1100 3050
$Comp
L Connector_Generic:Conn_01x02 J102
U 1 1 61CE4D60
P 2700 1050
F 0 "J102" V 2600 950 50  0000 R CNN
F 1 "Conn_01x02" V 2800 1250 50  0000 R CNN
F 2 "Connector_PinHeader_2.54mm:PinHeader_1x02_P2.54mm_Vertical" H 2700 1050 50  0001 C CNN
F 3 "" H 2700 1050 50  0001 C CNN
F 4 "Sullins" H 2700 1050 50  0001 C CNN "Manufacturer"
F 5 "PEC02SFAN" H 2700 1050 50  0001 C CNN "Part Number"
F 6 "STC02SYAN" H 2700 1050 50  0001 C CNN "Mating Product"
	1    2700 1050
	0    -1   -1   0   
$EndComp
Text Label 2500 1550 2    50   ~ 0
Vin5V0N
Wire Wire Line
	3000 1550 2500 1550
Wire Wire Line
	6550 1200 6450 1200
Text Label 6550 1200 0    50   ~ 0
AGND
Wire Wire Line
	6550 2250 6450 2250
Text Label 6550 2250 0    50   ~ 0
AGND
Wire Wire Line
	6550 3300 6450 3300
Text Label 6550 3300 0    50   ~ 0
AGND
Wire Wire Line
	6550 4350 6450 4350
Text Label 6550 4350 0    50   ~ 0
AGND
Wire Wire Line
	6550 5400 6450 5400
Text Label 6550 5400 0    50   ~ 0
AGND
Wire Wire Line
	6550 6450 6450 6450
Text Label 6550 6450 0    50   ~ 0
AGND
Text Label 2500 1400 2    50   ~ 0
Vin5V0P
Wire Wire Line
	3000 1400 2500 1400
Text Label 2350 1900 2    50   ~ 0
Vin5V0
Text Label 2350 2050 2    50   ~ 0
Vin5V0P
Wire Wire Line
	2350 1900 2350 2050
$EndSCHEMATC
